0 -47
1 -48
2 -48
3 -44
4 -48
5 -48
6 -48
7 -48
8 -45
9 -48
10 -48
11 -48
12 -48
13 -47
14 -47
15 -48
16 -48
17 -48
18 -47
19 -48
20 -49
21 -50
22 -48
23 -48
24 -47
25 -48
26 -48
27 -55
28 -55
29 0
30 0
31 -48
32 -47
33 -47
34 -47
35 -47
36 -47
37 -47
38 -47
39 -48