0 -51
1 -50
2 -52
3 -49
4 -50
5 -50
6 -51
7 -50
8 -50
9 -51
10 -50
11 -51
12 -50
13 -50
14 -50
15 -50
16 -51
17 -50
18 -51
19 -50
20 -50
21 -50
22 -50
23 -50
24 -50
25 -50
26 -51
27 -51
28 -52
29 -50
30 -51
31 -50
32 -50
33 -66
34 -51
35 -50
36 -51
37 -50
38 -51
39 -51