0 0
1 -50
2 -49
3 -49
4 -48
5 -49
6 -49
7 -49
8 -50
9 -48
10 -48
11 -48
12 -50
13 -50
14 -49
15 -48
16 -49
17 -50
18 -49
19 -49
20 -49
21 -50
22 -50
23 -49
24 -49
25 -49
26 -49
27 -49
28 -48
29 -49
30 -48
31 -49
32 -49
33 -49
34 -49
35 -48
36 -49
37 -49
38 -51
39 -49