0 -48
1 -49
2 -49
3 -48
4 -49
5 -48
6 -49
7 -49
8 -49
9 -49
10 -49
11 0
12 0
13 0
14 -49
15 -49
16 -49
17 -48
18 -49
19 -48
20 -49
21 -49
22 -49
23 -50
24 -48
25 -48
26 -49
27 -48
28 -49
29 -49
30 -49
31 -48
32 -49
33 -49
34 -49
35 -48
36 -49
37 -48
38 -49
39 -50