0 0
1 0
2 0
3 -49
4 -50
5 -50
6 -48
7 -49
8 -50
9 -49
10 -50
11 -50
12 -50
13 -49
14 -49
15 -49
16 -48
17 -50
18 -49
19 -49
20 -49
21 -50
22 -48
23 -49
24 -50
25 -49
26 -49
27 -49
28 -49
29 -49
30 -49
31 -49
32 -49
33 -49
34 -49
35 -50
36 -49
37 -48
38 -49
39 -50