0 -48
1 -49
2 -49
3 -49
4 -49
5 -48
6 -48
7 -49
8 -49
9 0
10 0
11 0
12 -49
13 -49
14 -49
15 -49
16 -49
17 -49
18 -49
19 -48
20 -50
21 -49
22 -48
23 -49
24 -49
25 -49
26 -49
27 -49
28 -49
29 -48
30 -49
31 -50
32 -49
33 -49
34 -49
35 -49
36 -49
37 -48
38 -49
39 -49