0 -49
1 -49
2 -49
3 -50
4 -49
5 -49
6 -49
7 -49
8 -49
9 -49
10 -49
11 0
12 0
13 0
14 -49
15 -49
16 -50
17 -49
18 -49
19 -49
20 -50
21 -49
22 -49
23 -49
24 -49
25 -49
26 -49
27 -49
28 -49
29 -49
30 -49
31 -49
32 -49
33 -48
34 -49
35 -49
36 -49
37 -49
38 -49
39 -49