0 -62
1 -62
2 -63
3 -64
4 -62
5 -64
6 -65
7 -63
8 -62
9 -64
10 -62
11 -62
12 -65
13 -62
14 -63
15 -64
16 -64
17 -64
18 -63
19 -65
20 -61
21 -63
22 -64
23 -64
24 -63
25 -63
26 -64
27 -62
28 -63
29 -64
30 -63
31 -64
32 -63
33 -64
34 -64
35 -62
36 -63
37 -63
38 -65
39 -65