0 -65
1 -63
2 -64
3 -64
4 -64
5 -65
6 -63
7 -63
8 -63
9 -63
10 -64
11 -63
12 -63
13 0
14 0
15 0
16 -64
17 -63
18 -63
19 -62
20 -63
21 -65
22 -62
23 -64
24 -64
25 -63
26 -63
27 -64
28 -64
29 -65
30 -64
31 -63
32 -64
33 -63
34 -63
35 -63
36 -62
37 -63
38 -63
39 -63