0 -62
1 -62
2 -61
3 -62
4 -62
5 -63
6 -62
7 -62
8 -62
9 -63
10 -63
11 -64
12 -63
13 -63
14 -63
15 -61
16 -62
17 -63
18 -61
19 -62
20 -63
21 -62
22 -63
23 -62
24 -63
25 -64
26 -64
27 -63
28 -63
29 -63
30 -62
31 -62
32 -62
33 -61
34 -63
35 -61
36 -62
37 -63
38 -63
39 -63