0 -61
1 -63
2 -63
3 -62
4 -63
5 -62
6 -63
7 -62
8 -63
9 -64
10 -63
11 -62
12 -64
13 -63
14 -65
15 -62
16 -65
17 -61
18 -62
19 -63
20 -64
21 -63
22 -63
23 -61
24 -64
25 -62
26 -63
27 -62
28 -63
29 -63
30 -62
31 -64
32 -64
33 -63
34 -63
35 -62
36 -63
37 -62
38 -63
39 -62