0 -60
1 -64
2 -64
3 -62
4 -63
5 -61
6 -64
7 -63
8 -63
9 -62
10 -64
11 -62
12 -61
13 -63
14 -64
15 -64
16 -67
17 -67
18 0
19 0
20 -64
21 -62
22 -64
23 -62
24 -63
25 -63
26 -63
27 -64
28 -64
29 -63
30 -63
31 -62
32 -63
33 -62
34 -64
35 -63
36 -64
37 -63
38 -63
39 -62