0 -63
1 -63
2 -64
3 -63
4 -61
5 -61
6 -62
7 -63
8 -62
9 -63
10 -62
11 -61
12 -60
13 -62
14 -65
15 -63
16 -63
17 -64
18 -62
19 -62
20 -63
21 -64
22 -61
23 -60
24 -59
25 -60
26 -60
27 -61
28 -60
29 -60
30 -61
31 -62
32 -63
33 -62
34 -62
35 -62
36 -62
37 -61
38 -63
39 -62