0 -64
1 -63
2 -63
3 -64
4 -63
5 -63
6 -64
7 -63
8 -63
9 -63
10 -64
11 -63
12 -64
13 -64
14 -64
15 -64
16 -64
17 -62
18 -64
19 -63
20 -64
21 -63
22 -63
23 -64
24 -63
25 -63
26 -63
27 -63
28 -64
29 -64
30 -63
31 -63
32 -63
33 -63
34 0
35 -63
36 -63
37 -62
38 -64
39 -63