0 -47
1 -47
2 -46
3 -47
4 -47
5 -48
6 -47
7 -48
8 -46
9 -47
10 -47
11 -46
12 -48
13 -47
14 -47
15 -47
16 -44
17 -46
18 -44
19 -47
20 -47
21 -47
22 -47
23 -45
24 -49
25 -46
26 -44
27 -44
28 -45
29 -45
30 -45
31 -44
32 -44
33 0
34 0
35 -47
36 -46
37 -47
38 -46
39 -42