0 -47
1 -46
2 -46
3 -46
4 -46
5 -47
6 -46
7 -46
8 -46
9 -46
10 -46
11 -46
12 -46
13 -46
14 -47
15 -46
16 -47
17 -47
18 -47
19 -47
20 -47
21 -47
22 -47
23 -47
24 -47
25 -48
26 -46
27 -45
28 -47
29 -48
30 -47
31 -46
32 -47
33 -48
34 -48
35 -47
36 -47
37 -48
38 -47
39 -46