0 -46
1 -46
2 -47
3 -46
4 -46
5 -45
6 -46
7 -46
8 -48
9 -46
10 -46
11 -47
12 -47
13 -47
14 -47
15 -47
16 -47
17 -47
18 -46
19 -47
20 -47
21 -48
22 -47
23 -46
24 -46
25 -47
26 -55
27 -55
28 0
29 -48
30 -49
31 -47
32 -47
33 -47
34 -47
35 -47
36 -47
37 -48
38 -47
39 -47