0 -47
1 -47
2 -46
3 -47
4 -47
5 -48
6 -47
7 -47
8 -44
9 -48
10 -44
11 -44
12 -47
13 -45
14 -47
15 -47
16 -47
17 -47
18 -48
19 -47
20 -47
21 -48
22 -48
23 -46
24 -44
25 -46
26 -45
27 -46
28 -46
29 -43
30 -47
31 -47
32 -44
33 -43
34 -47
35 -47
36 -47
37 -46
38 -47
39 -48