0 -47
1 -47
2 -47
3 -48
4 -47
5 -47
6 -49
7 -43
8 -47
9 -48
10 -47
11 -48
12 -47
13 -48
14 -48
15 -45
16 -47
17 -46
18 -46
19 -47
20 -46
21 -47
22 -47
23 -46
24 -48
25 -45
26 -46
27 -42
28 -46
29 -45
30 -48
31 -48
32 0
33 0
34 -47
35 -47
36 -47
37 -46
38 -47
39 -47