0 -49
1 -48
2 -45
3 -41
4 -45
5 -48
6 -47
7 -48
8 -48
9 -48
10 -48
11 -47
12 -49
13 -47
14 -47
15 -47
16 -50
17 -47
18 -47
19 -47
20 -48
21 -48
22 -47
23 -50
24 -48
25 -44
26 -48
27 -48
28 -47
29 -48
30 -48
31 -48
32 -47
33 -47
34 -48
35 -47
36 -48
37 -48
38 -49
39 -48