0 -47
1 -44
2 -44
3 -47
4 -47
5 -47
6 -47
7 -47
8 -47
9 -47
10 -47
11 -48
12 -46
13 -46
14 0
15 0
16 -46
17 -44
18 -43
19 -41
20 -44
21 -44
22 -47
23 -46
24 -45
25 -47
26 -47
27 -46
28 -47
29 -47
30 -46
31 -46
32 -47
33 -46
34 -47
35 -46
36 -48
37 -47
38 -46
39 -47