0 -55
1 -57
2 -59
3 -57
4 -57
5 -56
6 -57
7 -58
8 -57
9 -59
10 -56
11 -57
12 -57
13 -57
14 -53
15 -56
16 -56
17 -58
18 -55
19 -57
20 -58
21 -55
22 -57
23 -57
24 -56
25 -57
26 -56
27 -56
28 -56
29 -60
30 0
31 0
32 0
33 -57
34 -56
35 -56
36 -56
37 -58
38 -58
39 -56