0 -47
1 -47
2 -46
3 -46
4 -46
5 -47
6 -47
7 -46
8 -46
9 -46
10 -46
11 -47
12 -47
13 -45
14 -47
15 -46
16 -47
17 -46
18 -47
19 -47
20 -46
21 -47
22 -46
23 -47
24 -47
25 -47
26 -47
27 -47
28 -46
29 -46
30 -47
31 -46
32 -47
33 -47
34 -47
35 -46
36 -46
37 -46
38 -46
39 -46