0 -43
1 -45
2 -43
3 -53
4 -45
5 -45
6 -45
7 -44
8 -46
9 -46
10 0
11 0
12 0
13 -44
14 -43
15 -45
16 -45
17 -46
18 -46
19 -45
20 -45
21 -45
22 -46
23 -45
24 -45
25 -45
26 -45
27 -44
28 -46
29 -44
30 -45
31 -45
32 -42
33 -46
34 -45
35 -41
36 -46
37 -46
38 -44
39 -44