0 -45
1 -45
2 -46
3 -45
4 -46
5 -44
6 -44
7 -44
8 -46
9 -44
10 -46
11 0
12 0
13 0
14 -47
15 -45
16 -45
17 -44
18 -44
19 -44
20 -44
21 -46
22 -44
23 -46
24 -45
25 -44
26 -44
27 -46
28 -45
29 -45
30 -45
31 -44
32 -44
33 -44
34 -44
35 -44
36 -45
37 -45
38 -45
39 -44