0 -49
1 -48
2 -48
3 -48
4 -47
5 -49
6 -48
7 -47
8 -49
9 -49
10 -48
11 -49
12 -48
13 -48
14 -49
15 -47
16 -48
17 -48
18 -47
19 -48
20 -50
21 -48
22 -49
23 -48
24 -47
25 -48
26 -49
27 -49
28 -48
29 -49
30 -49
31 -49
32 -49
33 -48
34 -49
35 -48
36 -48
37 -49
38 -47
39 -48