0 -45
1 -45
2 -45
3 -45
4 -46
5 -45
6 -45
7 -44
8 -46
9 -45
10 -45
11 -47
12 0
13 0
14 0
15 -46
16 -44
17 -45
18 -45
19 -45
20 -45
21 -45
22 -45
23 -44
24 -45
25 -46
26 -46
27 -45
28 -45
29 -45
30 -44
31 -44
32 -44
33 -45
34 -45
35 -45
36 -44
37 -45
38 -44
39 -45