0 -47
1 -48
2 -47
3 -47
4 -47
5 -48
6 -47
7 -48
8 -47
9 -48
10 -48
11 -48
12 -48
13 -49
14 -48
15 -49
16 -48
17 -49
18 -48
19 -49
20 -49
21 -48
22 -48
23 -50
24 -48
25 -50
26 -48
27 -48
28 -48
29 -49
30 -48
31 -49
32 -49
33 -48
34 -46
35 -49
36 -48
37 -48
38 -49
39 -48