0 -38
1 -39
2 -37
3 -38
4 -37
5 -38
6 -38
7 -37
8 -37
9 -39
10 -37
11 -39
12 -37
13 -38
14 -37
15 -39
16 -38
17 -38
18 -38
19 -39
20 -38
21 -38
22 -38
23 -38
24 -38
25 -38
26 -40
27 -37
28 -38
29 -38
30 -38
31 -39
32 -38
33 -37
34 -38
35 -38
36 -39
37 -38
38 -38
39 -39