0 -38
1 -39
2 -38
3 -38
4 -38
5 -38
6 -38
7 -39
8 -39
9 -38
10 -39
11 -39
12 -38
13 -37
14 -38
15 -38
16 -38
17 -39
18 -38
19 -38
20 -38
21 -38
22 -37
23 -39
24 -39
25 -39
26 -38
27 -38
28 -40
29 -40
30 -38
31 -39
32 -39
33 -38
34 -39
35 -38
36 -39
37 -38
38 -39
39 -38