0 -50
1 -50
2 -50
3 -49
4 -49
5 -50
6 -48
7 -49
8 -48
9 -48
10 -48
11 -49
12 -49
13 -49
14 -48
15 -48
16 -48
17 -48
18 -48
19 -48
20 -49
21 -51
22 -48
23 -49
24 -48
25 -50
26 -50
27 -48
28 -51
29 -48
30 -50
31 -48
32 -50
33 -48
34 -48
35 -49
36 -48
37 -48
38 -49
39 -50