0 -34
1 -34
2 -32
3 -34
4 -34
5 -35
6 -33
7 -33
8 -33
9 -34
10 -32
11 -33
12 -34
13 -34
14 -33
15 -33
16 -34
17 -33
18 -33
19 -34
20 -33
21 -33
22 -34
23 -32
24 -33
25 -33
26 -33
27 -33
28 -34
29 -33
30 -33
31 -34
32 -34
33 -32
34 -33
35 -32
36 -32
37 -33
38 -34
39 -34