0 -42
1 -42
2 -43
3 -41
4 -43
5 -43
6 -42
7 -43
8 -43
9 -41
10 -43
11 -43
12 -40
13 -41
14 -43
15 -41
16 -42
17 -43
18 -43
19 -42
20 -43
21 -43
22 -41
23 -43
24 -43
25 -41
26 -42
27 -41
28 -43
29 -42
30 -42
31 -42
32 -42
33 -43
34 -42
35 -43
36 -41
37 -43
38 -41
39 -42