0 -47
1 -49
2 -50
3 -49
4 -50
5 -50
6 -50
7 -50
8 -49
9 -50
10 -50
11 -50
12 -50
13 -50
14 -50
15 -50
16 -50
17 -50
18 -51
19 -50
20 -50
21 -49
22 -50
23 -49
24 -50
25 -50
26 -50
27 -50
28 -50
29 -50
30 -50
31 -50
32 -50
33 -50
34 -50
35 -50
36 -50
37 -50
38 -50
39 -50