0 -51
1 -51
2 -50
3 -51
4 -51
5 -50
6 -51
7 -51
8 -50
9 -52
10 -50
11 -51
12 -52
13 -52
14 -50
15 -51
16 -52
17 -52
18 -51
19 -51
20 -52
21 -51
22 -51
23 -50
24 -51
25 -52
26 -51
27 -51
28 -51
29 -52
30 -50
31 -52
32 -51
33 -51
34 -51
35 -51
36 -51
37 -51
38 -51
39 -51