0 -48
1 -48
2 -49
3 -48
4 -48
5 -48
6 -48
7 -48
8 -47
9 -47
10 -48
11 -48
12 -48
13 -47
14 -48
15 -46
16 -45
17 -48
18 -49
19 -49
20 -48
21 -48
22 -48
23 -48
24 -48
25 -49
26 -47
27 -47
28 -46
29 -48
30 -46
31 -47
32 -47
33 -47
34 -47
35 -47
36 -48
37 -47
38 -47
39 -47