0 -49
1 -49
2 -48
3 -49
4 -49
5 -48
6 -48
7 -50
8 -48
9 -48
10 -49
11 -48
12 -48
13 -48
14 -49
15 -48
16 -49
17 -49
18 -49
19 -48
20 -48
21 -48
22 -48
23 -48
24 -48
25 -48
26 -50
27 -49
28 -48
29 -48
30 -48
31 -49
32 -48
33 -48
34 -49
35 -48
36 -50
37 -49
38 -48
39 -47