0 -43
1 -43
2 -43
3 -43
4 -43
5 -41
6 -44
7 -44
8 -44
9 -44
10 -43
11 -41
12 -43
13 -42
14 -43
15 -43
16 -43
17 -43
18 -43
19 -43
20 -43
21 -43
22 -42
23 -42
24 -43
25 -41
26 -43
27 -42
28 -42
29 -43
30 -43
31 -43
32 -43
33 -41
34 -43
35 -41
36 -42
37 -41
38 -42
39 -43