0 -55
1 -56
2 -55
3 -56
4 -56
5 -56
6 -56
7 -55
8 -56
9 -56
10 -56
11 -56
12 -55
13 -55
14 -55
15 -56
16 -56
17 -55
18 -56
19 -55
20 -56
21 -55
22 -56
23 -55
24 -55
25 -56
26 -57
27 -56
28 -56
29 -56
30 -56
31 -55
32 -57
33 -57
34 -57
35 -56
36 -56
37 -57
38 -55
39 -56