0 -50
1 -50
2 -49
3 -50
4 -49
5 -50
6 -50
7 -50
8 -50
9 -50
10 -50
11 -50
12 -50
13 -50
14 -50
15 -50
16 -50
17 -50
18 -50
19 -50
20 -51
21 -50
22 -50
23 -50
24 -49
25 -50
26 -50
27 -49
28 -51
29 -50
30 -50
31 -49
32 -49
33 -50
34 -50
35 -50
36 -50
37 -50
38 -50
39 -50