0 -58
1 -59
2 -58
3 -57
4 -58
5 -58
6 -58
7 -58
8 -58
9 -58
10 -58
11 -58
12 -58
13 -58
14 -59
15 -59
16 -58
17 -57
18 -58
19 -59
20 -58
21 -58
22 -59
23 -59
24 -58
25 -58
26 -57
27 -58
28 -58
29 -58
30 -58
31 -57
32 -58
33 -58
34 -58
35 -58
36 -58
37 -58
38 -58
39 -59