0 -51
1 -51
2 -52
3 -53
4 -50
5 -52
6 -53
7 -51
8 -51
9 -51
10 -51
11 -51
12 -51
13 -51
14 -51
15 -49
16 -51
17 -51
18 -51
19 -47
20 -53
21 -52
22 -51
23 -51
24 -52
25 -51
26 -52
27 -51
28 -51
29 -48
30 -52
31 -51
32 -51
33 -52
34 -48
35 -51
36 -50
37 -47
38 -49
39 -51