0 -57
1 -56
2 -56
3 -55
4 -55
5 -55
6 -55
7 -56
8 -57
9 -56
10 -55
11 -56
12 -55
13 -56
14 -56
15 -56
16 -57
17 -57
18 -57
19 -56
20 -56
21 -56
22 -56
23 -56
24 -55
25 -57
26 -57
27 -55
28 -55
29 -55
30 -57
31 -57
32 -56
33 -55
34 -57
35 -56
36 -57
37 -56
38 -57
39 -56