0 -59
1 -60
2 -61
3 -60
4 -60
5 -60
6 -59
7 -61
8 -59
9 -59
10 -60
11 -60
12 -59
13 -61
14 -60
15 -61
16 -60
17 -59
18 -61
19 -58
20 -61
21 -60
22 -61
23 -60
24 -60
25 -60
26 -59
27 -59
28 -59
29 -60
30 -59
31 -58
32 -60
33 -60
34 -59
35 -59
36 -60
37 -59
38 -60
39 -60