0 -48
1 -48
2 -47
3 -48
4 -48
5 -48
6 -48
7 -48
8 -47
9 -47
10 -47
11 -47
12 -47
13 -47
14 -47
15 -47
16 -47
17 -48
18 -47
19 -48
20 -47
21 -47
22 -48
23 -47
24 -45
25 -50
26 0
27 0
28 0
29 -48
30 -47
31 -47
32 -47
33 -47
34 -46
35 -46
36 -46
37 -46
38 -47
39 -47