0 -49
1 -50
2 -50
3 -49
4 -48
5 -48
6 -49
7 -49
8 -48
9 -49
10 -49
11 -49
12 -49
13 -49
14 -48
15 -49
16 -48
17 -48
18 -49
19 -50
20 -49
21 -50
22 -49
23 -49
24 -49
25 -48
26 -49
27 -49
28 -50
29 -49
30 -49
31 -50
32 -48
33 -50
34 -49
35 -48
36 -49
37 -49
38 -49
39 -50