0 -61
1 -62
2 -61
3 -61
4 -61
5 -61
6 -61
7 -60
8 -61
9 -61
10 -61
11 -61
12 -61
13 -61
14 -61
15 -61
16 -61
17 -61
18 -61
19 -61
20 -61
21 -60
22 -61
23 -60
24 -60
25 -61
26 -61
27 -61
28 -61
29 -60
30 -60
31 -60
32 -62
33 -62
34 -62
35 -61
36 -60
37 -60
38 -61
39 -61