0 -61
1 -60
2 -60
3 -60
4 -62
5 -62
6 -61
7 -61
8 -60
9 -61
10 -61
11 -60
12 -61
13 -61
14 -60
15 -61
16 -61
17 -61
18 -61
19 -61
20 -61
21 -61
22 -61
23 -60
24 -60
25 -60
26 -60
27 -61
28 -60
29 -61
30 -60
31 -60
32 -61
33 -60
34 -61
35 -61
36 -61
37 -61
38 -60
39 -61