0 -60
1 -62
2 -61
3 -61
4 -62
5 -61
6 -62
7 -61
8 -61
9 -60
10 -61
11 -61
12 -61
13 -61
14 -62
15 -61
16 -62
17 -62
18 -61
19 -62
20 -60
21 -61
22 -62
23 -61
24 -62
25 -60
26 -61
27 -60
28 -61
29 -61
30 -61
31 -61
32 -61
33 -62
34 -61
35 -62
36 -61
37 -62
38 -61
39 -62