0 -62
1 -61
2 -61
3 -61
4 -62
5 -62
6 -60
7 -61
8 -61
9 -61
10 -61
11 -61
12 -61
13 -62
14 -61
15 -61
16 -61
17 -61
18 -62
19 -62
20 -62
21 -61
22 -60
23 -61
24 -62
25 -62
26 -61
27 -61
28 -61
29 -61
30 -62
31 -62
32 -61
33 -61
34 -62
35 -61
36 -61
37 -62
38 -61
39 -60