0 -60
1 -61
2 -61
3 -61
4 -61
5 -61
6 -61
7 -61
8 -61
9 -61
10 -60
11 -61
12 -61
13 -61
14 -61
15 -61
16 -61
17 -61
18 -61
19 -62
20 -61
21 -61
22 -60
23 -61
24 -60
25 -61
26 -61
27 -61
28 -60
29 -61
30 -61
31 -61
32 -60
33 -61
34 -61
35 -61
36 -61
37 -61
38 -61
39 -60