0 -43
1 -42
2 -44
3 -43
4 -43
5 -43
6 -43
7 -42
8 -44
9 -43
10 -43
11 -43
12 -44
13 -44
14 -43
15 -43
16 -43
17 -43
18 -42
19 -44
20 -42
21 -43
22 -44
23 -43
24 -42
25 -44
26 -44
27 -42
28 -44
29 -44
30 -44
31 -44
32 -42
33 -42
34 -43
35 -43
36 -42
37 -41
38 -42
39 -42