0 -44
1 -44
2 -45
3 -44
4 -42
5 -43
6 -44
7 -45
8 -45
9 -42
10 -42
11 -43
12 -44
13 -42
14 -44
15 -44
16 -42
17 -43
18 -44
19 -41
20 -41
21 -43
22 -44
23 -44
24 -44
25 -44
26 -44
27 -44
28 -43
29 -47
30 -43
31 -44
32 -43
33 -44
34 -43
35 -44
36 -44
37 -42
38 -44
39 -42