0 -44
1 -44
2 -42
3 -42
4 -43
5 -41
6 -41
7 -43
8 -42
9 -44
10 -43
11 -43
12 -42
13 -43
14 -44
15 -42
16 -42
17 -42
18 -44
19 -41
20 -43
21 -42
22 -42
23 -44
24 -41
25 -44
26 -65
27 -43
28 -43
29 -43
30 -42
31 -43
32 -43
33 -44
34 -43
35 -42
36 -42
37 -42
38 -42
39 -42