0 -41
1 -43
2 -42
3 -44
4 -41
5 -42
6 -43
7 -43
8 -41
9 -42
10 -41
11 -42
12 -41
13 -43
14 -43
15 -41
16 -42
17 -44
18 -43
19 -39
20 -42
21 -44
22 -41
23 -43
24 -43
25 -43
26 -43
27 -43
28 -42
29 -43
30 -44
31 -44
32 -42
33 -42
34 -43
35 -44
36 -41
37 -43
38 -43
39 -43