0 -42
1 -44
2 -43
3 -44
4 -43
5 -41
6 -42
7 -41
8 -41
9 -42
10 -43
11 -43
12 -43
13 -42
14 -44
15 -43
16 -44
17 -42
18 -41
19 -44
20 -42
21 -39
22 -43
23 -42
24 -43
25 -41
26 -43
27 -44
28 -43
29 -43
30 -42
31 -44
32 -42
33 -42
34 -43
35 -42
36 -42
37 -42
38 -41
39 -44