0 -61
1 -59
2 -61
3 -60
4 -61
5 -60
6 -60
7 -61
8 -60
9 -61
10 -60
11 -60
12 -60
13 -60
14 -62
15 -60
16 -60
17 -60
18 -59
19 -61
20 -61
21 -59
22 -61
23 -59
24 -59
25 -60
26 -60
27 -60
28 -56
29 -61
30 -60
31 -61
32 -59
33 -60
34 -61
35 -62
36 -59
37 -59
38 -61
39 -61