0 -60
1 -60
2 -59
3 -57
4 -60
5 -60
6 -61
7 -57
8 -59
9 -56
10 0
11 0
12 0
13 -59
14 -58
15 -58
16 -60
17 -59
18 -60
19 -58
20 -60
21 -60
22 -59
23 -61
24 -60
25 -61
26 -59
27 -61
28 -61
29 -60
30 -61
31 -56
32 -56
33 -56
34 -56
35 -56
36 -55
37 -55
38 -55
39 -55