0 -58
1 -60
2 -62
3 -60
4 -61
5 -60
6 -60
7 -60
8 -61
9 -61
10 -62
11 -61
12 -60
13 -61
14 -59
15 -61
16 -60
17 0
18 0
19 0
20 -60
21 -62
22 -59
23 -60
24 -59
25 -60
26 -60
27 -60
28 -60
29 -60
30 -59
31 -61
32 -59
33 -61
34 -62
35 -60
36 -61
37 -61
38 -61
39 -61