0 -49
1 -48
2 -48
3 -50
4 -48
5 -48
6 -47
7 -49
8 -48
9 -49
10 -48
11 -48
12 -48
13 -50
14 -47
15 -48
16 -48
17 -48
18 -47
19 -48
20 -49
21 -47
22 -48
23 -48
24 -48
25 -48
26 -49
27 -49
28 -48
29 -50
30 -48
31 -48
32 -48
33 -47
34 -49
35 -48
36 -48
37 -48
38 -48
39 -47