0 -52
1 -52
2 -51
3 -49
4 -51
5 -51
6 -52
7 -52
8 -52
9 -52
10 -52
11 -51
12 -52
13 -52
14 -50
15 -51
16 -52
17 -51
18 -52
19 -53
20 -51
21 -52
22 -52
23 -51
24 -52
25 -51
26 -51
27 -52
28 -52
29 -53
30 -51
31 -51
32 -52
33 -51
34 -51
35 -52
36 -51
37 -52
38 -52
39 -52