0 -58
1 -56
2 -59
3 -58
4 -57
5 -58
6 -59
7 -58
8 -59
9 -58
10 -57
11 -59
12 -59
13 -58
14 -58
15 -59
16 -58
17 -58
18 -59
19 -58
20 -58
21 -58
22 -59
23 -59
24 -59
25 -57
26 -57
27 -58
28 -58
29 -58
30 -58
31 -58
32 -58
33 -58
34 -59
35 -59
36 -58
37 -57
38 -57
39 -59