0 -59
1 -59
2 -59
3 -59
4 -59
5 -59
6 -59
7 -59
8 -60
9 -59
10 -59
11 -59
12 -59
13 -59
14 -59
15 -59
16 -59
17 -59
18 -59
19 -59
20 -60
21 -59
22 -60
23 -60
24 -60
25 -59
26 -60
27 -60
28 -59
29 -60
30 -59
31 -60
32 -59
33 -60
34 -60
35 -60
36 -60
37 -59
38 -60
39 -60