0 -59
1 -60
2 -58
3 -59
4 -59
5 -60
6 -60
7 -59
8 -59
9 -58
10 -59
11 -59
12 -59
13 -60
14 -59
15 -59
16 -60
17 -59
18 -59
19 -60
20 -60
21 -60
22 -59
23 -59
24 -59
25 -59
26 -60
27 -59
28 -59
29 -59
30 -58
31 -59
32 -59
33 -60
34 -59
35 -58
36 -59
37 -59
38 -60
39 -59