0 -59
1 -58
2 -59
3 -59
4 -60
5 -60
6 -59
7 -59
8 -55
9 -56
10 -60
11 -59
12 -58
13 -59
14 -59
15 -59
16 -59
17 -59
18 -60
19 -59
20 -60
21 -60
22 -59
23 -59
24 -59
25 -59
26 -58
27 -59
28 -59
29 -60
30 -59
31 -59
32 -59
33 -58
34 -60
35 -59
36 -59
37 -59
38 -59
39 -59