0 -60
1 -60
2 -59
3 -59
4 -59
5 -60
6 -59
7 -59
8 -59
9 -60
10 -60
11 -59
12 -60
13 -60
14 -60
15 -60
16 -60
17 -59
18 -60
19 -60
20 -59
21 -60
22 -59
23 -60
24 -60
25 -60
26 -60
27 -59
28 -60
29 -60
30 -60
31 -60
32 -60
33 -60
34 -60
35 -60
36 -59
37 -59
38 -58
39 -59