0 -59
1 -59
2 -60
3 -59
4 -59
5 -59
6 -58
7 -60
8 -59
9 -59
10 -58
11 -59
12 -59
13 -59
14 -59
15 -59
16 -59
17 -59
18 -59
19 -59
20 -60
21 -57
22 -59
23 -60
24 -59
25 -60
26 -59
27 -60
28 -60
29 -59
30 -59
31 -60
32 -59
33 -60
34 -60
35 -59
36 -59
37 -59
38 -59
39 -60