0 -58
1 -58
2 -59
3 -59
4 -57
5 -59
6 -60
7 -59
8 -59
9 -58
10 -59
11 -60
12 -60
13 -59
14 -59
15 -60
16 -60
17 -60
18 -60
19 -61
20 -60
21 -61
22 -60
23 -59
24 -60
25 -59
26 -60
27 -60
28 -60
29 -60
30 -61
31 -62
32 -60
33 -60
34 -60
35 -59
36 -60
37 -61
38 -60
39 -60