0 -59
1 -59
2 -59
3 -59
4 -58
5 -59
6 -60
7 -58
8 -60
9 -60
10 -60
11 -59
12 -59
13 -59
14 -56
15 -58
16 -61
17 -59
18 -59
19 -58
20 -59
21 -59
22 -59
23 -59
24 -59
25 -59
26 -59
27 -59
28 -59
29 -60
30 -59
31 -58
32 -59
33 -58
34 -59
35 -58
36 -60
37 -59
38 -59
39 -59