0 -60
1 -59
2 -60
3 -59
4 -59
5 -60
6 -61
7 -59
8 -58
9 -60
10 -60
11 -60
12 -59
13 -59
14 -59
15 -60
16 -58
17 -60
18 -59
19 -60
20 -59
21 -60
22 -60
23 -58
24 -59
25 -59
26 -59
27 -58
28 -60
29 -60
30 -59
31 -60
32 -60
33 -59
34 -58
35 -60
36 -60
37 -58
38 -60
39 -60