0 -47
1 -46
2 -46
3 -47
4 -46
5 -46
6 -46
7 -46
8 -45
9 -45
10 -46
11 -45
12 -46
13 -46
14 -46
15 -46
16 -46
17 -46
18 -46
19 -46
20 -46
21 -46
22 -46
23 -46
24 -46
25 -45
26 -46
27 -46
28 -46
29 -46
30 -46
31 -46
32 -46
33 -45
34 -46
35 -45
36 -46
37 -46
38 -46
39 -47