0 -44
1 -46
2 -46
3 -45
4 -46
5 -46
6 -46
7 -46
8 -46
9 -46
10 -46
11 -46
12 -46
13 -46
14 -45
15 -45
16 -46
17 -45
18 -46
19 -46
20 -46
21 -46
22 -46
23 -46
24 -46
25 -46
26 -46
27 -46
28 -46
29 -46
30 -46
31 -46
32 -46
33 -45
34 -46
35 -46
36 -46
37 -46
38 -46
39 -46