0 -45
1 -46
2 -46
3 -45
4 -45
5 -46
6 -46
7 -45
8 -46
9 -56
10 0
11 0
12 0
13 -45
14 -45
15 -45
16 -46
17 -45
18 -46
19 -45
20 -46
21 -46
22 -46
23 -46
24 -46
25 -46
26 -46
27 -45
28 -46
29 -46
30 -47
31 -46
32 -46
33 -46
34 -46
35 -45
36 -44
37 -46
38 -46
39 -46