0 -45
1 -45
2 -46
3 -46
4 -46
5 -46
6 -46
7 -45
8 -45
9 -45
10 -45
11 -45
12 -47
13 -45
14 -46
15 -45
16 -46
17 -46
18 -46
19 -46
20 -46
21 -46
22 -46
23 -46
24 -46
25 -46
26 -46
27 -46
28 -46
29 -46
30 -45
31 -46
32 -46
33 -47
34 -46
35 -46
36 -47
37 -47
38 -47
39 -47