0 -55
1 -56
2 -56
3 -56
4 -55
5 -55
6 -56
7 -55
8 -55
9 -56
10 -55
11 -55
12 -55
13 -55
14 -55
15 -56
16 -55
17 -55
18 -56
19 -55
20 -55
21 -55
22 -56
23 -55
24 -56
25 -55
26 -55
27 -55
28 -56
29 -55
30 -55
31 -56
32 -56
33 -56
34 -56
35 -56
36 -55
37 -56
38 -55
39 -55