0 -53
1 -52
2 -51
3 -53
4 -53
5 -52
6 -53
7 -53
8 -53
9 -51
10 -52
11 -53
12 -51
13 -52
14 -52
15 -53
16 -53
17 -53
18 -52
19 -52
20 -52
21 -53
22 -52
23 -54
24 -63
25 -52
26 -51
27 -52
28 -52
29 -52
30 -53
31 -53
32 -52
33 -53
34 -52
35 -53
36 -53
37 -53
38 -52
39 -52