0 -61
1 -58
2 -57
3 -58
4 -58
5 -58
6 -58
7 -58
8 -57
9 -58
10 -58
11 -58
12 -58
13 -58
14 -58
15 -58
16 -57
17 -58
18 -58
19 -58
20 -58
21 -57
22 -58
23 -58
24 -58
25 -58
26 -58
27 -58
28 -58
29 -57
30 -58
31 -58
32 -58
33 -57
34 -58
35 -58
36 -58
37 -58
38 -58
39 -58