0 -51
1 -52
2 -53
3 -52
4 -53
5 -52
6 -54
7 -52
8 -53
9 -52
10 -53
11 -53
12 -54
13 -54
14 -54
15 -53
16 -53
17 -52
18 -53
19 -53
20 -53
21 -51
22 -52
23 -54
24 -53
25 -52
26 -51
27 -53
28 -53
29 -53
30 -53
31 -54
32 -52
33 -53
34 -53
35 -53
36 -52
37 -53
38 -53
39 -53