0 -44
1 -44
2 -44
3 -44
4 -44
5 -44
6 -44
7 -44
8 -43
9 -44
10 -43
11 -44
12 -44
13 -42
14 -43
15 -44
16 -44
17 -44
18 -44
19 -43
20 -43
21 -44
22 -44
23 -43
24 -44
25 -44
26 -43
27 -43
28 -44
29 -44
30 -43
31 -43
32 -44
33 -43
34 -44
35 -44
36 -44
37 -44
38 -44
39 -44