0 -44
1 -44
2 -43
3 -44
4 -44
5 -43
6 -44
7 -44
8 -43
9 -44
10 -43
11 -43
12 -42
13 -44
14 -43
15 -42
16 -42
17 -43
18 -44
19 -44
20 -44
21 -44
22 -44
23 -44
24 -43
25 -43
26 -44
27 -44
28 -42
29 -43
30 -44
31 -43
32 -44
33 -44
34 -43
35 -43
36 -44
37 -42
38 -45
39 -43