0 -40
1 -42
2 -43
3 -43
4 -43
5 -44
6 -44
7 -44
8 -44
9 -44
10 -44
11 -44
12 -44
13 -43
14 -45
15 -44
16 -44
17 -44
18 -43
19 -45
20 -44
21 -44
22 -44
23 -44
24 -44
25 -44
26 -43
27 -44
28 -43
29 -44
30 -44
31 -43
32 -44
33 -42
34 -44
35 -43
36 -43
37 -43
38 -44
39 -43