0 -44
1 -44
2 -43
3 -44
4 -44
5 -44
6 -44
7 -44
8 -43
9 -43
10 -43
11 -45
12 -44
13 -44
14 -44
15 -44
16 -45
17 -44
18 -43
19 -44
20 -44
21 -43
22 -44
23 -44
24 -43
25 -44
26 -44
27 -44
28 -43
29 -44
30 -43
31 -45
32 -43
33 -44
34 -43
35 -44
36 -44
37 -44
38 -44
39 -43