0 -43
1 -44
2 -43
3 -44
4 -44
5 -44
6 -41
7 -44
8 -43
9 -44
10 -42
11 -43
12 -47
13 -41
14 -44
15 -44
16 -43
17 -44
18 -43
19 -44
20 -45
21 -44
22 -43
23 -44
24 -44
25 -44
26 -44
27 -44
28 -43
29 -44
30 -44
31 -43
32 -44
33 -43
34 -43
35 -43
36 -44
37 -43
38 -43
39 -44