0 -44
1 -44
2 -43
3 -44
4 -43
5 -43
6 -41
7 -44
8 -44
9 -44
10 -44
11 -43
12 -44
13 -43
14 -44
15 -43
16 -43
17 -42
18 -44
19 -41
20 -44
21 -44
22 -43
23 -44
24 -42
25 -43
26 -43
27 -43
28 -43
29 -44
30 -43
31 -44
32 -44
33 -42
34 -44
35 -44
36 -44
37 -44
38 -44
39 -43