0 -44
1 -44
2 -44
3 -43
4 -43
5 -43
6 -45
7 -44
8 -43
9 -44
10 -44
11 -44
12 -44
13 -44
14 -44
15 -44
16 -43
17 -44
18 -44
19 -43
20 -44
21 -43
22 -44
23 -44
24 -43
25 -43
26 -44
27 -44
28 -44
29 -44
30 -44
31 -43
32 -43
33 -44
34 -43
35 -43
36 -44
37 -43
38 -44
39 -43