0 -61
1 -63
2 -61
3 -61
4 -62
5 -61
6 -62
7 -61
8 -61
9 -62
10 -61
11 -62
12 -61
13 -63
14 -60
15 -59
16 -61
17 -62
18 -62
19 -62
20 -62
21 -62
22 -62
23 -62
24 -62
25 -62
26 -61
27 -61
28 -62
29 -61
30 -61
31 -61
32 -61
33 -61
34 -62
35 -61
36 -61
37 -61
38 -61
39 -62