0 -61
1 -61
2 -61
3 -60
4 -61
5 -61
6 -62
7 -61
8 -61
9 -62
10 -62
11 -61
12 -61
13 -60
14 -61
15 -62
16 -62
17 -61
18 -61
19 -60
20 -61
21 -62
22 -61
23 -61
24 -61
25 -61
26 -62
27 -61
28 -62
29 -61
30 -61
31 -62
32 -61
33 -61
34 -60
35 -60
36 -62
37 -61
38 -61
39 -61