0 -61
1 -62
2 -62
3 -61
4 -61
5 -61
6 -61
7 -61
8 -61
9 -62
10 -62
11 -62
12 -61
13 -61
14 -61
15 -62
16 -61
17 -62
18 -62
19 -62
20 -61
21 -61
22 -62
23 -61
24 -62
25 -61
26 -61
27 -62
28 -61
29 -61
30 -61
31 -61
32 -61
33 -60
34 -61
35 -61
36 -61
37 -61
38 -62
39 -60