0 -61
1 -61
2 -61
3 -61
4 -62
5 -61
6 -61
7 -62
8 -61
9 -61
10 -61
11 -63
12 -62
13 -62
14 -62
15 -61
16 -62
17 -62
18 -62
19 -62
20 -63
21 -62
22 -62
23 -63
24 -62
25 -63
26 -61
27 -61
28 -62
29 -61
30 -62
31 -62
32 -62
33 -63
34 -62
35 -61
36 -63
37 -62
38 -62
39 -61