0 -55
1 -55
2 -55
3 -55
4 -55
5 -55
6 -56
7 -56
8 -55
9 -56
10 -55
11 -55
12 -55
13 -55
14 -55
15 -56
16 -56
17 -55
18 -55
19 -55
20 -54
21 -54
22 -56
23 -56
24 -54
25 -55
26 -54
27 -55
28 -56
29 -56
30 -55
31 -54
32 -55
33 -55
34 -54
35 -55
36 -55
37 -55
38 -56
39 -56