0 -41
1 -41
2 -42
3 -41
4 -42
5 -42
6 -40
7 -42
8 -40
9 -41
10 -40
11 -40
12 -41
13 -42
14 -42
15 -41
16 -42
17 -40
18 -42
19 -41
20 -41
21 -41
22 -41
23 -42
24 -41
25 -41
26 -40
27 -42
28 -40
29 -41
30 -41
31 -41
32 -40
33 -42
34 -40
35 -40
36 -43
37 -42
38 -40
39 -42