0 -52
1 -51
2 -50
3 -49
4 -53
5 -51
6 -50
7 -50
8 -51
9 -57
10 -53
11 -53
12 -51
13 -54
14 -54
15 -51
16 -51
17 -50
18 -54
19 -53
20 -51
21 -49
22 -50
23 -50
24 -52
25 -53
26 -52
27 -53
28 -54
29 -53
30 -55
31 -53
32 -53
33 -53
34 -53
35 -53
36 -52
37 -52
38 -53
39 -54