0 -57
1 -57
2 -58
3 -58
4 -56
5 -57
6 -56
7 -56
8 -57
9 -72
10 -56
11 -55
12 -57
13 -56
14 -58
15 -57
16 -58
17 -57
18 -57
19 -57
20 -57
21 -58
22 -57
23 -57
24 -59
25 -58
26 -59
27 -57
28 -57
29 -57
30 -56
31 -57
32 -58
33 -58
34 -57
35 -58
36 -58
37 -58
38 -57
39 -57