0 -63
1 -61
2 -62
3 -61
4 -62
5 -61
6 -63
7 -62
8 -62
9 -63
10 -62
11 -61
12 -62
13 -62
14 -62
15 -60
16 -62
17 -61
18 -62
19 -61
20 -63
21 -62
22 -62
23 -63
24 -60
25 -63
26 -62
27 -63
28 -62
29 -63
30 -63
31 -62
32 -63
33 -62
34 -62
35 -61
36 -62
37 -62
38 -62
39 -62