0 -60
1 -60
2 -60
3 -60
4 -60
5 -60
6 -61
7 -60
8 -60
9 -61
10 -61
11 -60
12 -60
13 -61
14 -60
15 -61
16 -62
17 -61
18 -60
19 -60
20 -61
21 -61
22 -61
23 -60
24 -62
25 -61
26 -61
27 -61
28 -61
29 -61
30 -61
31 -61
32 -61
33 -61
34 -60
35 -61
36 -62
37 -60
38 -61
39 -60