0 -42
1 -43
2 -42
3 -41
4 -43
5 -43
6 -42
7 -41
8 -43
9 -43
10 -43
11 -42
12 -42
13 -42
14 -43
15 -42
16 -42
17 -42
18 -42
19 -43
20 -42
21 -43
22 -41
23 -42
24 -42
25 -42
26 -43
27 -42
28 -43
29 -42
30 -42
31 -42
32 -42
33 -41
34 -42
35 -42
36 -42
37 -42
38 -42
39 -42
40 -42
41 -41
42 -42
43 -42
44 -42
45 -40
46 -42
47 -43
48 -43
49 -48
50 -42
51 -41
52 -41
53 -42
54 -42
55 -42
56 -41
57 -41
58 -42
59 -41
60 -43
61 -42
62 -41
63 -40
64 -42
65 -42
66 -42
67 -43
68 -43
69 -42
70 -42
71 -41
72 -42
73 -43
74 -42
75 -43
76 -44
77 -45
78 -44
79 -46
80 -44
81 -45
82 -45
83 -44
84 -46
85 -45
86 -46
87 -44