0 -52
1 -53
2 -52
3 -53
4 -53
5 -52
6 -52
7 -53
8 -53
9 -53
10 -53
11 -53
12 -53
13 -54
14 -53
15 -53
16 -52
17 -54
18 -53
19 -52
20 -53
21 -53
22 -52
23 -52
24 -53
25 -51
26 -52
27 -52
28 -52
29 -53
30 -53
31 -53
32 -54
33 -53
34 -52
35 -52
36 -53
37 -52
38 -53
39 -53
40 -52
41 -52
42 -52
43 -53
44 -52
45 -52
46 -53
47 -52
48 -52
49 -52
50 -52
51 -52
52 -52
53 -51
54 -51
55 -53
56 -54
57 -53
58 -54
59 -54
60 -53
61 -55
62 -57
63 -58
64 -55
65 -55
66 -55
67 -55
68 -56
69 -57
70 -54
71 -51
72 -52
73 -52
74 -51
75 -51
76 -54
77 -56
78 -55
79 -55
80 -56
81 -56
82 -55
83 -53
84 -56
85 -53
86 -53