0 -50
1 -51
2 -50
3 -51
4 -50
5 -52
6 -49
7 -50
8 -50
9 -50
10 -51
11 -51
12 -51
13 -50
14 -50
15 -51
16 -50
17 -50
18 -48
19 -51
20 -51
21 -51
22 -48
23 -50
24 -50
25 -51
26 -49
27 -49
28 -51
29 -50
30 -50
31 -50
32 -50
33 -49
34 -50
35 -50
36 -50
37 -49
38 -51
39 -52
40 -49
41 -50
42 -51
43 -50
44 -49
45 -49
46 -50
47 -49
48 -50
49 -50
50 -51
51 -50
52 -49
53 -50
54 -51
55 -66
56 -51
57 -50
58 -50
59 -50
60 -50
61 -50
62 -50
63 -50
64 -50
65 -50
66 -51
67 -50
68 -50
69 -50
70 -50
71 -50
72 -49
73 -49
74 -51
75 -49
76 -50
77 -50
78 -48
79 -49
80 -50
81 -50
82 -50
83 -49
84 -50
85 -50
86 -48
87 -51
88 -50
89 -50
90 -51
91 -50
92 -51
93 -50
94 -50
95 -50
96 -51
97 -50
98 -50
99 -49