0 -40
1 -40
2 -40
3 -40
4 -40
5 -40
6 -41
7 -41
8 -41
9 -39
10 -40
11 -40
12 -40
13 -40
14 -41
15 -40
16 -40
17 -41
18 -40
19 -40
20 -40
21 -40
22 -40
23 -40
24 -40
25 -40
26 -40
27 -40
28 -40
29 -40
30 -41
31 -40
32 -41
33 -40
34 -41
35 -41
36 -41
37 -40
38 -40
39 -41
40 -40
41 -41
42 -40
43 -39
44 -41
45 -40
46 -39
47 -41
48 -40
49 -40
50 -40
51 -40
52 -39
53 -41
54 -40
55 -40
56 -40
57 -40
58 -40
59 -40
60 -39
61 -40
62 -39
63 -40
64 -40
65 -40
66 -40
67 -39
68 -40
69 -40
70 -41
71 -40
72 -40
73 -40
74 -40
75 -40
76 -41
77 -40
78 -39
79 -40
80 -40
81 -39
82 -39
83 -39
84 -40
85 -39
86 -40
87 -40
88 -39
89 -40
90 -40
91 -40
92 -39
93 -41
94 -39
95 -40
96 -40
97 -41
98 -40
99 -40