0 -46
1 -46
2 -46
3 -47
4 -47
5 -47
6 -47
7 -47
8 -47
9 -45
10 -47
11 -46
12 -46
13 -47
14 -45
15 -48
16 -46
17 -48
18 -46
19 -45
20 -46
21 -45
22 -46
23 -47
24 -46
25 -46
26 -47
27 -46
28 -46
29 -47
30 -45
31 -45
32 -47
33 -46
34 -46
35 -46
36 -46
37 -47
38 -47
39 -45
40 -47
41 -47
42 -45
43 -46
44 -46
45 -46
46 -46
47 -45
48 -46
49 -46
50 -46
51 -45
52 -46
53 -47
54 -47
55 -45
56 -45
57 -66
58 -48
59 -47
60 -46
61 -46
62 -46
63 -46
64 -45
65 -47
66 -46
67 -46
68 -46
69 -52
70 -47
71 -46
72 -45
73 -43
74 -43
75 -44
76 -44
77 -43
78 -46
79 -46
80 -46
81 -47
82 -48
83 -47
84 -45
85 -44
86 -43
87 -43
88 -44
89 -44
90 -46
91 -44
92 -45
93 -45
94 -44
95 -44
96 -46
97 -44