0 -42
1 -44
2 -44
3 -44
4 -44
5 -44
6 -43
7 -42
8 -44
9 -42
10 -43
11 -42
12 -43
13 -42
14 -42
15 -44
16 -43
17 -43
18 -43
19 -42
20 -43
21 -42
22 -43
23 -42
24 -42
25 -42
26 -42
27 -44
28 -44
29 -42
30 -42
31 -42
32 -42
33 -42
34 -41
35 -42
36 -42
37 -43
38 -42
39 -43
40 -44
41 -42
42 -44
43 -43
44 -42
45 -44
46 -41
47 -43
48 -44
49 -42
50 -44
51 -43
52 -43
53 -43
54 -42
55 -42
56 -43
57 -43
58 -42
59 -43
60 -43
61 -43
62 -42
63 -42
64 -42
65 -43
66 -42
67 -42
68 -43
69 -42
70 -43
71 -42
72 -42
73 -44
74 -43
75 -43
76 -42
77 -43
78 -42
79 -43
80 -44
81 -42
82 -41
83 -42
84 -43
85 -43
86 -41
87 -41
88 -42
89 -42
90 -43
91 -42
92 -41
93 -43
94 -42
95 -42
96 -43
97 -43
98 -42
99 -42