0 -53
1 -53
2 -53
3 -52
4 -53
5 -52
6 -50
7 -52
8 -52
9 -52
10 -52
11 -52
12 -53
13 -52
14 -52
15 -52
16 -53
17 -53
18 -53
19 -52
20 -53
21 -53
22 -53
23 -52
24 -52
25 -53
26 -53
27 -53
28 -52
29 -53
30 -52
31 -52
32 -52
33 -52
34 -53
35 -51
36 -51
37 -51
38 -51
39 -51
40 -51
41 -52
42 -52
43 -52
44 -53
45 -53
46 -53
47 -53
48 -53
49 -53
50 -53
51 -53
52 -52
53 -53
54 -53
55 -54
56 -53
57 -54
58 -53
59 -63
60 -52
61 -52
62 -51
63 -52
64 -52
65 -52
66 -52
67 -52
68 -51
69 -52
70 -52
71 -53
72 -53
73 -53
74 -53
75 -52
76 -52
77 -52
78 -52
79 -51
80 -53
81 -52
82 -52
83 -53
84 -51
85 -54
86 -54
87 -54
88 -54
89 -52
90 -52
91 -52
92 -53
93 -51
94 -53
95 -52
96 -51
97 -53
98 -52
99 -52