0 -43
1 -44
2 -40
3 -44
4 -44
5 -44
6 -44
7 -44
8 -43
9 -43
10 -44
11 -43
12 -43
13 -43
14 -43
15 -43
16 -43
17 -42
18 -43
19 -42
20 -43
21 -43
22 -44
23 -42
24 -44
25 -42
26 -44
27 -43
28 -43
29 -43
30 -42
31 -43
32 -43
33 -43
34 -43
35 -43
36 -44
37 -43
38 -42
39 -42
40 -43
41 -43
42 -43
43 -43
44 -44
45 -44
46 -44
47 -43
48 -44
49 -43
50 -44
51 -44
52 -43
53 -44
54 -42
55 -43
56 -42
57 -43
58 -42
59 -43
60 -43
61 -43
62 -43
63 -43
64 -43
65 -43
66 -43
67 -42
68 -43
69 -44
70 -44
71 -42
72 -44
73 -42
74 -43
75 -43
76 -42
77 -42
78 -44
79 -42
80 -44
81 -43
82 -44
83 -43
84 -43
85 -43
86 -44
87 -43
88 -41
89 -42
90 -42
91 -43
92 -43
93 -44
94 -43
95 -43
96 -44
97 -44
98 -43
99 -42