0 -43
1 -44
2 -44
3 -42
4 -44
5 -43
6 -42
7 -43
8 -45
9 -43
10 -43
11 -43
12 -44
13 -44
14 -43
15 -43
16 -43
17 -44
18 -43
19 -43
20 -43
21 -44
22 -44
23 -43
24 -44
25 -43
26 -43
27 -44
28 -43
29 -39
30 -45
31 -45
32 -45
33 -45
34 -43
35 -42
36 -44
37 -42
38 -42
39 -42
40 -40
41 -44
42 -44
43 -43
44 -42
45 -43
46 -44
47 -42
48 -44
49 -43
50 -42
51 -42
52 -43
53 -42
54 -43
55 -42
56 -43
57 -42
58 -42
59 -42
60 -43
61 -44
62 -42
63 -43
64 -44
65 -43
66 -42
67 -42
68 -43
69 -43
70 -44
71 -43
72 -42
73 -42
74 -43
75 -43
76 -45
77 -43
78 -46
79 -46
80 -47
81 -49
82 -48
83 -50
84 -47
85 -46
86 -45
87 -43
88 -42
89 -42
90 -41
91 -41
92 -42
93 -41
94 -43
95 -43
96 -43
97 -41