0 -51
1 -51
2 -52
3 -50
4 -52
5 -52
6 -52
7 -51
8 -52
9 -51
10 -52
11 -52
12 -50
13 -50
14 -51
15 -52
16 -52
17 -51
18 -51
19 -51
20 -50
21 -51
22 -51
23 -50
24 -52
25 -51
26 -51
27 -52
28 -51
29 -51
30 -51
31 -51
32 -51
33 -51
34 -51
35 -51
36 -51
37 -51
38 -51
39 -51
40 -50
41 -51
42 -51
43 -51
44 -51
45 -51
46 -51
47 -50
48 -50
49 -51
50 -51
51 -52
52 -51
53 -51
54 -51
55 -51
56 -50
57 -51
58 -50
59 -50
60 -51
61 -51
62 -51
63 -50
64 -51
65 -48
66 -48
67 -49
68 -48
69 -47
70 -47
71 -50
72 -48
73 -49
74 -51
75 -51
76 -55
77 -57
78 -61
79 -57
80 -56
81 -58
82 -58
83 -58
84 -57