0 -43
1 -43
2 -45
3 -43
4 -42
5 -42
6 -44
7 -42
8 -43
9 -43
10 -43
11 -43
12 -44
13 -43
14 -44
15 -44
16 -43
17 -43
18 -43
19 -43
20 -42
21 -44
22 -44
23 -43
24 -43
25 -42
26 -42
27 -42
28 -43
29 -43
30 -44
31 -42
32 -43
33 -43
34 -43
35 -44
36 -44
37 -43
38 -43
39 -42
40 -42
41 -42
42 -44
43 -43
44 -42
45 -44
46 -44
47 -43
48 -66
49 -43
50 -42
51 -43
52 -43
53 -42
54 -43
55 -43
56 -42
57 -42
58 -44
59 -43
60 -43
61 -44
62 -43
63 -43
64 -42
65 -43
66 -42
67 -43
68 -42
69 -43
70 -43
71 -42
72 -42
73 -42
74 -43
75 -43
76 -42
77 -42
78 -42
79 -42
80 -42
81 -44
82 -42
83 -44
84 -44
85 -42
86 -43
87 -44
88 -44
89 -44
90 -42
91 -44
92 -42
93 -43
94 -42
95 -42
96 -43
97 -43
98 -43
99 -44