0 -53
1 -54
2 -54
3 -53
4 -53
5 -54
6 -53
7 -54
8 -52
9 -52
10 -52
11 -53
12 -54
13 -53
14 -52
15 -53
16 -53
17 -53
18 -54
19 -52
20 -52
21 -52
22 -53
23 -52
24 -52
25 -52
26 -52
27 -52
28 -52
29 -52
30 -53
31 -52
32 -53
33 -53
34 -53
35 -53
36 -53
37 -52
38 -53
39 -53
40 -53
41 -53
42 -53
43 -53
44 -53
45 -53
46 -52
47 -53
48 -53
49 -53
50 -54
51 -53
52 -54
53 -54
54 -53
55 -53
56 -53
57 -53
58 -53
59 -54
60 -53
61 -52
62 -52
63 -51
64 -52
65 -52
66 -52
67 -52
68 -53
69 -53
70 -53
71 -52
72 -50
73 -50
74 -50
75 -50
76 -51
77 -53
78 -51
79 -52
80 -51
81 -52
82 -53
83 -52
84 -53
85 -51
86 -54
87 -53
88 -52
89 -52
90 -52
91 -53
92 -53
93 -53
94 -53
95 -53
96 -52
97 -51
98 -52
99 -52