0 -55
1 -55
2 -54
3 -54
4 -52
5 -55
6 -55
7 -53
8 -54
9 -54
10 -54
11 -54
12 -53
13 -53
14 -52
15 -54
16 -53
17 -54
18 -53
19 -52
20 -52
21 -52
22 -53
23 -52
24 -53
25 -53
26 -52
27 -53
28 -52
29 -53
30 -54
31 -54
32 -53
33 -54
34 -53
35 -54
36 -53
37 -54
38 -53
39 -54
40 -54
41 -54
42 -53
43 -53
44 -53
45 -52
46 -53
47 -53
48 -54
49 -54
50 -53
51 -53
52 -54
53 -53
54 -54
55 -53
56 -54
57 -53
58 -54
59 -54
60 -53
61 -52
62 -54
63 -53
64 -54
65 -54
66 -53
67 -53
68 -54
69 -55
70 -54
71 -54
72 -52
73 -53
74 -54
75 -54
76 -53
77 -55
78 -53
79 -53
80 -53
81 -54
82 -54
83 -55
84 -55
85 -55
86 -54
87 -54
88 -53
89 -54
90 -53
91 -54
92 -54
93 -54
94 -53
95 -53
96 -53
97 -54
98 -54
99 -54