0 -46
1 -44
2 -45
3 -46
4 -44
5 -46
6 -45
7 -45
8 -45
9 -45
10 -45
11 -45
12 -45
13 -44
14 -45
15 -43
16 -45
17 -44
18 -45
19 -44
20 -42
21 -44
22 -43
23 -44
24 -44
25 -46
26 -40
27 -44
28 -44
29 -44
30 -44
31 -45
32 -43
33 -44
34 -43
35 -45
36 -43
37 -46
38 -44
39 -44
40 -45
41 -45
42 -44
43 -43
44 -46
45 -44
46 -43
47 -44
48 -43
49 -45
50 -43
51 -43
52 -43
53 -44
54 -44
55 -44
56 -45
57 -45
58 -43
59 -44
60 -46
61 -44
62 -45
63 -44
64 -45
65 -43
66 -45
67 -43
68 -44
69 -44
70 -45
71 -43
72 -43
73 -44
74 -44
75 -44
76 -44
77 -44
78 -45
79 -43
80 -45
81 -43
82 -45
83 -45
84 -45
85 -46
86 -45
87 -46
88 -45
89 -45
90 -44
91 -44
92 -44
93 -45
94 -45
95 -45
96 -44
97 -44
98 -45
99 -45