0 -50
1 -51
2 -50
3 -50
4 -54
5 -54
6 -54
7 -54
8 -49
9 -49
10 -49
11 -50
12 -50
13 -50
14 -50
15 -50
16 -50
17 -50
18 -50
19 -50
20 -50
21 -49
22 -51
23 -50
24 -51
25 -50
26 -50
27 -51
28 -50
29 -50
30 -50
31 -51
32 -50
33 -50
34 -50
35 -51
36 -50
37 -50
38 -50
39 -51
40 -50
41 -50
42 -50
43 -50
44 -49
45 -50
46 -50
47 -50
48 -50
49 -49
50 -50
51 -50
52 -50
53 -50
54 -50
55 -50
56 -50
57 -50
58 -50
59 -50
60 -50
61 -50
62 -50
63 -50
64 -50
65 -50
66 -50
67 -50
68 -51
69 -50
70 -50
71 -49
72 -51
73 -50
74 -50
75 -50
76 -51
77 -50
78 -51
79 -51
80 -50
81 -50
82 -50
83 -51
84 -51
85 -50
86 -49
87 -50
88 -50
89 -50
90 -51
91 -50
92 -49
93 -50
94 -50
95 -50
96 -51
97 -50
98 -51
99 -50