0 -45
1 -45
2 -45
3 -44
4 -45
5 -45
6 -44
7 -46
8 -43
9 -45
10 -43
11 -45
12 -45
13 -45
14 -45
15 -46
16 -45
17 -45
18 -45
19 -45
20 -44
21 -45
22 -45
23 -45
24 -45
25 -45
26 -43
27 -44
28 -45
29 -45
30 -45
31 -45
32 -45
33 -45
34 -45
35 -45
36 -44
37 -45
38 -44
39 -44
40 -45
41 -45
42 -43
43 -44
44 -44
45 -44
46 -44
47 -46
48 -44
49 -43
50 -45
51 -44
52 -43
53 -44
54 -42
55 -44
56 -43
57 -43
58 -44
59 -42
60 -44
61 -45
62 -44
63 -43
64 -44
65 -42
66 -44
67 -43
68 -44
69 -45
70 -43
71 -44
72 -46
73 -45
74 -42
75 -43
76 -44
77 -42
78 -43
79 -44
80 -44
81 -43
82 -43
83 -44
84 -46
85 -47
86 -47
87 -47
88 -43
89 -44
90 -44
91 -45
92 -43
93 -42
94 -43
95 -43
96 -40
97 -43