0 -47
1 -49
2 -48
3 -47
4 -48
5 -48
6 -48
7 -48
8 -48
9 -48
10 -48
11 -48
12 -49
13 -48
14 -49
15 -49
16 -48
17 -48
18 -48
19 -48
20 -49
21 -48
22 -48
23 -48
24 -48
25 -48
26 -48
27 -48
28 -48
29 -47
30 -48
31 -48
32 -48
33 -48
34 -48
35 -49
36 -48
37 -47
38 -47
39 -67
40 -48
41 -47
42 -47
43 -48
44 -48
45 -48
46 -48
47 -48
48 -48
49 -47
50 -47
51 -47
52 -49
53 -48
54 -48
55 -50
56 -51
57 -49
58 -49
59 -49
60 -46
61 -45
62 -46
63 -48
64 -47
65 -46
66 -46
67 -46
68 -49
69 -49
70 -50
71 -49
72 -50
73 -46
74 -47
75 -46
76 -47
77 -47
78 -47
79 -47
80 -46
81 -45
82 -47
83 -46
84 -46
85 -45
86 -47
87 -46
88 -46
89 -45
90 -47
91 -47
92 -46
93 -46
94 -47
95 -48
96 -47
97 -46
98 -46
99 -47