0 -43
1 -46
2 -43
3 -43
4 -43
5 -43
6 -43
7 -44
8 -44
9 -43
10 -42
11 -44
12 -45
13 -43
14 -42
15 -43
16 -43
17 -42
18 -43
19 -43
20 -42
21 -43
22 -44
23 -43
24 -43
25 -43
26 -43
27 -45
28 -44
29 -42
30 -42
31 -44
32 -43
33 -45
34 -46
35 -45
36 -44
37 -44
38 -47
39 -43
40 -43
41 -44
42 -45
43 -44
44 -58
45 -44
46 -44
47 -43
48 -45
49 -42
50 -42
51 -42
52 -42
53 -44
54 -45
55 -43
56 -45
57 -44
58 -44
59 -44
60 -43
61 -45
62 -45
63 -44
64 -44
65 -43
66 -45
67 -44
68 -44
69 -44
70 -43
71 -44
72 -43
73 -45
74 -44
75 -44
76 -44
77 -44
78 -42
79 -43
80 -44
81 -43
82 -44
83 -43
84 -45
85 -44
86 -44
87 -42
88 -44
89 -45
90 -45
91 -45
92 -45
93 -44
94 -44
95 -44
96 -43
97 -44
98 -45
99 -44