0 -47
1 -48
2 -49
3 -48
4 -48
5 -49
6 -48
7 -48
8 -49
9 -49
10 -48
11 -49
12 -48
13 -48
14 -49
15 -48
16 -48
17 -48
18 -48
19 -49
20 -50
21 -48
22 -48
23 -47
24 -48
25 -49
26 -48
27 -48
28 -49
29 -49
30 -48
31 -48
32 -48
33 -48
34 -48
35 -47
36 -48
37 -54
38 -54
39 -54
40 -54
41 -47
42 -47
43 -47
44 -48
45 -48
46 -47
47 -47
48 -48
49 -47
50 -47
51 -48
52 -48
53 -47
54 -48
55 -47
56 -48
57 -47
58 -47
59 -49
60 -47
61 -48
62 -48
63 -48
64 -48
65 -48
66 -47
67 -48
68 -46
69 -49
70 -47
71 -48
72 -47
73 -48
74 -48
75 -48
76 -48
77 -47
78 -48
79 -47
80 -48
81 -48
82 -47
83 -47
84 -48
85 -48
86 -48
87 -48
88 -48
89 -49
90 -49
91 -47
92 -48
93 -47
94 -47
95 -49
96 -48
97 -48
98 -49
99 -48