0 -44
1 -43
2 -43
3 -43
4 -43
5 -43
6 -43
7 -43
8 -43
9 -44
10 -43
11 -42
12 -43
13 -43
14 -42
15 -43
16 -42
17 -43
18 -43
19 -43
20 -42
21 -42
22 -41
23 -43
24 -43
25 -44
26 -42
27 -43
28 -43
29 -43
30 -43
31 -43
32 -42
33 -44
34 -43
35 -44
36 -43
37 -44
38 -44
39 -42
40 -43
41 -43
42 -44
43 -43
44 -43
45 -43
46 -43
47 -43
48 -43
49 -43
50 -43
51 -43
52 -43
53 -44
54 -43
55 -43
56 -43
57 -45
58 -45
59 -45
60 -45
61 -45
62 -43
63 -42
64 -43
65 -43
66 -43
67 -42
68 -43
69 -43
70 -43
71 -43
72 -44
73 -43
74 -43
75 -43
76 -43
77 -43
78 -43
79 -43
80 -42
81 -43
82 -43
83 -43
84 -43
85 -43
86 -43
87 -44
88 -43
89 -42
90 -43
91 -44
92 -44
93 -43
94 -43
95 -44
96 -44
97 -43
98 -43
99 -43