0 -58
1 -59
2 -59
3 -60
4 -60
5 -60
6 -60
7 -60
8 -60
9 -60
10 -60
11 -61
12 -60
13 -59
14 -59
15 -58
16 -59
17 -60
18 -60
19 -60
20 -59
21 -60
22 -59
23 -59
24 -60
25 -60
26 -61
27 -61
28 -59
29 -60
30 -59
31 -60
32 -59
33 -59
34 -59
35 -59
36 -60
37 -60
38 -59
39 -58
40 -60
41 -59
42 -59
43 -59
44 -60
45 -59
46 -60
47 -58
48 -59
49 -59
50 -58
51 -60
52 -60
53 -59
54 -59
55 -59
56 -60
57 -58
58 -59
59 -58
60 -59
61 -60
62 -60
63 -60
64 -59
65 -60
66 -61
67 -61
68 -60
69 -59
70 -61
71 -60
72 -60
73 -58
74 -59
75 -58
76 -59
77 -60
78 -61
79 -61
80 -59
81 -60
82 -60
83 -59
84 -58
85 -60
86 -60
87 -60
88 -61
89 -59
90 -60
91 -60
92 -59
93 -60
94 -59
95 -59
96 -61
97 -61
98 -59
99 -59