0 -40
1 -40
2 -41
3 -40
4 -41
5 -41
6 -40
7 -41
8 -40
9 -39
10 -40
11 -39
12 -40
13 -40
14 -40
15 -39
16 -39
17 -40
18 -39
19 -38
20 -40
21 -40
22 -39
23 -40
24 -40
25 -40
26 -41
27 -40
28 -40
29 -41
30 -40
31 -40
32 -40
33 -37
34 -40
35 -41
36 -41
37 -37
38 -40
39 -40
40 -40
41 -40
42 -41
43 -40
44 -41
45 -42
46 -40
47 -40
48 -39
49 -41
50 -41
51 -39
52 -40
53 -39
54 -39
55 -40
56 -40
57 -40
58 -41
59 -41
60 -40
61 -41
62 -40
63 -40
64 -40
65 -41
66 -40
67 -40
68 -40
69 -40
70 -39
71 -41
72 -40
73 -40
74 -40
75 -42
76 -42
77 -41
78 -41
79 -41
80 -41
81 -41
82 -41
83 -39
84 -45
85 -40
86 -42
87 -42
88 -42
89 -42
90 -40
91 -42
92 -41
93 -40
94 -42
95 -42
96 -41
97 -42
98 -43
99 -41