0 -46
1 -46
2 -46
3 -43
4 -45
5 -45
6 -45
7 -44
8 -46
9 -46
10 -46
11 -43
12 -44
13 -44
14 -45
15 -43
16 -43
17 -44
18 -44
19 -43
20 -44
21 -43
22 -44
23 -44
24 -44
25 -45
26 -46
27 -46
28 -44
29 -45
30 -45
31 -45
32 -46
33 -44
34 -44
35 -45
36 -45
37 -46
38 -46
39 -44
40 -44
41 -44
42 -44
43 -46
44 -45
45 -46
46 -46
47 -46
48 -46
49 -46
50 -46
51 -46
52 -43
53 -43
54 -46
55 -46
56 -44
57 -44
58 -45
59 -46
60 -45
61 -43
62 -45
63 -45
64 -44
65 -44
66 -46
67 -44
68 -46
69 -45
70 -43
71 -43
72 -46
73 -45
74 -45
75 -45
76 -46
77 -46
78 -46
79 -44
80 -45
81 -44
82 -45
83 -45
84 -45
85 -46
86 -47
87 -49
88 -51
89 -51
90 -51
91 -51
92 -51
93 -51
94 -53
95 -52