0 -50
1 -51
2 -51
3 -52
4 -52
5 -52
6 -51
7 -51
8 -51
9 -52
10 -52
11 -51
12 -51
13 -51
14 -51
15 -51
16 -51
17 -50
18 -53
19 -51
20 -51
21 -50
22 -51
23 -51
24 -52
25 -52
26 -51
27 -52
28 -51
29 -51
30 -51
31 -51
32 -52
33 -51
34 -52
35 -51
36 -51
37 -52
38 -51
39 -51
40 -52
41 -51
42 -52
43 -51
44 -51
45 -51
46 -51
47 -52
48 -52
49 -52
50 -50
51 -51
52 -51
53 -53
54 -53
55 -53
56 -53
57 -53
58 -51
59 -52
60 -51
61 -50
62 -50
63 -51
64 -51
65 -51
66 -51
67 -51
68 -52
69 -49
70 -52
71 -50
72 -50
73 -49
74 -49
75 -49
76 -48
77 -49
78 -48
79 -50
80 -51
81 -51
82 -52
83 -53
84 -56
85 -59
86 -60
87 -61
88 -60
89 -61
90 -59
91 -61
92 -61
93 -59
94 -61
95 -60
96 -59
97 -59