0 -48
1 -49
2 -51
3 -49
4 -50
5 -49
6 -49
7 -49
8 -49
9 -49
10 -49
11 -50
12 -50
13 -51
14 -50
15 -50
16 -51
17 -51
18 -50
19 -50
20 -50
21 -50
22 -50
23 -51
24 -52
25 -50
26 -50
27 -50
28 -50
29 -49
30 -50
31 -49
32 -49
33 -49
34 -50
35 -50
36 -50
37 -50
38 -50
39 -50
40 -50
41 -50
42 -50
43 -50
44 -49
45 -50
46 -49
47 -50
48 -50
49 -51
50 -50
51 -50
52 -50
53 -50
54 -49
55 -51
56 -48
57 -49
58 -50
59 -49
60 -50
61 -51
62 -49
63 -50
64 -49
65 -50
66 -49
67 -49
68 -49
69 -49
70 -49
71 -50
72 -50
73 -50
74 -49
75 -50
76 -49
77 -49
78 -49
79 -50
80 -51
81 -50
82 -50
83 -49
84 -51
85 -50
86 -49
87 -50
88 -49
89 -49
90 -49
91 -49
92 -61
93 -50
94 -50
95 -49
96 -50
97 -50
98 -50
99 -49