0 -47
1 -47
2 -47
3 -47
4 -47
5 -48
6 -48
7 -47
8 -48
9 -48
10 -47
11 -47
12 -48
13 -47
14 -48
15 -47
16 -46
17 -47
18 -47
19 -47
20 -49
21 -49
22 -46
23 -48
24 -47
25 -48
26 -47
27 -46
28 -48
29 -49
30 -48
31 -48
32 -50
33 -49
34 -47
35 -45
36 -48
37 -48
38 -47
39 -48
40 -46
41 -46
42 -47
43 -46
44 -47
45 -47
46 -47
47 -46
48 -47
49 -48
50 -48
51 -47
52 -47
53 -47
54 -47
55 -48
56 -47
57 -47
58 -47
59 -47
60 -50
61 -54
62 -56
63 -52
64 -55
65 -51
66 -51
67 -51
68 -51
69 -49
70 -46
71 -46
72 -47
73 -47
74 -46
75 -47
76 -48
77 -50
78 -48
79 -47
80 -47
81 -48
82 -48
83 -48
84 -48
85 -47
86 -48
87 -47