0 -56
1 -55
2 -56
3 -56
4 -56
5 -56
6 -56
7 -55
8 -56
9 -63
10 -55
11 -55
12 -56
13 -55
14 -55
15 -55
16 -55
17 -56
18 -55
19 -55
20 -56
21 -55
22 -55
23 -55
24 -58
25 -58
26 -58
27 -58
28 -54
29 -55
30 -56
31 -55
32 -56
33 -55
34 -54
35 -55
36 -55
37 -55
38 -55
39 -55
40 -56
41 -55
42 -55
43 -55
44 -56
45 -55
46 -55
47 -55
48 -56
49 -55
50 -56
51 -55
52 -55
53 -56
54 -56
55 -56
56 -55
57 -55
58 -55
59 -56
60 -56
61 -55
62 -55
63 -55
64 -55
65 -55
66 -55
67 -55
68 -55
69 -55
70 -56
71 -56
72 -59
73 -59
74 -59
75 -59
76 -57
77 -55
78 -55
79 -55
80 -56
81 -55
82 -55
83 -55
84 -56
85 -54
86 -55
87 -55
88 -54
89 -54
90 -54
91 -54
92 -55
93 -54
94 -55
95 -54
96 -55
97 -55
98 -54
99 -55