0 -48
1 -48
2 -46
3 -48
4 -48
5 -48
6 -48
7 -48
8 -47
9 -49
10 -48
11 -48
12 -47
13 -47
14 -48
15 -48
16 -48
17 -48
18 -48
19 -48
20 -48
21 -48
22 -48
23 -48
24 -48
25 -48
26 -48
27 -48
28 -49
29 -48
30 -49
31 -48
32 -48
33 -48
34 -48
35 -48
36 -48
37 -51
38 -48
39 -48
40 -51
41 -48
42 -48
43 -48
44 -48
45 -48
46 -48
47 -49
48 -47
49 -49
50 -48
51 -48
52 -49
53 -48
54 -44
55 -49
56 -48
57 -47
58 -47
59 -49
60 -49
61 -49
62 -48
63 -48
64 -45
65 -45
66 -47
67 -46
68 -45
69 -48
70 -47
71 -46
72 -46
73 -45
74 -47
75 -47
76 -47
77 -47
78 -45
79 -46
80 -44
81 -44
82 -44
83 -44
84 -44
85 -44
86 -44
87 -44
88 -45
89 -44
90 -44
91 -44
92 -44
93 -43
94 -44
95 -44
96 -43
97 -44
98 -44
99 -45