0 -47
1 -46
2 -46
3 -46
4 -46
5 -46
6 -46
7 -47
8 -46
9 -46
10 -47
11 -46
12 -46
13 -45
14 -47
15 -47
16 -47
17 -45
18 -45
19 -47
20 -47
21 -47
22 -47
23 -47
24 -45
25 -47
26 -46
27 -46
28 -46
29 -45
30 -45
31 -46
32 -46
33 -47
34 -47
35 -47
36 -45
37 -46
38 -47
39 -48
40 -46
41 -46
42 -47
43 -45
44 -47
45 -47
46 -46
47 -46
48 -47
49 -47
50 -47
51 -46
52 -47
53 -47
54 -45
55 -53
56 -53
57 -53
58 -53
59 -46
60 -46
61 -46
62 -45
63 -46
64 -46
65 -47
66 -45
67 -47
68 -46
69 -46
70 -45
71 -46
72 -46
73 -48
74 -45
75 -46
76 -45
77 -47
78 -46
79 -46
80 -45
81 -45
82 -45
83 -45
84 -46
85 -47
86 -46
87 -46
88 -45
89 -45
90 -46
91 -46
92 -45
93 -45
94 -46
95 -46
96 -47
97 -46
98 -46
99 -47