0 -67
1 -46
2 -46
3 -44
4 -46
5 -46
6 -46
7 -46
8 -47
9 -47
10 -47
11 -46
12 -46
13 -46
14 -46
15 -47
16 -47
17 -47
18 -46
19 -46
20 -47
21 -46
22 -45
23 -46
24 -46
25 -46
26 -46
27 -47
28 -46
29 -45
30 -45
31 -46
32 -46
33 -47
34 -46
35 -46
36 -45
37 -46
38 -46
39 -47
40 -46
41 -45
42 -46
43 -46
44 -46
45 -46
46 -46
47 -45
48 -46
49 -46
50 -46
51 -46
52 -46
53 -47
54 -46
55 -46
56 -46
57 -47
58 -46
59 -45
60 -45
61 -45
62 -44
63 -46
64 -45
65 -46
66 -46
67 -46
68 -46
69 -47
70 -46
71 -46
72 -46
73 -45
74 -45
75 -46
76 -47
77 -46
78 -46
79 -46
80 -46
81 -46
82 -46
83 -46
84 -46
85 -47
86 -46
87 -46
88 -46
89 -46
90 -47
91 -46
92 -46
93 -44
94 -45
95 -46
96 -47
97 -44
98 -46
99 -46