0 -56
1 -54
2 -54
3 -56
4 -56
5 -59
6 -58
7 -58
8 -56
9 -55
10 -55
11 -55
12 -58
13 -60
14 -60
15 -56
16 -55
17 -54
18 -56
19 -55
20 -55
21 -55
22 -55
23 -61
24 -55
25 -55
26 -55
27 -55
28 -55
29 -53
30 -52
31 -54
32 -53
33 -53
34 -53
35 -54
36 -53
37 -55
38 -55
39 -55
40 -55
41 -55
42 -55
43 -53
44 -54
45 -54
46 -54
47 -52
48 -54
49 -56
50 -53
51 -55
52 -54
53 -53
54 -52
55 -52
56 -53
57 -52
58 -55
59 -54
60 -56
61 -58
62 -61
63 -61
64 -60
65 -55
66 -61
67 -54
68 -55
69 -53
70 -52
71 -51
72 -52
73 -51
74 -52
75 -52
76 -50
77 -49
78 -52
79 -52