0 -49
1 -49
2 -48
3 -48
4 -49
5 -47
6 -48
7 -48
8 -48
9 -49
10 -49
11 -48
12 -47
13 -48
14 -49
15 -48
16 -48
17 -47
18 -49
19 -48
20 -47
21 -48
22 -48
23 -48
24 -47
25 -48
26 -48
27 -47
28 -48
29 -49
30 -47
31 -47
32 -47
33 -48
34 -47
35 -48
36 -47
37 -47
38 -48
39 -48
40 -48
41 -48
42 -48
43 -48
44 -48
45 -48
46 -47
47 -47
48 -47
49 -47
50 -47
51 -48
52 -48
53 -48
54 -48
55 -46
56 -46
57 -46
58 -46
59 -46
60 -47
61 -47
62 -47
63 -47
64 -48
65 -47
66 -47
67 -48
68 -47
69 -47
70 -47
71 -47
72 -47
73 -47
74 -47
75 -48
76 -47
77 -48
78 -48
79 -48
80 -48
81 -48
82 -48
83 -47
84 -48
85 -48
86 -48
87 -48
88 -47
89 -48
90 -48
91 -48
92 -47
93 -48
94 -48
95 -48
96 -49
97 -48
98 -48
99 -48