0 -53
1 -52
2 -52
3 -52
4 -52
5 -54
6 -53
7 -53
8 -52
9 -52
10 -52
11 -52
12 -53
13 -52
14 -52
15 -53
16 -52
17 -52
18 -52
19 -52
20 -52
21 -53
22 -52
23 -52
24 -53
25 -52
26 -55
27 -52
28 -52
29 -51
30 -51
31 -52
32 -53
33 -52
34 -52
35 -53
36 -52
37 -52
38 -52
39 -51
40 -52
41 -52
42 -52
43 -52
44 -52
45 -53
46 -53
47 -53
48 -52
49 -53
50 -52
51 -53
52 -53
53 -54
54 -54
55 -54
56 -52
57 -52
58 -52
59 -52
60 -52
61 -52
62 -52
63 -50
64 -52
65 -51
66 -54
67 -54
68 -52
69 -52
70 -52
71 -51
72 -51
73 -52
74 -50
75 -53
76 -52
77 -52
78 -52
79 -52
80 -52
81 -53
82 -54
83 -54
84 -52
85 -51
86 -54
87 -54
88 -55
89 -53
90 -53
91 -53
92 -53
93 -53
94 -54
95 -52
96 -53
97 -53
98 -54
99 -54