0 -59
1 -60
2 -58
3 -54
4 -53
5 -51
6 -52
7 -65
8 -52
9 -52
10 -52
11 -53
12 -52
13 -52
14 -54
15 -56
16 -56
17 -54
18 -53
19 -53
20 -53
21 -53
22 -54
23 -52
24 -53
25 -52
26 -52
27 -52
28 -52
29 -51
30 -52
31 -53
32 -52
33 -51
34 -52
35 -53
36 -53
37 -51
38 -51
39 -50
40 -48
41 -45
42 -47
43 -49
44 -49
45 -50
46 -51
47 -49
48 -49
49 -50
50 -48
51 -49
52 -51
53 -50
54 -49
55 -48
56 -50
57 -51
58 -49
59 -50
60 -50
61 -51
62 -49
63 -50
64 -49
65 -50
66 -49
67 -49
68 -49
69 -48
70 -49
71 -49
72 -49
73 -50
74 -50
75 -49
76 -50
77 -51
78 -49
79 -49
80 -51
81 -51
82 -50
83 -48
84 -49
85 -51
86 -51
87 -50
88 -50
89 -50
90 -50
91 -51
92 -49
93 -50
94 -62
95 -50
96 -49
97 -49
98 -49
99 -51