0 -53
1 -52
2 -51
3 -50
4 -52
5 -50
6 -51
7 -54
8 -52
9 -51
10 -53
11 -52
12 -52
13 -51
14 -52
15 -53
16 -53
17 -53
18 -53
19 -52
20 -53
21 -53
22 -53
23 -54
24 -52
25 -52
26 -51
27 -53
28 -53
29 -53
30 -52
31 -53
32 -53
33 -53
34 -52
35 -52
36 -53
37 -53
38 -53
39 -53
40 -53
41 -52
42 -52
43 -53
44 -53
45 -52
46 -53
47 -55
48 -55
49 -55
50 -55
51 -51
52 -52
53 -52
54 -53
55 -52
56 -52
57 -52
58 -52
59 -52
60 -52
61 -52
62 -53
63 -51
64 -53
65 -52
66 -52
67 -52
68 -52
69 -52
70 -52
71 -51
72 -52
73 -52
74 -51
75 -53
76 -54
77 -53
78 -52
79 -52
80 -52
81 -53
82 -54
83 -52
84 -53
85 -54
86 -51
87 -52
88 -52
89 -51
90 -52
91 -51
92 -51
93 -51
94 -52
95 -52