0 -52
1 -51
2 -55
3 -53
4 -55
5 -51
6 -52
7 -52
8 -52
9 -52
10 -54
11 -55
12 -54
13 -54
14 -54
15 -57
16 -56
17 -53
18 -53
19 -54
20 -54
21 -55
22 -54
23 -54
24 -54
25 -52
26 -54
27 -53
28 -52
29 -52
30 -52
31 -53
32 -50
33 -51
34 -51
35 -51
36 -52
37 -51
38 -53
39 -52
40 -52
41 -52
42 -54
43 -54
44 -50
45 -52
46 -51
47 -54
48 -54
49 -51
50 -52
51 -53
52 -51
53 -52
54 -51
55 -54
56 -51
57 -52
58 -51
59 -52
60 -51
61 -52
62 -51
63 -52
64 -53
65 -52
66 -53
67 -53
68 -53
69 -50
70 -52
71 -52
72 -52
73 -53
74 -52
75 -50
76 -52
77 -52
78 -53
79 -51
80 -52
81 -51
82 -52
83 -51
84 -52
85 -51
86 -53
87 -51
88 -52
89 -51
90 -51
91 -51
92 -52
93 -51
94 -52
95 -51
96 -51
97 -51
98 -51
99 -51