0 -53
1 -54
2 -52
3 -52
4 -52
5 -53
6 -54
7 -54
8 -52
9 -53
10 -54
11 -54
12 -54
13 -54
14 -54
15 -54
16 -55
17 -55
18 -54
19 -54
20 -54
21 -54
22 -53
23 -54
24 -54
25 -54
26 -52
27 -53
28 -52
29 -55
30 -55
31 -55
32 -55
33 -54
34 -54
35 -53
36 -54
37 -53
38 -53
39 -52
40 -52
41 -53
42 -54
43 -55
44 -55
45 -53
46 -53
47 -52
48 -52
49 -50
50 -52
51 -51
52 -53
53 -54
54 -54
55 -55
56 -54
57 -54
58 -55
59 -55
60 -53
61 -58
62 -59
63 -55
64 -53
65 -56
66 -54
67 -56
68 -56
69 -54
70 -56
71 -53
72 -53
73 -54
74 -52
75 -50
76 -50
77 -54
78 -55
79 -53
80 -54
81 -55
82 -56
83 -55
84 -55