0 -43
1 -44
2 -43
3 -43
4 -43
5 -41
6 -43
7 -42
8 -39
9 -43
10 -40
11 -43
12 -44
13 -43
14 -43
15 -41
16 -42
17 -41
18 -43
19 -42
20 -42
21 -38
22 -42
23 -43
24 -41
25 -42
26 -40
27 -42
28 -44
29 -43
30 -42
31 -42
32 -43
33 -42
34 -42
35 -41
36 -43
37 -42
38 -44
39 -42
40 -43
41 -42
42 -43
43 -42
44 -44
45 -42
46 -43
47 -43
48 -43
49 -43
50 -42
51 -42
52 -42
53 -43
54 -43
55 -42
56 -44
57 -42
58 -43
59 -43
60 -43
61 -42
62 -44
63 -43
64 -43
65 -44
66 -43
67 -44
68 -43
69 -41
70 -42
71 -44
72 -42
73 -44
74 -45
75 -46
76 -49
77 -49
78 -52
79 -50
80 -52
81 -53
82 -48
83 -49
84 -47
85 -49
86 -50
87 -51
88 -50
89 -49
90 -49
91 -49
92 -48
93 -49
94 -48
95 -48
96 -48
97 -48
98 -49
99 -48