0 -46
1 -47
2 -47
3 -47
4 -46
5 -47
6 -46
7 -46
8 -48
9 -48
10 -48
11 -48
12 -48
13 -46
14 -47
15 -47
16 -46
17 -47
18 -46
19 -46
20 -46
21 -46
22 -47
23 -46
24 -46
25 -46
26 -49
27 -45
28 -46
29 -45
30 -47
31 -46
32 -46
33 -47
34 -44
35 -45
36 -47
37 -45
38 -46
39 -45
40 -46
41 -45
42 -45
43 -45
44 -46
45 -45
46 -46
47 -47
48 -45
49 -45
50 -46
51 -46
52 -46
53 -46
54 -47
55 -46
56 -45
57 -47
58 -46
59 -46
60 -46
61 -47
62 -48
63 -46
64 -45
65 -46
66 -46
67 -46
68 -46
69 -47
70 -47
71 -48
72 -49
73 -47
74 -47
75 -47
76 -47
77 -48
78 -48
79 -47
80 -47
81 -48
82 -48
83 -47
84 -48
85 -47
86 -48
87 -44
88 -43
89 -48
90 -49
91 -48
92 -48
93 -47
94 -46
95 -46
96 -46
97 -47
98 -46
99 -46