0 -49
1 -50
2 -51
3 -49
4 -50
5 -51
6 -51
7 -52
8 -50
9 -53
10 -51
11 -48
12 -48
13 -46
14 -46
15 -45
16 -44
17 -44
18 -44
19 -45
20 -46
21 -44
22 -43
23 -42
24 -42
25 -44
26 -43
27 -42
28 -43
29 -42
30 -40
31 -42
32 -44
33 -43
34 -43
35 -45
36 -43
37 -44
38 -43
39 -44
40 -42
41 -42
42 -41
43 -40
44 -41
45 -41
46 -41
47 -42
48 -43
49 -43
50 -46
51 -43
52 -43
53 -44
54 -41
55 -42
56 -43
57 -41
58 -41
59 -42
60 -42
61 -44
62 -45
63 -45
64 -42
65 -43
66 -45
67 -47
68 -46
69 -45
70 -44
71 -45
72 -43
73 -42
74 -45
75 -40
76 -45
77 -44
78 -45
79 -45
80 -66
81 -46
82 -48
83 -49
84 -50
85 -54
86 -55
87 -52
88 -52
89 -50
90 -51
91 -52
92 -51
93 -48
94 -46
95 -46
96 -50
97 -54
98 -51
99 -50