0 -63
1 -62
2 -62
3 -63
4 -63
5 -61
6 -63
7 -62
8 -63
9 -63
10 -64
11 -63
12 -63
13 -61
14 -62
15 -62
16 -61
17 -62
18 -62
19 -62
20 -61
21 -62
22 -62
23 -62
24 -62
25 -63
26 -62
27 -60
28 -60
29 -59
30 -60
31 -61
32 -65
33 -60
34 -58
35 -62
36 -61
37 -61
38 -60
39 -59
40 -62
41 -63
42 -62
43 -62
44 -61
45 -62
46 -60
47 -63
48 -62
49 -64
50 -63
51 -61
52 -61
53 -61
54 -63
55 -62
56 -60
57 -61
58 -62
59 -61
60 -60
61 -64
62 -62
63 -61
64 -61
65 -61
66 -57
67 -56
68 -54
69 -54
70 -57
71 -61
72 -57
73 -62
74 -61
75 -59
76 -58
77 -59
78 -62
79 -57
80 -59
81 -55
82 -59
83 -59
84 -60