0 -52
1 -53
2 -53
3 -52
4 -53
5 -53
6 -53
7 -53
8 -53
9 -53
10 -53
11 -54
12 -53
13 -54
14 -54
15 -53
16 -54
17 -53
18 -55
19 -54
20 -54
21 -54
22 -53
23 -53
24 -53
25 -53
26 -52
27 -53
28 -53
29 -53
30 -53
31 -52
32 -52
33 -53
34 -54
35 -54
36 -53
37 -54
38 -52
39 -52
40 -53
41 -54
42 -54
43 -52
44 -53
45 -53
46 -53
47 -53
48 -54
49 -53
50 -54
51 -52
52 -53
53 -53
54 -53
55 -53
56 -54
57 -52
58 -54
59 -52
60 -53
61 -54
62 -54
63 -53
64 -53
65 -53
66 -53
67 -53
68 -53
69 -53
70 -53
71 -67
72 -54
73 -53
74 -54
75 -54
76 -53
77 -53
78 -52
79 -53
80 -52
81 -53
82 -53
83 -54
84 -54
85 -53
86 -52
87 -52
88 -52
89 -51
90 -52
91 -54
92 -54
93 -53
94 -52
95 -51
96 -51
97 -52
98 -52
99 -52