0 -40
1 -41
2 -41
3 -42
4 -41
5 -43
6 -41
7 -41
8 -42
9 -42
10 -41
11 -42
12 -41
13 -41
14 -42
15 -43
16 -42
17 -42
18 -42
19 -42
20 -42
21 -42
22 -42
23 -43
24 -44
25 -42
26 -43
27 -42
28 -42
29 -42
30 -42
31 -42
32 -42
33 -45
34 -43
35 -41
36 -42
37 -42
38 -41
39 -41
40 -42
41 -42
42 -45
43 -42
44 -43
45 -42
46 -43
47 -42
48 -42
49 -41
50 -42
51 -43
52 -42
53 -41
54 -42
55 -42
56 -42
57 -42
58 -42
59 -41
60 -43
61 -43
62 -42
63 -42
64 -43
65 -42
66 -43
67 -42
68 -41
69 -42
70 -42
71 -41
72 -43
73 -43
74 -43
75 -42
76 -42
77 -41
78 -43
79 -41
80 -42
81 -41
82 -42
83 -41
84 -42
85 -41
86 -41
87 -41
88 -41
89 -43
90 -42
91 -41
92 -41
93 -42
94 -41
95 -41
96 -41
97 -43
98 -41
99 -41