0 -53
1 -53
2 -53
3 -53
4 -53
5 -53
6 -53
7 -53
8 -53
9 -52
10 -52
11 -52
12 -52
13 -54
14 -54
15 -53
16 -53
17 -52
18 -53
19 -53
20 -53
21 -53
22 -53
23 -52
24 -53
25 -52
26 -52
27 -53
28 -53
29 -54
30 -53
31 -53
32 -52
33 -52
34 -53
35 -52
36 -52
37 -53
38 -53
39 -52
40 -52
41 -53
42 -49
43 -52
44 -53
45 -53
46 -53
47 -54
48 -54
49 -53
50 -53
51 -53
52 -53
53 -52
54 -52
55 -53
56 -54
57 -53
58 -52
59 -52
60 -51
61 -52
62 -53
63 -54
64 -53
65 -54
66 -52
67 -52
68 -52
69 -53
70 -52
71 -52
72 -54
73 -52
74 -53
75 -53
76 -52
77 -52
78 -53
79 -52
80 -53
81 -53
82 -52
83 -52
84 -53
85 -53
86 -53
87 -53
88 -53
89 -53
90 -53
91 -52
92 -53
93 -52
94 -52
95 -52
96 -51
97 -52
98 -53
99 -51