0 -50
1 -48
2 -47
3 -49
4 -51
5 -50
6 -49
7 -47
8 -50
9 -51
10 -48
11 -49
12 -50
13 -50
14 -50
15 -46
16 -49
17 -50
18 -50
19 -50
20 -50
21 -50
22 -51
23 -51
24 -50
25 -51
26 -51
27 -50
28 -50
29 -49
30 -49
31 -51
32 -49
33 -49
34 -50
35 -54
36 -51
37 -50
38 -50
39 -49
40 -50
41 -47
42 -49
43 -50
44 -50
45 -50
46 -50
47 -50
48 -49
49 -50
50 -49
51 -50
52 -49
53 -49
54 -49
55 -49
56 -49
57 -50
58 -49
59 -50
60 -49
61 -49
62 -50
63 -49
64 -50
65 -51
66 -51
67 -48
68 -50
69 -51
70 -55
71 -49
72 -50
73 -50
74 -50
75 -50
76 -50
77 -50
78 -50
79 -50
80 -50
81 -49
82 -49
83 -62
84 -49
85 -47
86 -50
87 -51
88 -49
89 -50
90 -50
91 -50
92 -50
93 -50
94 -50
95 -52
96 -50
97 -50
98 -50
99 -50