0 -56
1 -54
2 -54
3 -54
4 -56
5 -56
6 -53
7 -55
8 -54
9 -55
10 -55
11 -54
12 -55
13 -54
14 -55
15 -55
16 -56
17 -53
18 -53
19 -54
20 -54
21 -54
22 -54
23 -55
24 -55
25 -55
26 -49
27 -55
28 -54
29 -55
30 -55
31 -55
32 -56
33 -53
34 -55
35 -54
36 -54
37 -55
38 -55
39 -54
40 -55
41 -53
42 -54
43 -54
44 -53
45 -51
46 -54
47 -55
48 -56
49 -54
50 -53
51 -54
52 -54
53 -55
54 -55
55 -54
56 -54
57 -55
58 -55
59 -50
60 -54
61 -53
62 -55
63 -54
64 -54
65 -54
66 -55
67 -54
68 -55
69 -53
70 -53
71 -53
72 -53
73 -52
74 -54
75 -55
76 -54
77 -55
78 -54
79 -54
80 -53
81 -55
82 -54
83 -54
84 -54
85 -55
86 -54
87 -54
88 -52
89 -53
90 -54
91 -55
92 -55
93 -54
94 -53
95 -54
96 -55
97 -54
98 -53
99 -54