0 -53
1 -54
2 -53
3 -53
4 -52
5 -53
6 -53
7 -53
8 -53
9 -53
10 -53
11 -52
12 -52
13 -52
14 -52
15 -53
16 -52
17 -53
18 -52
19 -53
20 -53
21 -54
22 -52
23 -54
24 -53
25 -53
26 -53
27 -53
28 -53
29 -52
30 -53
31 -53
32 -53
33 -52
34 -54
35 -53
36 -52
37 -53
38 -53
39 -54
40 -53
41 -52
42 -52
43 -54
44 -52
45 -53
46 -53
47 -52
48 -52
49 -53
50 -53
51 -53
52 -53
53 -55
54 -54
55 -55
56 -54
57 -54
58 -53
59 -52
60 -54
61 -53
62 -50
63 -53
64 -53
65 -54
66 -53
67 -53
68 -54
69 -53
70 -52
71 -52
72 -53
73 -53
74 -54
75 -54
76 -53
77 -52
78 -54
79 -52
80 -53
81 -52
82 -53
83 -54
84 -53
85 -54
86 -53
87 -54
88 -52
89 -53
90 -52
91 -53
92 -54
93 -53
94 -53
95 -54
96 -53
97 -52
98 -54
99 -53