0 -53
1 -52
2 -53
3 -52
4 -53
5 -53
6 -52
7 -52
8 -53
9 -52
10 -52
11 -53
12 -52
13 -53
14 -53
15 -52
16 -52
17 -54
18 -53
19 -53
20 -52
21 -53
22 -52
23 -53
24 -54
25 -52
26 -53
27 -52
28 -54
29 -52
30 -53
31 -53
32 -51
33 -53
34 -53
35 -53
36 -53
37 -52
38 -49
39 -51
40 -53
41 -48
42 -52
43 -53
44 -52
45 -53
46 -53
47 -51
48 -54
49 -52
50 -52
51 -54
52 -54
53 -54
54 -54
55 -53
56 -53
57 -52
58 -52
59 -52
60 -50
61 -53
62 -53
63 -53
64 -52
65 -53
66 -53
67 -52
68 -52
69 -52
70 -52
71 -53
72 -52
73 -54
74 -52
75 -53
76 -53
77 -54
78 -51
79 -53
80 -53
81 -53
82 -52
83 -52
84 -52
85 -53
86 -54
87 -52
88 -52
89 -53
90 -53
91 -53
92 -52
93 -52
94 -53
95 -52
96 -53
97 -52
98 -53
99 -53