0 -42
1 -42
2 -42
3 -43
4 -41
5 -42
6 -42
7 -42
8 -41
9 -42
10 -40
11 -41
12 -40
13 -43
14 -42
15 -43
16 -42
17 -40
18 -42
19 -41
20 -43
21 -42
22 -42
23 -42
24 -42
25 -42
26 -42
27 -42
28 -43
29 -42
30 -42
31 -42
32 -42
33 -42
34 -41
35 -43
36 -42
37 -42
38 -39
39 -42
40 -40
41 -43
42 -41
43 -43
44 -42
45 -42
46 -42
47 -42
48 -43
49 -41
50 -41
51 -42
52 -41
53 -42
54 -42
55 -41
56 -41
57 -41
58 -41
59 -41
60 -41
61 -41
62 -41
63 -41
64 -41
65 -41
66 -41
67 -41
68 -42
69 -41
70 -41
71 -42
72 -41
73 -42
74 -41
75 -41
76 -42
77 -39
78 -41
79 -41
80 -42
81 -41
82 -43
83 -42
84 -42
85 -38
86 -42
87 -40
88 -43
89 -43
90 -42
91 -43
92 -42
93 -67
94 -43
95 -42
96 -42
97 -41
98 -42
99 -42