0 -42
1 -43
2 -41
3 -42
4 -42
5 -41
6 -42
7 -43
8 -43
9 -43
10 -42
11 -42
12 -43
13 -42
14 -42
15 -42
16 -42
17 -42
18 -43
19 -43
20 -43
21 -67
22 -42
23 -43
24 -43
25 -42
26 -42
27 -42
28 -43
29 -42
30 -43
31 -43
32 -42
33 -42
34 -43
35 -42
36 -43
37 -67
38 -43
39 -41
40 -43
41 -44
42 -42
43 -42
44 -41
45 -42
46 -42
47 -44
48 -42
49 -42
50 -43
51 -44
52 -41
53 -41
54 -42
55 -43
56 -42
57 -42
58 -43
59 -42
60 -41
61 -42
62 -43
63 -41
64 -44
65 -42
66 -44
67 -43
68 -44
69 -42
70 -42
71 -42
72 -43
73 -43
74 -42
75 -42
76 -43
77 -42
78 -42
79 -42
80 -41
81 -43
82 -43
83 -42
84 -42
85 -42
86 -43
87 -42
88 -43
89 -42
90 -42
91 -42
92 -43
93 -43
94 -43
95 -42
96 -41
97 -41
98 -41
99 -42