0 -58
1 -59
2 -59
3 -58
4 -58
5 -57
6 -58
7 -57
8 -57
9 -57
10 -57
11 -58
12 -58
13 -58
14 -57
15 -57
16 -58
17 -57
18 -57
19 -57
20 -58
21 -57
22 -57
23 -58
24 -58
25 -57
26 -58
27 -58
28 -58
29 -57
30 -57
31 -58
32 -57
33 -57
34 -56
35 -56
36 -57
37 -57
38 -57
39 -57
40 -57
41 -57
42 -58
43 -57
44 -56
45 -56
46 -58
47 -57
48 -57
49 -58
50 -58
51 -57
52 -56
53 -57
54 -58
55 -57
56 -58
57 -58
58 -57
59 -58
60 -58
61 -57
62 -57
63 -58
64 -58
65 -57
66 -57
67 -58
68 -57
69 -57
70 -56
71 -57
72 -56
73 -56
74 -57
75 -57
76 -57
77 -57
78 -57
79 -57
80 -57
81 -57
82 -58
83 -58
84 -57
85 -57
86 -58
87 -56
88 -57
89 -58
90 -58
91 -58
92 -57
93 -58
94 -58
95 -57
96 -57
97 -58
98 -56
99 -56