0 -54
1 -56
2 -55
3 -57
4 -55
5 -55
6 -55
7 -56
8 -55
9 -55
10 -56
11 -54
12 -55
13 -55
14 -56
15 -55
16 -55
17 -56
18 -55
19 -56
20 -55
21 -56
22 -56
23 -55
24 -56
25 -54
26 -55
27 -55
28 -55
29 -55
30 -56
31 -56
32 -55
33 -56
34 -56
35 -55
36 -55
37 -54
38 -56
39 -55
40 -55
41 -55
42 -55
43 -55
44 -54
45 -54
46 -54
47 -55
48 -55
49 -55
50 -55
51 -55
52 -55
53 -55
54 -56
55 -55
56 -56
57 -55
58 -54
59 -54
60 -54
61 -54
62 -56
63 -56
64 -56
65 -54
66 -54
67 -54
68 -56
69 -54
70 -55
71 -54
72 -54
73 -54
74 -54
75 -53
76 -56
77 -56
78 -54
79 -54
80 -56
81 -53
82 -54
83 -53
84 -55
85 -55
86 -55
87 -54
88 -55
89 -54
90 -56
91 -54
92 -54
93 -54
94 -55
95 -55
96 -55
97 -54
98 -54
99 -54