0 -57
1 -57
2 -57
3 -57
4 -57
5 -58
6 -58
7 -56
8 -56
9 -56
10 -56
11 -56
12 -56
13 -56
14 -55
15 -57
16 -57
17 -57
18 -57
19 -58
20 -57
21 -57
22 -56
23 -57
24 -57
25 -57
26 -56
27 -56
28 -57
29 -57
30 -57
31 -57
32 -57
33 -56
34 -56
35 -57
36 -57
37 -57
38 -57
39 -58
40 -57
41 -57
42 -57
43 -56
44 -56
45 -57
46 -57
47 -58
48 -57
49 -56
50 -56
51 -58
52 -57
53 -57
54 -57
55 -56
56 -56
57 -56
58 -57
59 -56
60 -56
61 -56
62 -57
63 -56
64 -56
65 -57
66 -55
67 -57
68 -56
69 -57
70 -57
71 -57
72 -56
73 -58
74 -56
75 -58
76 -55
77 -56
78 -57
79 -58
80 -57
81 -56
82 -56
83 -56
84 -56
85 -56
86 -54
87 -55
88 -57
89 -54
90 -56
91 -55
92 -59
93 -58
94 -56
95 -57
96 -57
97 -57
98 -58
99 -57