0 -57
1 -56
2 -56
3 -56
4 -56
5 -56
6 -55
7 -57
8 -57
9 -56
10 -56
11 -55
12 -55
13 -55
14 -55
15 -55
16 -56
17 -54
18 -55
19 -56
20 -55
21 -55
22 -55
23 -55
24 -56
25 -57
26 -54
27 -54
28 -54
29 -56
30 -55
31 -54
32 -56
33 -56
34 -56
35 -55
36 -54
37 -57
38 -55
39 -55
40 -56
41 -54
42 -56
43 -56
44 -55
45 -55
46 -55
47 -55
48 -55
49 -55
50 -55
51 -54
52 -57
53 -55
54 -55
55 -55
56 -56
57 -57
58 -55
59 -56
60 -56
61 -56
62 -57
63 -57
64 -56
65 -56
66 -55
67 -55
68 -55
69 -55
70 -57
71 -57
72 -55
73 -56
74 -56
75 -56
76 -56
77 -55
78 -56
79 -54
80 -56
81 -55
82 -55
83 -56
84 -55
85 -56
86 -55
87 -55
88 -55
89 -56
90 -55
91 -55
92 -56
93 -55
94 -56
95 -56
96 -56
97 -56
98 -55
99 -54