0 -54
1 -53
2 -53
3 -55
4 -55
5 -54
6 -54
7 -54
8 -55
9 -54
10 -55
11 -55
12 -54
13 -55
14 -53
15 -52
16 -54
17 -54
18 -56
19 -52
20 -54
21 -54
22 -55
23 -54
24 -55
25 -54
26 -56
27 -56
28 -53
29 -54
30 -55
31 -54
32 -54
33 -54
34 -53
35 -54
36 -53
37 -52
38 -53
39 -54
40 -54
41 -55
42 -55
43 -54
44 -53
45 -55
46 -54
47 -53
48 -52
49 -54
50 -53
51 -54
52 -53
53 -55
54 -53
55 -53
56 -54
57 -54
58 -55
59 -54
60 -54
61 -54
62 -53
63 -52
64 -54
65 -53
66 -53
67 -53
68 -54
69 -54
70 -53
71 -55
72 -54
73 -54
74 -53
75 -53
76 -53
77 -53
78 -53
79 -53
80 -54
81 -54
82 -54
83 -53
84 -54
85 -53
86 -53
87 -53
88 -55
89 -54
90 -53
91 -54
92 -53
93 -54
94 -52
95 -54
96 -52
97 -54
98 -53
99 -54