0 -54
1 -53
2 -52
3 -53
4 -52
5 -53
6 -51
7 -53
8 -51
9 -53
10 -52
11 -53
12 -52
13 -53
14 -54
15 -53
16 -54
17 -54
18 -53
19 -52
20 -55
21 -54
22 -54
23 -53
24 -52
25 -53
26 -51
27 -53
28 -53
29 -53
30 -52
31 -53
32 -53
33 -54
34 -54
35 -53
36 -52
37 -52
38 -53
39 -54
40 -54
41 -53
42 -54
43 -52
44 -52
45 -53
46 -53
47 -52
48 -52
49 -54
50 -53
51 -52
52 -53
53 -53
54 -52
55 -52
56 -52
57 -52
58 -52
59 -53
60 -52
61 -53
62 -51
63 -52
64 -53
65 -53
66 -54
67 -53
68 -53
69 -54
70 -53
71 -54
72 -54
73 -53
74 -53
75 -52
76 -52
77 -53
78 -54
79 -53
80 -53
81 -53
82 -53
83 -53
84 -54
85 -54
86 -54
87 -53
88 -53
89 -54
90 -53
91 -53
92 -53
93 -53
94 -53
95 -54
96 -54
97 -53
98 -53
99 -53