0 -55
1 -55
2 -55
3 -55
4 -54
5 -55
6 -54
7 -55
8 -55
9 -55
10 -55
11 -56
12 -56
13 -56
14 -56
15 -57
16 -57
17 -56
18 -54
19 -56
20 -55
21 -55
22 -55
23 -55
24 -55
25 -55
26 -55
27 -56
28 -56
29 -55
30 -56
31 -55
32 -55
33 -56
34 -55
35 -55
36 -55
37 -55
38 -55
39 -53
40 -55
41 -54
42 -56
43 -55
44 -55
45 -55
46 -55
47 -56
48 -57
49 -56
50 -55
51 -56
52 -55
53 -56
54 -55
55 -55
56 -55
57 -55
58 -55
59 -56
60 -56
61 -57
62 -57
63 -55
64 -56
65 -55
66 -56
67 -56
68 -55
69 -56
70 -55
71 -56
72 -56
73 -57
74 -56
75 -56
76 -55
77 -56
78 -56
79 -57
80 -55
81 -57
82 -56
83 -57
84 -56
85 -56
86 -56
87 -56
88 -58
89 -55
90 -57
91 -56
92 -56
93 -55
94 -56
95 -56
96 -55
97 -55
98 -55
99 -56