0 -46
1 -47
2 -47
3 -48
4 -46
5 -46
6 -47
7 -47
8 -47
9 -48
10 -48
11 -47
12 -47
13 -48
14 -47
15 -48
16 -49
17 -48
18 -48
19 -48
20 -48
21 -57
22 -57
23 -57
24 -57
25 -48
26 -48
27 -48
28 -48
29 -46
30 -49
31 -46
32 -47
33 -47
34 -47
35 -47
36 -47
37 -48
38 -47
39 -46
40 -47
41 -46
42 -45
43 -48
44 -47
45 -47
46 -48
47 -47
48 -47
49 -48
50 -47
51 -46
52 -47
53 -47
54 -47
55 -47
56 -47
57 -47
58 -46
59 -48
60 -48
61 -48
62 -48
63 -46
64 -48
65 -47
66 -47
67 -47
68 -47
69 -47
70 -47
71 -46
72 -46
73 -48
74 -47
75 -47
76 -47
77 -48
78 -46
79 -47
80 -48
81 -49
82 -47
83 -45
84 -48
85 -48
86 -47
87 -46
88 -47
89 -48
90 -46
91 -49
92 -46
93 -47
94 -47
95 -47
96 -48
97 -47
98 -46
99 -46