0 -53
1 -54
2 -53
3 -54
4 -53
5 -52
6 -53
7 -52
8 -52
9 -53
10 -52
11 -54
12 -54
13 -52
14 -53
15 -52
16 -53
17 -52
18 -50
19 -52
20 -52
21 -52
22 -52
23 -52
24 -52
25 -53
26 -52
27 -52
28 -51
29 -52
30 -52
31 -52
32 -53
33 -52
34 -52
35 -51
36 -51
37 -51
38 -51
39 -52
40 -51
41 -52
42 -52
43 -52
44 -52
45 -53
46 -52
47 -53
48 -52
49 -53
50 -52
51 -53
52 -52
53 -52
54 -51
55 -52
56 -52
57 -51
58 -52
59 -53
60 -51
61 -51
62 -52
63 -53
64 -51
65 -50
66 -51
67 -51
68 -51
69 -52
70 -53
71 -52
72 -52
73 -52
74 -50
75 -50
76 -52
77 -54
78 -54
79 -53
80 -53
81 -55
82 -53
83 -53
84 -55
85 -53
86 -52
87 -52
88 -52
89 -52
90 -51
91 -53
92 -54
93 -51
94 -52
95 -51
96 -52
97 -52
98 -53
99 -53