0 -54
1 -52
2 -52
3 -51
4 -52
5 -52
6 -52
7 -51
8 -53
9 -52
10 -52
11 -51
12 -53
13 -52
14 -53
15 -52
16 -52
17 -53
18 -51
19 -51
20 -52
21 -53
22 -52
23 -52
24 -53
25 -52
26 -52
27 -53
28 -52
29 -51
30 -52
31 -52
32 -52
33 -53
34 -51
35 -53
36 -53
37 -52
38 -52
39 -52
40 -52
41 -52
42 -52
43 -52
44 -52
45 -53
46 -53
47 -53
48 -53
49 -53
50 -53
51 -51
52 -53
53 -51
54 -51
55 -52
56 -51
57 -53
58 -51
59 -51
60 -51
61 -51
62 -51
63 -53
64 -52
65 -51
66 -52
67 -52
68 -51
69 -50
70 -51
71 -52
72 -51
73 -52
74 -53
75 -51
76 -52
77 -51
78 -51
79 -52
80 -51
81 -51
82 -51
83 -52
84 -51
85 -52
86 -51
87 -52
88 -53
89 -53
90 -51
91 -52
92 -51
93 -52
94 -53
95 -52
96 -52
97 -52
98 -51
99 -51