0 -52
1 -49
2 -52
3 -51
4 -52
5 -52
6 -52
7 -52
8 -51
9 -51
10 -51
11 -51
12 -52
13 -52
14 -52
15 -51
16 -52
17 -49
18 -51
19 -51
20 -51
21 -51
22 -51
23 -52
24 -52
25 -52
26 -51
27 -47
28 -51
29 -50
30 -52
31 -51
32 -52
33 -51
34 -52
35 -51
36 -49
37 -52
38 -51
39 -53
40 -52
41 -52
42 -53
43 -51
44 -51
45 -51
46 -52
47 -51
48 -52
49 -51
50 -51
51 -51
52 -51
53 -52
54 -51
55 -51
56 -51
57 -52
58 -52
59 -51
60 -51
61 -52
62 -52
63 -51
64 -53
65 -52
66 -51
67 -52
68 -51
69 -53
70 -48
71 -51
72 -52
73 -51
74 -53
75 -51
76 -51
77 -52
78 -52
79 -53
80 -52
81 -54
82 -51
83 -52
84 -53
85 -51
86 -49
87 -51
88 -53
89 -50
90 -51
91 -52
92 -52
93 -52
94 -50
95 -52
96 -51
97 -52
98 -52
99 -52