0 -49
1 -49
2 -49
3 -46
4 -47
5 -46
6 -48
7 -45
8 -48
9 -62
10 -47
11 -47
12 -46
13 -48
14 -48
15 -47
16 -48
17 -48
18 -47
19 -46
20 -47
21 -48
22 -48
23 -47
24 -48
25 -47
26 -48
27 -47
28 -67
29 -46
30 -49
31 -48
32 -48
33 -47
34 -48
35 -47
36 -46
37 -49
38 -47
39 -48
40 -46
41 -47
42 -46
43 -46
44 -47
45 -48
46 -47
47 -48
48 -48
49 -47
50 -48
51 -47
52 -48
53 -47
54 -47
55 -48
56 -47
57 -47
58 -46
59 -47
60 -47
61 -48
62 -47
63 -47
64 -46
65 -47
66 -47
67 -46
68 -47
69 -47
70 -47
71 -48
72 -46
73 -47
74 -46
75 -42
76 -47
77 -48
78 -47
79 -49
80 -47
81 -47
82 -47
83 -47
84 -48
85 -47
86 -48
87 -46
88 -48
89 -47
90 -48
91 -46
92 -47
93 -46
94 -48
95 -47
96 -47
97 -47
98 -48
99 -48