0 -46
1 -46
2 -46
3 -48
4 -46
5 -48
6 -46
7 -47
8 -47
9 -46
10 -46
11 -46
12 -47
13 -48
14 -48
15 -47
16 -47
17 -47
18 -47
19 -46
20 -47
21 -49
22 -49
23 -48
24 -47
25 -48
26 -48
27 -50
28 -47
29 -47
30 -48
31 -48
32 -48
33 -48
34 -48
35 -48
36 -48
37 -47
38 -49
39 -47
40 -47
41 -48
42 -47
43 -47
44 -48
45 -47
46 -48
47 -48
48 -48
49 -48
50 -47
51 -47
52 -47
53 -46
54 -48
55 -48
56 -49
57 -49
58 -48
59 -47
60 -47
61 -46
62 -48
63 -50
64 -48
65 -47
66 -48
67 -48
68 -49
69 -48
70 -48
71 -48
72 -48
73 -48
74 -48
75 -47
76 -46
77 -49
78 -47
79 -48
80 -48
81 -47
82 -67
83 -48
84 -47
85 -46
86 -49
87 -48
88 -49
89 -47
90 -50
91 -48
92 -47
93 -46
94 -50
95 -49
96 -48
97 -46
98 -48
99 -46