0 -58
1 -58
2 -58
3 -57
4 -57
5 -59
6 -59
7 -59
8 -59
9 -58
10 -58
11 -57
12 -57
13 -59
14 -60
15 -58
16 -58
17 -58
18 -58
19 -57
20 -58
21 -59
22 -59
23 -58
24 -60
25 -58
26 -58
27 -59
28 -58
29 -58
30 -60
31 -58
32 -60
33 -60
34 -58
35 -61
36 -58
37 -59
38 -59
39 -59
40 -58
41 -58
42 -58
43 -60
44 -59
45 -58
46 -60
47 -59
48 -60
49 -59
50 -58
51 -60
52 -62
53 -60
54 -62
55 -61
56 -61
57 -61
58 -61
59 -62
60 -61
61 -61
62 -59
63 -59
64 -57
65 -58
66 -57
67 -58
68 -58
69 -60
70 -60
71 -59
72 -58
73 -59
74 -58
75 -60
76 -59
77 -60
78 -58
79 -60
80 -58
81 -60
82 -60
83 -59
84 -59
85 -57
86 -60
87 -60
88 -60
89 -60
90 -58
91 -59
92 -60
93 -60
94 -59
95 -58
96 -59
97 -59
98 -58
99 -58