0 -48
1 -49
2 -50
3 -49
4 -49
5 -49
6 -48
7 -50
8 -49
9 -48
10 -49
11 -50
12 -48
13 -49
14 -49
15 -50
16 -49
17 -49
18 -50
19 -49
20 -49
21 -49
22 -50
23 -49
24 -49
25 -50
26 -50
27 -49
28 -48
29 -50
30 -49
31 -49
32 -49
33 -49
34 -49
35 -48
36 -49
37 -49
38 -49
39 -49
40 -48
41 -49
42 -49
43 -48
44 -49
45 -46
46 -48
47 -49
48 -50
49 -50
50 -48
51 -49
52 -50
53 -48
54 -48
55 -49
56 -49
57 -48
58 -49
59 -48
60 -49
61 -48
62 -50
63 -48
64 -49
65 -49
66 -48
67 -48
68 -50
69 -48
70 -48
71 -49
72 -49
73 -49
74 -49
75 -49
76 -49
77 -50
78 -49
79 -48
80 -49
81 -49
82 -49
83 -49
84 -49
85 -48
86 -48
87 -49
88 -48
89 -49
90 -50
91 -48
92 -48
93 -50
94 -49
95 -48
96 -49
97 -48
98 -48
99 -48