0 -60
1 -59
2 -59
3 -60
4 -59
5 -58
6 -60
7 -60
8 -59
9 -60
10 -61
11 -61
12 -60
13 -60
14 -61
15 -58
16 -60
17 -58
18 -59
19 -58
20 -59
21 -58
22 -60
23 -59
24 -60
25 -60
26 -60
27 -59
28 -59
29 -60
30 -60
31 -59
32 -61
33 -59
34 -58
35 -60
36 -58
37 -58
38 -59
39 -59
40 -59
41 -59
42 -58
43 -57
44 -58
45 -58
46 -57
47 -57
48 -58
49 -58
50 -58
51 -58
52 -57
53 -57
54 -57
55 -58
56 -58
57 -58
58 -58
59 -59
60 -59
61 -59
62 -58
63 -58
64 -58
65 -60
66 -58
67 -58
68 -58
69 -60
70 -62
71 -61
72 -61
73 -62
74 -62
75 -63
76 -61
77 -63
78 -61
79 -62
80 -62
81 -62
82 -63
83 -61
84 -62
85 -62
86 -62
87 -61
88 -60
89 -61
90 -60
91 -59
92 -61
93 -61
94 -61
95 -61
96 -59
97 -60
98 -60
99 -58