0 -60
1 -59
2 -61
3 -61
4 -60
5 -61
6 -61
7 -60
8 -60
9 -61
10 -61
11 -60
12 -59
13 -62
14 -61
15 -61
16 -60
17 -59
18 -58
19 -59
20 -58
21 -58
22 -59
23 -59
24 -58
25 -59
26 -60
27 -59
28 -61
29 -59
30 -59
31 -59
32 -59
33 -60
34 -58
35 -61
36 -60
37 -60
38 -60
39 -60
40 -59
41 -68
42 -59
43 -59
44 -58
45 -59
46 -60
47 -60
48 -61
49 -60
50 -59
51 -59
52 -58
53 -60
54 -70
55 -61
56 -59
57 -60
58 -61
59 -61
60 -61
61 -60
62 -58
63 -58
64 -59
65 -59
66 -61
67 -61
68 -60
69 -60
70 -61
71 -61
72 -59
73 -57
74 -61
75 -58
76 -61
77 -62
78 -60
79 -60
80 -60
81 -58
82 -59
83 -60
84 -60
85 -59
86 -60
87 -61
88 -58
89 -59
90 -58
91 -57
92 -62
93 -58
94 -59
95 -59
96 -60
97 -62
98 -63
99 -62