0 -59
1 -59
2 -61
3 -59
4 -60
5 -60
6 -60
7 -59
8 -59
9 -60
10 -59
11 -58
12 -60
13 -60
14 -60
15 -60
16 -59
17 -59
18 -59
19 -59
20 -58
21 -60
22 -60
23 -70
24 -59
25 -60
26 -58
27 -58
28 -58
29 -58
30 -60
31 -59
32 -60
33 -58
34 -60
35 -58
36 -58
37 -59
38 -59
39 -59
40 -59
41 -60
42 -58
43 -59
44 -59
45 -59
46 -57
47 -58
48 -58
49 -60
50 -58
51 -59
52 -58
53 -60
54 -59
55 -60
56 -59
57 -59
58 -59
59 -60
60 -60
61 -59
62 -59
63 -59
64 -60
65 -58
66 -59
67 -61
68 -60
69 -59
70 -59
71 -60
72 -59
73 -59
74 -59
75 -60
76 -60
77 -60
78 -59
79 -59
80 -59
81 -59
82 -59
83 -59
84 -58
85 -59
86 -59
87 -60
88 -59
89 -59
90 -59
91 -58
92 -58
93 -58
94 -59
95 -60
96 -59
97 -59
98 -59
99 -60