0 -48
1 -48
2 -47
3 -47
4 -47
5 -47
6 -47
7 -48
8 -48
9 -47
10 -46
11 -48
12 -47
13 -47
14 -46
15 -47
16 -47
17 -46
18 -47
19 -47
20 -47
21 -47
22 -48
23 -47
24 -46
25 -46
26 -48
27 -48
28 -47
29 -48
30 -47
31 -48
32 -48
33 -48
34 -47
35 -46
36 -47
37 -46
38 -47
39 -47
40 -48
41 -47
42 -64
43 -48
44 -47
45 -47
46 -48
47 -47
48 -47
49 -46
50 -46
51 -46
52 -48
53 -46
54 -47
55 -44
56 -47
57 -47
58 -47
59 -47
60 -46
61 -47
62 -47
63 -46
64 -47
65 -48
66 -48
67 -47
68 -47
69 -47
70 -46
71 -46
72 -47
73 -46
74 -47
75 -46
76 -47
77 -48
78 -48
79 -48
80 -47
81 -47
82 -48
83 -47
84 -48
85 -48
86 -46
87 -47
88 -47
89 -48
90 -48
91 -47
92 -46
93 -47
94 -47
95 -48
96 -48
97 -48
98 -47
99 -50