0 -46
1 -45
2 -45
3 -44
4 -44
5 -44
6 -44
7 -44
8 -45
9 -44
10 -43
11 -42
12 -43
13 -44
14 -45
15 -47
16 -47
17 -45
18 -45
19 -43
20 -44
21 -43
22 -42
23 -44
24 -45
25 -46
26 -46
27 -42
28 -43
29 -44
30 -44
31 -46
32 -44
33 -45
34 -44
35 -44
36 -43
37 -44
38 -45
39 -44
40 -44
41 -43
42 -44
43 -45
44 -45
45 -45
46 -45
47 -45
48 -46
49 -46
50 -45
51 -48
52 -48
53 -48
54 -48
55 -45
56 -46
57 -47
58 -47
59 -47
60 -46
61 -45
62 -45
63 -46
64 -45
65 -44
66 -44
67 -46
68 -45
69 -45
70 -42
71 -43
72 -46
73 -44
74 -44
75 -45
76 -44
77 -40
78 -46
79 -45
80 -43
81 -46
82 -45
83 -44
84 -44
85 -44
86 -44
87 -45
88 -43
89 -45
90 -44
91 -44
92 -45
93 -43
94 -44
95 -45
96 -45
97 -44
98 -45
99 -45