0 -49
1 -47
2 -49
3 -46
4 -46
5 -46
6 -48
7 -47
8 -48
9 -47
10 -47
11 -47
12 -46
13 -48
14 -48
15 -47
16 -48
17 -48
18 -47
19 -49
20 -47
21 -48
22 -46
23 -48
24 -48
25 -46
26 -47
27 -47
28 -46
29 -49
30 -49
31 -49
32 -49
33 -47
34 -47
35 -47
36 -48
37 -47
38 -48
39 -47
40 -46
41 -46
42 -47
43 -47
44 -47
45 -47
46 -47
47 -47
48 -47
49 -48
50 -47
51 -48
52 -47
53 -47
54 -47
55 -47
56 -47
57 -48
58 -47
59 -47
60 -48
61 -47
62 -47
63 -46
64 -48
65 -47
66 -47
67 -47
68 -48
69 -48
70 -48
71 -47
72 -47
73 -47
74 -47
75 -48
76 -48
77 -47
78 -47
79 -46
80 -48
81 -47
82 -48
83 -47
84 -47
85 -48
86 -47
87 -47
88 -48
89 -67
90 -47
91 -49
92 -48
93 -47
94 -49
95 -47
96 -47
97 -48
98 -50
99 -47