0 -49
1 -48
2 -48
3 -47
4 -49
5 -49
6 -49
7 -48
8 -50
9 -48
10 -49
11 -50
12 -48
13 -50
14 -50
15 -50
16 -48
17 -48
18 -49
19 -50
20 -50
21 -49
22 -49
23 -49
24 -48
25 -49
26 -49
27 -48
28 -50
29 -49
30 -49
31 -49
32 -50
33 -49
34 -49
35 -49
36 -49
37 -49
38 -49
39 -49
40 -50
41 -49
42 -51
43 -49
44 -50
45 -50
46 -48
47 -48
48 -50
49 -49
50 -49
51 -48
52 -50
53 -50
54 -49
55 -47
56 -49
57 -50
58 -50
59 -49
60 -50
61 -49
62 -50
63 -50
64 -49
65 -50
66 -47
67 -49
68 -50
69 -50
70 -48
71 -49
72 -49
73 -50
74 -50
75 -50
76 -50
77 -49
78 -49
79 -49
80 -50
81 -49
82 -66
83 -49
84 -49
85 -49
86 -47
87 -49
88 -49
89 -50
90 -49
91 -48
92 -48
93 -49
94 -48
95 -48
96 -50
97 -50
98 -49
99 -50