0 -54
1 -55
2 -54
3 -58
4 -54
5 -54
6 -54
7 -56
8 -54
9 -54
10 -54
11 -53
12 -54
13 -55
14 -54
15 -54
16 -54
17 -54
18 -54
19 -55
20 -54
21 -54
22 -54
23 -55
24 -53
25 -53
26 -53
27 -52
28 -54
29 -54
30 -53
31 -53
32 -53
33 -53
34 -53
35 -52
36 -53
37 -53
38 -53
39 -53
40 -53
41 -55
42 -54
43 -54
44 -53
45 -54
46 -54
47 -54
48 -55
49 -54
50 -54
51 -54
52 -52
53 -54
54 -54
55 -54
56 -53
57 -52
58 -54
59 -53
60 -54
61 -54
62 -54
63 -54
64 -54
65 -54
66 -54
67 -54
68 -55
69 -55
70 -55
71 -55
72 -55
73 -55
74 -53
75 -55
76 -54
77 -54
78 -55
79 -56
80 -54
81 -54
82 -54
83 -54
84 -54
85 -54
86 -53
87 -49
88 -55
89 -54
90 -54
91 -54
92 -55
93 -55
94 -54
95 -56
96 -56
97 -56
98 -56
99 -56