0 -55
1 -55
2 -55
3 -54
4 -55
5 -54
6 -54
7 -55
8 -54
9 -54
10 -54
11 -54
12 -54
13 -54
14 -54
15 -54
16 -54
17 -53
18 -53
19 -54
20 -54
21 -53
22 -54
23 -54
24 -53
25 -53
26 -53
27 -54
28 -54
29 -54
30 -54
31 -53
32 -54
33 -54
34 -53
35 -54
36 -54
37 -53
38 -54
39 -54
40 -55
41 -54
42 -55
43 -54
44 -50
45 -54
46 -54
47 -54
48 -53
49 -54
50 -55
51 -54
52 -54
53 -54
54 -54
55 -53
56 -54
57 -54
58 -54
59 -55
60 -55
61 -55
62 -54
63 -55
64 -54
65 -54
66 -54
67 -54
68 -54
69 -54
70 -54
71 -53
72 -53
73 -54
74 -53
75 -53
76 -53
77 -54
78 -53
79 -55
80 -54
81 -53
82 -54
83 -55
84 -54
85 -54
86 -53
87 -55
88 -54
89 -55
90 -54
91 -54
92 -54
93 -53
94 -55
95 -54
96 -53
97 -53
98 -54
99 -54