0 -54
1 -54
2 -54
3 -54
4 -52
5 -52
6 -51
7 -52
8 -52
9 -53
10 -52
11 -51
12 -50
13 -51
14 -52
15 -51
16 -51
17 -52
18 -52
19 -50
20 -52
21 -64
22 -52
23 -50
24 -51
25 -52
26 -51
27 -52
28 -52
29 -56
30 -51
31 -52
32 -52
33 -52
34 -51
35 -52
36 -51
37 -52
38 -51
39 -52
40 -52
41 -51
42 -51
43 -52
44 -53
45 -53
46 -52
47 -51
48 -52
49 -52
50 -53
51 -52
52 -53
53 -52
54 -52
55 -51
56 -52
57 -55
58 -53
59 -50
60 -52
61 -53
62 -52
63 -52
64 -52
65 -50
66 -51
67 -51
68 -52
69 -51
70 -53
71 -52
72 -51
73 -51
74 -52
75 -50
76 -52
77 -52
78 -52
79 -51
80 -52
81 -52
82 -53
83 -53
84 -53
85 -52
86 -51
87 -53
88 -53
89 -52
90 -50
91 -52
92 -53
93 -55
94 -54
95 -55
96 -55
97 -54
98 -55
99 -56