0 -55
1 -55
2 -55
3 -55
4 -56
5 -55
6 -56
7 -55
8 -56
9 -56
10 -55
11 -55
12 -55
13 -55
14 -56
15 -56
16 -55
17 -56
18 -56
19 -56
20 -56
21 -55
22 -56
23 -56
24 -56
25 -54
26 -54
27 -55
28 -55
29 -55
30 -56
31 -55
32 -54
33 -55
34 -55
35 -55
36 -54
37 -55
38 -55
39 -56
40 -55
41 -55
42 -56
43 -56
44 -56
45 -55
46 -56
47 -55
48 -54
49 -55
50 -55
51 -56
52 -55
53 -55
54 -54
55 -55
56 -55
57 -55
58 -56
59 -56
60 -55
61 -55
62 -55
63 -55
64 -54
65 -55
66 -54
67 -56
68 -55
69 -55
70 -55
71 -55
72 -55
73 -56
74 -55
75 -55
76 -55
77 -55
78 -55
79 -55
80 -55
81 -55
82 -54
83 -55
84 -56
85 -56
86 -55
87 -54
88 -55
89 -55
90 -54
91 -54
92 -55
93 -55
94 -55
95 -55
96 -53
97 -55
98 -55
99 -55