0 -52
1 -52
2 -52
3 -52
4 -51
5 -52
6 -51
7 -52
8 -51
9 -51
10 -51
11 -51
12 -52
13 -51
14 -52
15 -50
16 -52
17 -52
18 -53
19 -52
20 -52
21 -53
22 -53
23 -53
24 -52
25 -52
26 -52
27 -53
28 -52
29 -50
30 -51
31 -52
32 -52
33 -51
34 -51
35 -52
36 -50
37 -51
38 -53
39 -53
40 -51
41 -52
42 -52
43 -52
44 -52
45 -52
46 -53
47 -51
48 -51
49 -52
50 -51
51 -50
52 -52
53 -51
54 -50
55 -51
56 -51
57 -52
58 -51
59 -52
60 -51
61 -51
62 -50
63 -53
64 -53
65 -52
66 -52
67 -50
68 -52
69 -53
70 -52
71 -53
72 -53
73 -52
74 -53
75 -51
76 -51
77 -52
78 -52
79 -52
80 -52
81 -52
82 -52
83 -53
84 -51
85 -52
86 -52
87 -51
88 -52
89 -52
90 -53
91 -52
92 -51
93 -52
94 -51
95 -53
96 -52
97 -51
98 -51
99 -50