0 -52
1 -52
2 -53
3 -53
4 -53
5 -52
6 -52
7 -51
8 -52
9 -51
10 -51
11 -52
12 -51
13 -53
14 -52
15 -51
16 -52
17 -52
18 -53
19 -52
20 -53
21 -53
22 -52
23 -53
24 -52
25 -53
26 -53
27 -54
28 -54
29 -53
30 -65
31 -52
32 -52
33 -54
34 -54
35 -53
36 -52
37 -55
38 -52
39 -53
40 -53
41 -54
42 -53
43 -52
44 -53
45 -54
46 -53
47 -54
48 -52
49 -54
50 -53
51 -52
52 -54
53 -54
54 -52
55 -52
56 -53
57 -49
58 -53
59 -53
60 -53
61 -53
62 -54
63 -54
64 -52
65 -53
66 -52
67 -53
68 -53
69 -52
70 -54
71 -54
72 -53
73 -52
74 -53
75 -53
76 -53
77 -54
78 -52
79 -55
80 -52
81 -54
82 -54
83 -53
84 -55
85 -53
86 -54
87 -53
88 -52
89 -54
90 -52
91 -54
92 -55
93 -53
94 -53
95 -54
96 -53
97 -53
98 -53
99 -53