0 -53
1 -52
2 -53
3 -52
4 -53
5 -53
6 -54
7 -53
8 -53
9 -53
10 -53
11 -52
12 -53
13 -52
14 -53
15 -53
16 -52
17 -52
18 -53
19 -53
20 -52
21 -53
22 -53
23 -53
24 -53
25 -53
26 -53
27 -53
28 -54
29 -52
30 -53
31 -53
32 -53
33 -52
34 -53
35 -52
36 -52
37 -53
38 -52
39 -52
40 -53
41 -53
42 -52
43 -53
44 -53
45 -53
46 -52
47 -52
48 -52
49 -52
50 -53
51 -54
52 -53
53 -54
54 -53
55 -52
56 -53
57 -54
58 -52
59 -53
60 -52
61 -52
62 -52
63 -53
64 -52
65 -51
66 -53
67 -53
68 -54
69 -52
70 -53
71 -54
72 -53
73 -53
74 -53
75 -51
76 -52
77 -52
78 -52
79 -52
80 -53
81 -54
82 -53
83 -51
84 -53
85 -52
86 -54
87 -52
88 -53
89 -53
90 -52
91 -52
92 -53
93 -54
94 -53
95 -53
96 -54
97 -54
98 -53
99 -53