0 -51
1 -50
2 -52
3 -51
4 -51
5 -51
6 -53
7 -51
8 -52
9 -51
10 -51
11 -50
12 -51
13 -52
14 -51
15 -52
16 -53
17 -52
18 -51
19 -51
20 -51
21 -51
22 -50
23 -51
24 -50
25 -50
26 -51
27 -50
28 -51
29 -51
30 -50
31 -51
32 -52
33 -51
34 -52
35 -51
36 -51
37 -52
38 -50
39 -50
40 -50
41 -50
42 -52
43 -51
44 -50
45 -50
46 -50
47 -52
48 -51
49 -51
50 -52
51 -50
52 -51
53 -52
54 -51
55 -51
56 -51
57 -51
58 -51
59 -51
60 -52
61 -52
62 -52
63 -51
64 -52
65 -51
66 -50
67 -52
68 -52
69 -51
70 -51
71 -50
72 -51
73 -52
74 -51
75 -52
76 -52
77 -51
78 -53
79 -52
80 -52
81 -52
82 -53
83 -53
84 -51
85 -51
86 -53
87 -52
88 -52
89 -52
90 -53
91 -51
92 -53
93 -52
94 -52
95 -52
96 -52
97 -53
98 -52
99 -53