0 -52
1 -52
2 -53
3 -51
4 -52
5 -53
6 -52
7 -53
8 -53
9 -51
10 -52
11 -52
12 -52
13 -53
14 -53
15 -52
16 -53
17 -51
18 -53
19 -51
20 -51
21 -52
22 -52
23 -53
24 -51
25 -52
26 -51
27 -51
28 -53
29 -52
30 -52
31 -52
32 -53
33 -53
34 -52
35 -53
36 -51
37 -51
38 -52
39 -51
40 -52
41 -51
42 -53
43 -51
44 -51
45 -51
46 -50
47 -53
48 -52
49 -54
50 -53
51 -51
52 -51
53 -51
54 -52
55 -52
56 -53
57 -50
58 -51
59 -52
60 -50
61 -52
62 -51
63 -51
64 -52
65 -50
66 -53
67 -51
68 -52
69 -51
70 -51
71 -51
72 -52
73 -52
74 -53
75 -53
76 -51
77 -52
78 -50
79 -52
80 -51
81 -52
82 -52
83 -52
84 -52
85 -52
86 -52
87 -51
88 -52
89 -53
90 -52
91 -52
92 -54
93 -54
94 -53
95 -52
96 -53
97 -53
98 -52
99 -51