0 -42
1 -41
2 -40
3 -40
4 -40
5 -40
6 -42
7 -40
8 -40
9 -40
10 -39
11 -40
12 -39
13 -40
14 -41
15 -40
16 -41
17 -40
18 -40
19 -40
20 -39
21 -39
22 -40
23 -40
24 -40
25 -41
26 -41
27 -39
28 -40
29 -41
30 -40
31 -40
32 -39
33 -40
34 -40
35 -40
36 -41
37 -42
38 -39
39 -40
40 -42
41 -40
42 -37
43 -40
44 -38
45 -41
46 -40
47 -39
48 -38
49 -41
50 -41
51 -41
52 -41
53 -40
54 -40
55 -40
56 -41
57 -41
58 -41
59 -41
60 -42
61 -41
62 -37
63 -41
64 -41
65 -40
66 -43
67 -42
68 -38
69 -40
70 -41
71 -41
72 -42
73 -42
74 -41
75 -40
76 -41
77 -41
78 -40
79 -39
80 -40
81 -41
82 -40
83 -40
84 -41
85 -40
86 -41
87 -40
88 -42
89 -41
90 -42
91 -41
92 -41
93 -40
94 -40
95 -40
96 -39
97 -40
98 -40
99 -46