0 -52
1 -52
2 -53
3 -53
4 -53
5 -54
6 -53
7 -54
8 -54
9 -53
10 -52
11 -54
12 -54
13 -53
14 -54
15 -51
16 -52
17 -53
18 -54
19 -54
20 -54
21 -53
22 -53
23 -53
24 -53
25 -53
26 -54
27 -53
28 -53
29 -53
30 -53
31 -53
32 -53
33 -53
34 -52
35 -53
36 -53
37 -53
38 -53
39 -54
40 -53
41 -52
42 -52
43 -52
44 -53
45 -54
46 -53
47 -53
48 -53
49 -53
50 -53
51 -53
52 -52
53 -52
54 -52
55 -52
56 -52
57 -52
58 -53
59 -51
60 -52
61 -54
62 -52
63 -54
64 -53
65 -53
66 -52
67 -53
68 -54
69 -53
70 -54
71 -53
72 -52
73 -53
74 -52
75 -53
76 -53
77 -53
78 -53
79 -53
80 -52
81 -53
82 -52
83 -52
84 -52
85 -52
86 -53
87 -53
88 -53
89 -53
90 -53
91 -54
92 -54
93 -53
94 -53
95 -54
96 -53
97 -53
98 -53
99 -54