0 -54
1 -53
2 -53
3 -54
4 -53
5 -53
6 -53
7 -53
8 -53
9 -53
10 -53
11 -53
12 -53
13 -53
14 -53
15 -50
16 -53
17 -53
18 -54
19 -53
20 -54
21 -54
22 -53
23 -55
24 -55
25 -55
26 -55
27 -53
28 -53
29 -52
30 -52
31 -53
32 -53
33 -53
34 -53
35 -53
36 -54
37 -52
38 -53
39 -53
40 -53
41 -53
42 -53
43 -52
44 -53
45 -53
46 -53
47 -52
48 -53
49 -53
50 -53
51 -53
52 -54
53 -53
54 -52
55 -53
56 -54
57 -52
58 -52
59 -52
60 -52
61 -52
62 -52
63 -53
64 -53
65 -53
66 -52
67 -52
68 -52
69 -53
70 -52
71 -59
72 -52
73 -53
74 -52
75 -53
76 -53
77 -52
78 -52
79 -53
80 -53
81 -53
82 -52
83 -52
84 -53
85 -53
86 -51
87 -53
88 -53
89 -54
90 -53
91 -52
92 -54
93 -52
94 -53
95 -53
96 -52
97 -53
98 -52
99 -52