0 -40
1 -41
2 -40
3 -40
4 -41
5 -39
6 -39
7 -42
8 -41
9 -41
10 -41
11 -40
12 -42
13 -41
14 -41
15 -40
16 -40
17 -42
18 -42
19 -41
20 -41
21 -41
22 -40
23 -41
24 -43
25 -42
26 -40
27 -41
28 -41
29 -41
30 -40
31 -41
32 -41
33 -41
34 -39
35 -41
36 -40
37 -42
38 -42
39 -41
40 -40
41 -42
42 -41
43 -38
44 -42
45 -42
46 -41
47 -41
48 -40
49 -42
50 -40
51 -40
52 -42
53 -41
54 -38
55 -40
56 -40
57 -41
58 -40
59 -41
60 -40
61 -41
62 -41
63 -41
64 -41
65 -41
66 -40
67 -39
68 -40
69 -38
70 -41
71 -40
72 -37
73 -40
74 -40
75 -41
76 -39
77 -40
78 -39
79 -40
80 -37
81 -40
82 -41
83 -40
84 -41
85 -40
86 -40
87 -40
88 -40
89 -41
90 -40
91 -40
92 -38
93 -43
94 -41
95 -39
96 -39
97 -41
98 -42
99 -40