0 -41
1 -40
2 -41
3 -37
4 -38
5 -39
6 -40
7 -41
8 -41
9 -39
10 -40
11 -37
12 -37
13 -40
14 -42
15 -38
16 -37
17 -42
18 -36
19 -38
20 -37
21 -40
22 -41
23 -42
24 -39
25 -40
26 -40
27 -40
28 -41
29 -42
30 -40
31 -42
32 -38
33 -42
34 -42
35 -37
36 -41
37 -42
38 -38
39 -39
40 -40
41 -41
42 -41
43 -41
44 -40
45 -41
46 -40
47 -43
48 -40
49 -41
50 -40
51 -39
52 -38
53 -37
54 -41
55 -40
56 -41
57 -42
58 -39
59 -41
60 -42
61 -40
62 -41
63 -42
64 -42
65 -42
66 -41
67 -41
68 -42
69 -41
70 -40
71 -40
72 -40
73 -40
74 -40
75 -41
76 -41
77 -40
78 -42
79 -37
80 -40
81 -39
82 -40
83 -42
84 -41
85 -41
86 -41
87 -41
88 -41
89 -41
90 -41
91 -41
92 -39
93 -42
94 -40
95 -41
96 -40
97 -40
98 -40
99 -42