0 -36
1 -37
2 -37
3 -35
4 -44
5 -35
6 -36
7 -36
8 -36
9 -36
10 -37
11 -36
12 -36
13 -36
14 -36
15 -37
16 -35
17 -37
18 -38
19 -37
20 -38
21 -38
22 -36
23 -37
24 -36
25 -38
26 -37
27 -36
28 -36
29 -36
30 -37
31 -36
32 -34
33 -35
34 -36
35 -35
36 -35
37 -36
38 -34
39 -36
40 -35
41 -35
42 -35
43 -35
44 -34
45 -34
46 -37
47 -35
48 -36
49 -34
50 -36
51 -38
52 -35
53 -36
54 -35
55 -38
56 -36
57 -36
58 -36
59 -36
60 -35
61 -37
62 -35
63 -37
64 -37
65 -35
66 -35
67 -35
68 -35
69 -34
70 -35
71 -36
72 -35
73 -35
74 -33
75 -34
76 -35
77 -37
78 -35
79 -35
80 -36
81 -38
82 -36
83 -35
84 -36
85 -35
86 -35
87 -35
88 -36
89 -35
90 -35
91 -35
92 -35
93 -37
94 -37
95 -37
96 -38
97 -37
98 -37
99 -34