0 -37
1 -36
2 -37
3 -36
4 -35
5 -35
6 -35
7 -34
8 -36
9 -34
10 -35
11 -34
12 -35
13 -36
14 -32
15 -37
16 -35
17 -34
18 -35
19 -36
20 -36
21 -35
22 -36
23 -34
24 -35
25 -36
26 -35
27 -36
28 -36
29 -35
30 -37
31 -36
32 -35
33 -37
34 -36
35 -36
36 -36
37 -35
38 -36
39 -37
40 -35
41 -36
42 -36
43 -34
44 -34
45 -37
46 -37
47 -35
48 -35
49 -36
50 -35
51 -36
52 -36
53 -37
54 -37
55 -37
56 -34
57 -37
58 -36
59 -36
60 -38
61 -35
62 -35
63 -31
64 -36
65 -33
66 -37
67 -37
68 -34
69 -36
70 -35
71 -36
72 -35
73 -35
74 -35
75 -37
76 -35
77 -36
78 -34
79 -36
80 -36
81 -35
82 -36
83 -35
84 -34
85 -38
86 -34
87 -34
88 -36
89 -35
90 -36
91 -33
92 -34
93 -35
94 -34
95 -35
96 -34
97 -37
98 -36
99 -35