0 -44
1 -45
2 -44
3 -45
4 -46
5 -44
6 -44
7 -44
8 -44
9 -45
10 -44
11 -45
12 -44
13 -44
14 -45
15 -44
16 -45
17 -45
18 -44
19 -45
20 -45
21 -45
22 -44
23 -43
24 -45
25 -44
26 -46
27 -44
28 -46
29 -45
30 -44
31 -44
32 -44
33 -44
34 -45
35 -45
36 -45
37 -44
38 -44
39 -45
40 -43
41 -45
42 -45
43 -44
44 -45
45 -44
46 -44
47 -45
48 -44
49 -44
50 -44
51 -44
52 -44
53 -46
54 -44
55 -44
56 -44
57 -45
58 -45
59 -44
60 -45
61 -45
62 -45
63 -45
64 -45
65 -45
66 -44
67 -44
68 -44
69 -44
70 -45
71 -44
72 -45
73 -44
74 -44
75 -44
76 -44
77 -44
78 -44
79 -45
80 -45
81 -44
82 -44
83 -43
84 -44
85 -45
86 -45
87 -43
88 -45
89 -45
90 -44
91 -45
92 -44
93 -45
94 -45
95 -45
96 -45
97 -44
98 -45
99 -44