0 -34
1 -38
2 -36
3 -37
4 -37
5 -35
6 -36
7 -37
8 -39
9 -37
10 -37
11 -41
12 -47
13 -48
14 -47
15 -46
16 -47
17 -45
18 -45
19 -45
20 -45
21 -47
22 -43
23 -42
24 -43
25 -44
26 -45
27 -44
28 -43
29 -40
30 -36
31 -35
32 -35
33 -36
34 -36
35 -37
36 -39
37 -44
38 -45
39 -46
40 -45
41 -44
42 -44
43 -44
44 -44
45 -42
46 -43
47 -43
48 -47
49 -43
50 -64
51 -39
52 -39
53 -44
54 -45
55 -44
56 -44
57 -42
58 -41
59 -43
60 -41
61 -43
62 -41
63 -45
64 -43
65 -41
66 -36
67 -34
68 -35
69 -35
70 -35
71 -34
72 -38
73 -42
74 -43
75 -42
76 -41
77 -38
78 -35
79 -36
80 -36
81 -35
82 -34
83 -35
84 -34
85 -34
86 -37
87 -33
88 -37
89 -36
90 -35
91 -34
92 -35
93 -36
94 -37
95 -35
96 -37
97 -34
98 -38
99 -36