0 -44
1 -45
2 -42
3 -43
4 -44
5 -44
6 -42
7 -44
8 -45
9 -44
10 -45
11 -45
12 -44
13 -44
14 -44
15 -44
16 -46
17 -46
18 -46
19 -46
20 -46
21 -46
22 -45
23 -45
24 -45
25 -44
26 -44
27 -44
28 -44
29 -45
30 -46
31 -46
32 -46
33 -45
34 -44
35 -45
36 -45
37 -45
38 -45
39 -45
40 -46
41 -47
42 -46
43 -46
44 -46
45 -46
46 -46
47 -46
48 -64
49 -47
50 -46
51 -47
52 -46
53 -47
54 -46
55 -45
56 -46
57 -46
58 -46
59 -46
60 -46
61 -47
62 -46
63 -47
64 -47
65 -46
66 -46
67 -44
68 -44
69 -43
70 -43
71 -43
72 -45
73 -44
74 -44
75 -44
76 -43
77 -44
78 -44
79 -44
80 -44
81 -44
82 -44
83 -43
84 -43
85 -44
86 -44
87 -45
88 -45
89 -44
90 -45
91 -44
92 -44
93 -44
94 -44
95 -44
96 -44
97 -44
98 -44
99 -43