0 -59
1 -59
2 -59
3 -60
4 -60
5 -58
6 -59
7 -59
8 -59
9 -59
10 -59
11 -59
12 -59
13 -59
14 -61
15 -60
16 -60
17 -60
18 -60
19 -61
20 -60
21 -60
22 -61
23 -61
24 -60
25 -60
26 -59
27 -58
28 -59
29 -58
30 -59
31 -58
32 -59
33 -60
34 -61
35 -60
36 -58
37 -60
38 -60
39 -59
40 -59
41 -60
42 -58
43 -60
44 -59
45 -59
46 -59
47 -60
48 -60
49 -60
50 -60
51 -59
52 -62
53 -59
54 -61
55 -61
56 -60
57 -60
58 -61
59 -59
60 -59
61 -60
62 -60
63 -59
64 -60
65 -61
66 -61
67 -59
68 -60
69 -60
70 -59
71 -60
72 -59
73 -59
74 -58
75 -59
76 -59
77 -59
78 -58
79 -59
80 -59
81 -58
82 -59
83 -58
84 -58
85 -60
86 -60
87 -60
88 -60
89 -60
90 -60
91 -59
92 -59
93 -60
94 -60
95 -59
96 -60
97 -60
98 -61
99 -60