0 -52
1 -53
2 -51
3 -52
4 -52
5 -51
6 -52
7 -51
8 -53
9 -52
10 -51
11 -52
12 -51
13 -51
14 -50
15 -51
16 -52
17 -51
18 -51
19 -51
20 -53
21 -52
22 -50
23 -54
24 -54
25 -54
26 -54
27 -51
28 -51
29 -53
30 -49
31 -52
32 -51
33 -51
34 -52
35 -52
36 -51
37 -52
38 -52
39 -52
40 -52
41 -52
42 -52
43 -52
44 -52
45 -52
46 -51
47 -52
48 -52
49 -52
50 -51
51 -52
52 -52
53 -52
54 -52
55 -52
56 -52
57 -52
58 -51
59 -52
60 -52
61 -52
62 -52
63 -52
64 -52
65 -51
66 -52
67 -52
68 -52
69 -52
70 -52
71 -55
72 -55
73 -55
74 -55
75 -52
76 -52
77 -51
78 -52
79 -51
80 -52
81 -52
82 -51
83 -52
84 -51
85 -49
86 -50
87 -51
88 -50
89 -50
90 -49
91 -50
92 -50
93 -51
94 -50
95 -50
96 -50
97 -50
98 -49
99 -50