0 -42
1 -43
2 -41
3 -42
4 -41
5 -41
6 -42
7 -42
8 -41
9 -40
10 -42
11 -41
12 -42
13 -41
14 -41
15 -41
16 -41
17 -43
18 -42
19 -42
20 -41
21 -41
22 -41
23 -41
24 -41
25 -41
26 -42
27 -41
28 -42
29 -42
30 -42
31 -42
32 -42
33 -41
34 -41
35 -41
36 -41
37 -43
38 -42
39 -41
40 -41
41 -42
42 -41
43 -39
44 -43
45 -42
46 -41
47 -42
48 -41
49 -42
50 -42
51 -42
52 -42
53 -41
54 -41
55 -43
56 -41
57 -42
58 -41
59 -42
60 -41
61 -42
62 -42
63 -41
64 -42
65 -42
66 -43
67 -41
68 -42
69 -41
70 -42
71 -41
72 -41
73 -42
74 -41
75 -41
76 -42
77 -41
78 -42
79 -41
80 -42
81 -42
82 -41
83 -41
84 -41
85 -41
86 -41
87 -41
88 -41
89 -42
90 -41
91 -41
92 -41
93 -42
94 -42
95 -41
96 -42
97 -42
98 -41
99 -41