0 -44
1 -43
2 -44
3 -45
4 -45
5 -45
6 -45
7 -44
8 -44
9 -43
10 -44
11 -44
12 -43
13 -43
14 -44
15 -43
16 -43
17 -43
18 -41
19 -44
20 -43
21 -43
22 -43
23 -44
24 -44
25 -45
26 -43
27 -44
28 -43
29 -43
30 -43
31 -43
32 -44
33 -43
34 -43
35 -43
36 -44
37 -43
38 -43
39 -44
40 -43
41 -43
42 -43
43 -43
44 -43
45 -44
46 -44
47 -44
48 -46
49 -43
50 -43
51 -55
52 -55
53 -55
54 -55
55 -43
56 -43
57 -43
58 -43
59 -43
60 -43
61 -43
62 -43
63 -44
64 -45
65 -43
66 -43
67 -44
68 -43
69 -44
70 -44
71 -43
72 -41
73 -43
74 -43
75 -43
76 -44
77 -43
78 -43
79 -44
80 -44
81 -43
82 -43
83 -44
84 -45
85 -44
86 -43
87 -45
88 -43
89 -43
90 -44
91 -43
92 -43
93 -44
94 -43
95 -43
96 -44
97 -44
98 -43
99 -43