0 -49
1 -49
2 -49
3 -48
4 -48
5 -47
6 -48
7 -47
8 -46
9 -47
10 -47
11 -47
12 -55
13 -47
14 -48
15 -47
16 -47
17 -47
18 -48
19 -46
20 -46
21 -47
22 -47
23 -47
24 -48
25 -48
26 -46
27 -47
28 -47
29 -48
30 -47
31 -48
32 -45
33 -47
34 -47
35 -46
36 -47
37 -48
38 -48
39 -48
40 -48
41 -48
42 -48
43 -47
44 -47
45 -49
46 -47
47 -47
48 -48
49 -48
50 -48
51 -47
52 -47
53 -48
54 -48
55 -48
56 -48
57 -48
58 -47
59 -48
60 -48
61 -47
62 -48
63 -48
64 -48
65 -48
66 -48
67 -47
68 -48
69 -48
70 -48
71 -48
72 -47
73 -48
74 -47
75 -48
76 -48
77 -48
78 -53
79 -42
80 -48
81 -48
82 -48
83 -48
84 -47
85 -46
86 -48
87 -48
88 -45
89 -49
90 -49
91 -49
92 -49
93 -48
94 -46
95 -47
96 -47
97 -48
98 -48
99 -47