0 -42
1 -43
2 -44
3 -44
4 -42
5 -43
6 -44
7 -44
8 -44
9 -44
10 -44
11 -45
12 -45
13 -44
14 -44
15 -43
16 -45
17 -45
18 -44
19 -44
20 -43
21 -43
22 -44
23 -44
24 -43
25 -43
26 -43
27 -43
28 -44
29 -44
30 -44
31 -45
32 -45
33 -45
34 -44
35 -46
36 -44
37 -43
38 -43
39 -43
40 -43
41 -44
42 -42
43 -43
44 -42
45 -43
46 -45
47 -44
48 -44
49 -44
50 -43
51 -44
52 -42
53 -42
54 -42
55 -43
56 -42
57 -43
58 -44
59 -42
60 -44
61 -44
62 -45
63 -44
64 -44
65 -44
66 -45
67 -44
68 -44
69 -44
70 -45
71 -45
72 -45
73 -44
74 -45
75 -43
76 -44
77 -45
78 -45
79 -44
80 -44
81 -44
82 -45
83 -44
84 -44
85 -44
86 -43
87 -44
88 -46
89 -45
90 -45
91 -45
92 -44
93 -44
94 -43
95 -43
96 -44
97 -44
98 -43
99 -43