0 -48
1 -47
2 -48
3 -47
4 -48
5 -48
6 -48
7 -48
8 -48
9 -48
10 -49
11 -48
12 -47
13 -45
14 -48
15 -48
16 -48
17 -48
18 -49
19 -48
20 -50
21 -49
22 -48
23 -48
24 -48
25 -49
26 -48
27 -48
28 -48
29 -47
30 -47
31 -48
32 -47
33 -48
34 -48
35 -47
36 -49
37 -48
38 -47
39 -50
40 -47
41 -48
42 -49
43 -48
44 -48
45 -47
46 -48
47 -50
48 -49
49 -48
50 -48
51 -48
52 -48
53 -48
54 -48
55 -48
56 -49
57 -49
58 -48
59 -48
60 -48
61 -49
62 -46
63 -48
64 -48
65 -48
66 -48
67 -48
68 -49
69 -48
70 -48
71 -49
72 -49
73 -48
74 -45
75 -48
76 -48
77 -47
78 -48
79 -49
80 -49
81 -47
82 -49
83 -48
84 -48
85 -49
86 -49
87 -48
88 -48
89 -48
90 -48
91 -47
92 -47
93 -47
94 -48
95 -48
96 -49
97 -49
98 -48
99 -49