0 -48
1 -48
2 -48
3 -47
4 -47
5 -48
6 -48
7 -47
8 -47
9 -47
10 -47
11 -49
12 -48
13 -48
14 -48
15 -48
16 -48
17 -48
18 -48
19 -48
20 -47
21 -48
22 -49
23 -46
24 -48
25 -43
26 -48
27 -47
28 -48
29 -47
30 -48
31 -47
32 -43
33 -49
34 -44
35 -48
36 -48
37 -49
38 -44
39 -48
40 -48
41 -48
42 -47
43 -48
44 -49
45 -48
46 -48
47 -49
48 -49
49 -49
50 -48
51 -47
52 -49
53 -49
54 -48
55 -48
56 -48
57 -49
58 -48
59 -48
60 -49
61 -48
62 -48
63 -47
64 -47
65 -48
66 -50
67 -48
68 -47
69 -47
70 -49
71 -48
72 -49
73 -48
74 -49
75 -48
76 -48
77 -49
78 -48
79 -47
80 -48
81 -49
82 -47
83 -48
84 -48
85 -47
86 -46
87 -48
88 -47
89 -48
90 -49
91 -49
92 -51
93 -48
94 -48
95 -47
96 -48
97 -50
98 -47
99 -49