0 -48
1 -48
2 -48
3 -47
4 -48
5 -48
6 -48
7 -48
8 -48
9 -48
10 -47
11 -48
12 -47
13 -48
14 -49
15 -47
16 -48
17 -47
18 -48
19 -48
20 -47
21 -47
22 -48
23 -49
24 -48
25 -48
26 -48
27 -48
28 -48
29 -48
30 -48
31 -49
32 -49
33 -48
34 -48
35 -50
36 -50
37 -50
38 -50
39 -50
40 -49
41 -48
42 -48
43 -48
44 -49
45 -48
46 -48
47 -48
48 -49
49 -48
50 -48
51 -47
52 -48
53 -49
54 -48
55 -48
56 -49
57 -47
58 -48
59 -48
60 -48
61 -49
62 -47
63 -48
64 -47
65 -49
66 -48
67 -48
68 -47
69 -50
70 -48
71 -48
72 -48
73 -48
74 -49
75 -48
76 -48
77 -48
78 -48
79 -48
80 -48
81 -49
82 -48
83 -49
84 -48
85 -47
86 -48
87 -48
88 -49
89 -49
90 -48
91 -49
92 -48
93 -48
94 -47
95 -48
96 -48
97 -49
98 -48
99 -49