0 -54
1 -54
2 -53
3 -52
4 -53
5 -52
6 -52
7 -53
8 -52
9 -53
10 -51
11 -53
12 -52
13 -53
14 -52
15 -53
16 -53
17 -52
18 -53
19 -53
20 -53
21 -53
22 -52
23 -52
24 -52
25 -53
26 -53
27 -51
28 -53
29 -52
30 -52
31 -53
32 -53
33 -53
34 -53
35 -52
36 -52
37 -53
38 -52
39 -53
40 -53
41 -52
42 -52
43 -53
44 -53
45 -53
46 -53
47 -53
48 -51
49 -50
50 -53
51 -52
52 -52
53 -52
54 -51
55 -52
56 -52
57 -52
58 -51
59 -52
60 -53
61 -53
62 -52
63 -53
64 -52
65 -53
66 -52
67 -52
68 -52
69 -52
70 -53
71 -54
72 -53
73 -52
74 -53
75 -52
76 -53
77 -54
78 -53
79 -52
80 -52
81 -52
82 -52
83 -52
84 -52
85 -53
86 -52
87 -52
88 -53
89 -52
90 -53
91 -53
92 -52
93 -52
94 -53
95 -53
96 -53
97 -53
98 -53
99 -53