0 -41
1 -40
2 -39
3 -40
4 -40
5 -39
6 -42
7 -42
8 -42
9 -42
10 -39
11 -40
12 -40
13 -39
14 -39
15 -39
16 -41
17 -40
18 -40
19 -40
20 -39
21 -40
22 -39
23 -40
24 -39
25 -40
26 -40
27 -41
28 -40
29 -39
30 -40
31 -40
32 -40
33 -40
34 -39
35 -40
36 -41
37 -41
38 -41
39 -40
40 -41
41 -39
42 -40
43 -40
44 -40
45 -40
46 -41
47 -40
48 -39
49 -40
50 -40
51 -39
52 -40
53 -40
54 -41
55 -40
56 -40
57 -40
58 -40
59 -40
60 -40
61 -40
62 -40
63 -41
64 -40
65 -40
66 -40
67 -39
68 -39
69 -40
70 -40
71 -40
72 -41
73 -40
74 -40
75 -40
76 -40
77 -41
78 -39
79 -40
80 -40
81 -40
82 -40
83 -40
84 -41
85 -41
86 -42
87 -40
88 -40
89 -40
90 -41
91 -40
92 -40
93 -40
94 -40
95 -40
96 -40
97 -41
98 -39
99 -39