0 -54
1 -55
2 -56
3 -55
4 -56
5 -53
6 -54
7 -56
8 -54
9 -56
10 -55
11 -53
12 -54
13 -55
14 -54
15 -54
16 -55
17 -53
18 -55
19 -55
20 -55
21 -53
22 -54
23 -57
24 -55
25 -54
26 -55
27 -55
28 -54
29 -56
30 -56
31 -54
32 -54
33 -55
34 -57
35 -55
36 -57
37 -54
38 -55
39 -53
40 -55
41 -54
42 -55
43 -54
44 -54
45 -54
46 -58
47 -58
48 -58
49 -58
50 -58
51 -58
52 -54
53 -56
54 -58
55 -57
56 -58
57 -56
58 -56
59 -55
60 -54
61 -55
62 -57
63 -54
64 -54
65 -54
66 -53
67 -58
68 -55
69 -54
70 -55
71 -57
72 -55
73 -56
74 -55
75 -53
76 -56
77 -55
78 -54
79 -56
80 -55
81 -58
82 -57
83 -54
84 -57
85 -56
86 -56
87 -57
88 -57
89 -55
90 -56
91 -57
92 -54
93 -52
94 -54
95 -54
96 -57
97 -54
98 -55
99 -54