0 -53
1 -53
2 -53
3 -54
4 -54
5 -54
6 -55
7 -56
8 -55
9 -54
10 -53
11 -55
12 -54
13 -54
14 -55
15 -55
16 -55
17 -55
18 -55
19 -56
20 -55
21 -55
22 -55
23 -56
24 -55
25 -55
26 -57
27 -55
28 -55
29 -55
30 -57
31 -58
32 -56
33 -55
34 -57
35 -57
36 -56
37 -55
38 -57
39 -57
40 -56
41 -56
42 -56
43 -55
44 -57
45 -55
46 -58
47 -57
48 -55
49 -55
50 -52
51 -56
52 -55
53 -57
54 -58
55 -54
56 -53
57 -54
58 -58
59 -54
60 -57
61 -57
62 -55
63 -54
64 -54
65 -55
66 -54
67 -53
68 -53
69 -55
70 -54
71 -54
72 -57
73 -56
74 -54
75 -53
76 -53
77 -54
78 -55
79 -56
80 -55
81 -56
82 -59
83 -56
84 -58
85 -58
86 -59
87 -56
88 -59
89 -56
90 -56
91 -62
92 -62
93 -62
94 -62
95 -62
96 -53
97 -57
98 -52
99 -52