0 -53
1 -53
2 -52
3 -52
4 -53
5 -52
6 -53
7 -52
8 -54
9 -53
10 -53
11 -53
12 -53
13 -53
14 -53
15 -53
16 -54
17 -54
18 -54
19 -52
20 -53
21 -53
22 -52
23 -53
24 -53
25 -54
26 -53
27 -52
28 -53
29 -52
30 -53
31 -53
32 -54
33 -53
34 -53
35 -52
36 -53
37 -52
38 -52
39 -53
40 -50
41 -53
42 -52
43 -52
44 -52
45 -53
46 -53
47 -53
48 -53
49 -52
50 -54
51 -53
52 -52
53 -52
54 -53
55 -52
56 -53
57 -52
58 -53
59 -53
60 -54
61 -53
62 -52
63 -52
64 -52
65 -52
66 -52
67 -52
68 -53
69 -51
70 -50
71 -51
72 -52
73 -50
74 -52
75 -52
76 -51
77 -52
78 -51
79 -52
80 -52
81 -53
82 -52
83 -51
84 -52
85 -50
86 -51
87 -51
88 -52
89 -51
90 -51
91 -51
92 -52
93 -51
94 -51
95 -51
96 -53
97 -51
98 -52
99 -51