0 -47
1 -46
2 -47
3 -46
4 -46
5 -46
6 -46
7 -46
8 -47
9 -46
10 -45
11 -47
12 -46
13 -47
14 -46
15 -47
16 -47
17 -46
18 -47
19 -47
20 -46
21 -46
22 -46
23 -45
24 -46
25 -46
26 -47
27 -46
28 -47
29 -46
30 -46
31 -45
32 -45
33 -44
34 -46
35 -46
36 -46
37 -46
38 -46
39 -45
40 -46
41 -46
42 -46
43 -45
44 -46
45 -45
46 -46
47 -45
48 -46
49 -45
50 -46
51 -46
52 -46
53 -47
54 -45
55 -45
56 -47
57 -47
58 -47
59 -47
60 -45
61 -45
62 -45
63 -44
64 -45
65 -45
66 -44
67 -46
68 -45
69 -44
70 -44
71 -44
72 -45
73 -45
74 -45
75 -44
76 -45
77 -45
78 -44
79 -45
80 -45
81 -46
82 -47
83 -45
84 -45
85 -45
86 -46
87 -46
88 -46
89 -46
90 -47
91 -46
92 -47
93 -46
94 -47
95 -46
96 -46
97 -46
98 -45
99 -46