0 -42
1 -41
2 -40
3 -41
4 -42
5 -42
6 -40
7 -38
8 -39
9 -40
10 -44
11 -52
12 -50
13 -47
14 -45
15 -44
16 -45
17 -45
18 -45
19 -44
20 -45
21 -45
22 -46
23 -45
24 -47
25 -47
26 -47
27 -44
28 -42
29 -40
30 -39
31 -38
32 -40
33 -38
34 -38
35 -39
36 -40
37 -42
38 -44
39 -45
40 -44
41 -46
42 -47
43 -47
44 -46
45 -45
46 -46
47 -48
48 -45
49 -41
50 -41
51 -40
52 -42
53 -44
54 -47
55 -46
56 -45
57 -45
58 -45
59 -46
60 -47
61 -46
62 -45
63 -44
64 -44
65 -45
66 -46
67 -47
68 -44
69 -41
70 -42
71 -45
72 -48
73 -47
74 -46
75 -48
76 -49
77 -49
78 -42
79 -39
80 -39
81 -40
82 -41
83 -39
84 -40
85 -40
86 -39
87 -42
88 -42
89 -40
90 -40
91 -40
92 -40
93 -39
94 -40
95 -43
96 -40
97 -40
98 -40
99 -39