0 -46
1 -46
2 -48
3 -46
4 -46
5 -47
6 -47
7 -47
8 -47
9 -46
10 -47
11 -46
12 -47
13 -48
14 -47
15 -47
16 -46
17 -47
18 -46
19 -46
20 -46
21 -47
22 -48
23 -48
24 -48
25 -47
26 -47
27 -46
28 -48
29 -55
30 -47
31 -48
32 -47
33 -47
34 -47
35 -47
36 -48
37 -48
38 -47
39 -47
40 -46
41 -48
42 -47
43 -47
44 -47
45 -48
46 -48
47 -47
48 -47
49 -47
50 -48
51 -48
52 -47
53 -47
54 -46
55 -46
56 -48
57 -47
58 -47
59 -47
60 -47
61 -47
62 -46
63 -47
64 -47
65 -47
66 -46
67 -47
68 -47
69 -47
70 -47
71 -46
72 -46
73 -46
74 -46
75 -46
76 -46
77 -46
78 -47
79 -47
80 -46
81 -47
82 -47
83 -48
84 -47
85 -48
86 -47
87 -46
88 -46
89 -46
90 -47
91 -48
92 -46
93 -47
94 -46
95 -47
96 -46
97 -46
98 -47
99 -46