0 -58
1 -57
2 -57
3 -58
4 -57
5 -57
6 -56
7 -55
8 -56
9 -58
10 -58
11 -58
12 -59
13 -57
14 -58
15 -58
16 -58
17 -58
18 -58
19 -57
20 -57
21 -57
22 -58
23 -58
24 -57
25 -57
26 -58
27 -58
28 -58
29 -58
30 -57
31 -57
32 -57
33 -57
34 -57
35 -58
36 -59
37 -59
38 -58
39 -59
40 -58
41 -59
42 -59
43 -57
44 -57
45 -56
46 -59
47 -59
48 -57
49 -59
50 -59
51 -58
52 -58
53 -59
54 -58
55 -57
56 -56
57 -57
58 -58
59 -58
60 -59
61 -58
62 -58
63 -58
64 -59
65 -60
66 -56
67 -59
68 -57
69 -58
70 -58
71 -58
72 -57
73 -58
74 -58
75 -59
76 -56
77 -60
78 -58
79 -57
80 -58
81 -58
82 -57
83 -59
84 -56
85 -58
86 -57
87 -57
88 -57
89 -57
90 -56
91 -60
92 -58
93 -58
94 -57
95 -57
96 -57
97 -56
98 -59
99 -60