0 -55
1 -57
2 -55
3 -56
4 -54
5 -54
6 -55
7 -56
8 -57
9 -57
10 -57
11 -62
12 -63
13 -64
14 -62
15 -62
16 -62
17 -62
18 -62
19 -61
20 -61
21 -60
22 -59
23 -60
24 -60
25 -61
26 -60
27 -61
28 -61
29 -60
30 -58
31 -58
32 -59
33 -59
34 -57
35 -60
36 -60
37 -63
38 -63
39 -63
40 -62
41 -61
42 -68
43 -60
44 -59
45 -60
46 -61
47 -60
48 -60
49 -62
50 -59
51 -60
52 -61
53 -63
54 -60
55 -59
56 -60
57 -61
58 -59
59 -59
60 -59
61 -60
62 -60
63 -60
64 -59
65 -61
66 -61
67 -58
68 -54
69 -56
70 -54
71 -57
72 -60
73 -60
74 -61
75 -62
76 -61
77 -59
78 -56
79 -56
80 -57
81 -56
82 -56
83 -55
84 -56
85 -54
86 -56
87 -56
88 -56
89 -55
90 -56
91 -55
92 -57
93 -57
94 -55
95 -54
96 -56
97 -57
98 -55
99 -57