0 -56
1 -57
2 -56
3 -56
4 -58
5 -56
6 -56
7 -55
8 -58
9 -57
10 -58
11 -57
12 -58
13 -57
14 -57
15 -56
16 -57
17 -57
18 -57
19 -58
20 -58
21 -59
22 -57
23 -57
24 -59
25 -57
26 -57
27 -56
28 -55
29 -58
30 -56
31 -58
32 -57
33 -59
34 -59
35 -58
36 -58
37 -57
38 -57
39 -59
40 -57
41 -58
42 -56
43 -57
44 -57
45 -57
46 -58
47 -57
48 -58
49 -57
50 -57
51 -58
52 -58
53 -57
54 -57
55 -56
56 -57
57 -56
58 -56
59 -57
60 -55
61 -55
62 -58
63 -57
64 -54
65 -57
66 -57
67 -53
68 -57
69 -58
70 -59
71 -60
72 -54
73 -56
74 -57
75 -57
76 -53
77 -55
78 -58
79 -55
80 -60
81 -58
82 -58
83 -57
84 -53
85 -54
86 -57
87 -58
88 -54
89 -53
90 -55
91 -54
92 -56
93 -55
94 -56
95 -56
96 -55
97 -56
98 -57
99 -55