0 -56
1 -58
2 -58
3 -56
4 -57
5 -58
6 -58
7 -58
8 -56
9 -56
10 -58
11 -57
12 -58
13 -57
14 -57
15 -56
16 -57
17 -57
18 -58
19 -57
20 -56
21 -57
22 -59
23 -58
24 -58
25 -57
26 -57
27 -57
28 -57
29 -56
30 -57
31 -56
32 -57
33 -57
34 -56
35 -55
36 -57
37 -55
38 -58
39 -56
40 -56
41 -55
42 -57
43 -58
44 -57
45 -57
46 -57
47 -56
48 -57
49 -56
50 -58
51 -57
52 -58
53 -57
54 -57
55 -58
56 -58
57 -57
58 -58
59 -57
60 -58
61 -57
62 -57
63 -57
64 -57
65 -58
66 -57
67 -57
68 -57
69 -58
70 -57
71 -57
72 -57
73 -57
74 -57
75 -57
76 -57
77 -58
78 -57
79 -57
80 -58
81 -57
82 -56
83 -58
84 -58
85 -57
86 -58
87 -56
88 -58
89 -58
90 -57
91 -58
92 -57
93 -56
94 -56
95 -56
96 -56
97 -57
98 -56
99 -57