0 -55
1 -55
2 -55
3 -55
4 -55
5 -55
6 -56
7 -57
8 -56
9 -56
10 -58
11 -63
12 -55
13 -56
14 -55
15 -57
16 -57
17 -58
18 -55
19 -56
20 -57
21 -58
22 -57
23 -57
24 -58
25 -57
26 -56
27 -56
28 -57
29 -57
30 -57
31 -58
32 -58
33 -57
34 -57
35 -56
36 -58
37 -57
38 -58
39 -57
40 -57
41 -56
42 -57
43 -57
44 -55
45 -56
46 -58
47 -56
48 -59
49 -56
50 -56
51 -57
52 -59
53 -59
54 -59
55 -61
56 -59
57 -60
58 -60
59 -59
60 -58
61 -59
62 -58
63 -58
64 -56
65 -56
66 -62
67 -56
68 -65
69 -56
70 -57
71 -57
72 -56
73 -58
74 -57
75 -56
76 -57
77 -56
78 -58
79 -57
80 -57
81 -57
82 -58
83 -56
84 -57
85 -58
86 -56
87 -56
88 -58
89 -57
90 -57
91 -58
92 -58
93 -58
94 -58
95 -56
96 -57
97 -56
98 -56
99 -56