0 -58
1 -58
2 -58
3 -57
4 -57
5 -57
6 -66
7 -59
8 -58
9 -59
10 -57
11 -57
12 -59
13 -58
14 -57
15 -57
16 -57
17 -57
18 -58
19 -58
20 -55
21 -58
22 -58
23 -61
24 -57
25 -58
26 -54
27 -58
28 -57
29 -57
30 -57
31 -57
32 -58
33 -57
34 -58
35 -58
36 -56
37 -57
38 -58
39 -60
40 -59
41 -57
42 -58
43 -58
44 -59
45 -57
46 -58
47 -60
48 -59
49 -60
50 -58
51 -57
52 -58
53 -56
54 -60
55 -57
56 -59
57 -57
58 -57
59 -57
60 -59
61 -58
62 -59
63 -59
64 -58
65 -55
66 -58
67 -58
68 -57
69 -59
70 -59
71 -58
72 -60
73 -59
74 -59
75 -58
76 -57
77 -57
78 -59
79 -59
80 -57
81 -56
82 -56
83 -56
84 -56
85 -58
86 -58
87 -57
88 -57
89 -57
90 -58
91 -58
92 -56
93 -55
94 -57
95 -56
96 -58
97 -58
98 -58
99 -59