0 -47
1 -48
2 -48
3 -48
4 -48
5 -48
6 -47
7 -47
8 -48
9 -46
10 -47
11 -48
12 -47
13 -48
14 -48
15 -48
16 -48
17 -47
18 -47
19 -47
20 -47
21 -47
22 -47
23 -47
24 -47
25 -47
26 -47
27 -48
28 -47
29 -47
30 -48
31 -48
32 -48
33 -48
34 -47
35 -48
36 -48
37 -47
38 -47
39 -47
40 -47
41 -47
42 -47
43 -48
44 -48
45 -48
46 -48
47 -48
48 -48
49 -47
50 -47
51 -47
52 -48
53 -47
54 -48
55 -47
56 -47
57 -48
58 -48
59 -47
60 -48
61 -47
62 -48
63 -48
64 -48
65 -47
66 -47
67 -48
68 -48
69 -47
70 -47
71 -48
72 -47
73 -47
74 -47
75 -48
76 -47
77 -46
78 -47
79 -47
80 -47
81 -47
82 -47
83 -47
84 -47
85 -47
86 -47
87 -47
88 -48
89 -47
90 -47
91 -48
92 -47
93 -47
94 -48
95 -47
96 -47
97 -48
98 -47
99 -46