0 -58
1 -58
2 -58
3 -61
4 -61
5 -60
6 -60
7 -62
8 -64
9 -61
10 -59
11 -60
12 -58
13 -60
14 -59
15 -58
16 -61
17 -60
18 -61
19 -60
20 -58
21 -58
22 -60
23 -57
24 -58
25 -58
26 -57
27 -59
28 -59
29 -58
30 -58
31 -60
32 -58
33 -59
34 -58
35 -59
36 -59
37 -60
38 -60
39 -59
40 -59
41 -61
42 -60
43 -60
44 -59
45 -58
46 -61
47 -60
48 -61
49 -57
50 -60
51 -59
52 -59
53 -58
54 -59
55 -60
56 -60
57 -60
58 -59
59 -61
60 -61
61 -62
62 -63
63 -61
64 -61
65 -61
66 -60
67 -61
68 -65
69 -59
70 -59
71 -59
72 -60
73 -60
74 -60
75 -60
76 -60
77 -60
78 -62
79 -61
80 -61
81 -60
82 -61
83 -59
84 -58
85 -58
86 -58
87 -60
88 -61
89 -60
90 -59
91 -60
92 -61
93 -60
94 -59
95 -60
96 -59
97 -59
98 -60
99 -61