0 -62
1 -62
2 -63
3 -62
4 -62
5 -60
6 -60
7 -60
8 -60
9 -61
10 -65
11 -61
12 -61
13 -62
14 -61
15 -63
16 -64
17 -60
18 -59
19 -60
20 -61
21 -61
22 -59
23 -59
24 -61
25 -58
26 -59
27 -59
28 -60
29 -59
30 -59
31 -60
32 -58
33 -61
34 -59
35 -60
36 -59
37 -59
38 -57
39 -57
40 -56
41 -54
42 -55
43 -58
44 -57
45 -58
46 -59
47 -60
48 -59
49 -59
50 -57
51 -57
52 -58
53 -58
54 -57
55 -57
56 -59
57 -60
58 -57
59 -59
60 -58
61 -58
62 -58
63 -58
64 -58
65 -60
66 -57
67 -57
68 -57
69 -59
70 -61
71 -57
72 -57
73 -56
74 -58
75 -58
76 -57
77 -60
78 -58
79 -57
80 -57
81 -59
82 -59
83 -57
84 -58
85 -57
86 -58
87 -57
88 -58
89 -57
90 -59
91 -59
92 -56
93 -57
94 -60
95 -58
96 -57
97 -59
98 -60
99 -57