0 -57
1 -60
2 -58
3 -59
4 -59
5 -58
6 -59
7 -59
8 -59
9 -62
10 -59
11 -60
12 -58
13 -59
14 -57
15 -59
16 -59
17 -59
18 -60
19 -60
20 -61
21 -59
22 -59
23 -59
24 -60
25 -59
26 -58
27 -58
28 -58
29 -58
30 -58
31 -57
32 -56
33 -58
34 -57
35 -58
36 -58
37 -57
38 -59
39 -56
40 -57
41 -57
42 -57
43 -57
44 -57
45 -56
46 -58
47 -58
48 -55
49 -59
50 -56
51 -58
52 -57
53 -56
54 -57
55 -57
56 -57
57 -57
58 -58
59 -57
60 -57
61 -58
62 -56
63 -58
64 -58
65 -57
66 -56
67 -56
68 -58
69 -59
70 -56
71 -59
72 -56
73 -58
74 -57
75 -56
76 -58
77 -56
78 -55
79 -55
80 -56
81 -58
82 -57
83 -57
84 -58
85 -57
86 -56
87 -56
88 -57
89 -56
90 -58
91 -55
92 -57
93 -56
94 -57
95 -57
96 -57
97 -56
98 -57
99 -56