0 -39
1 -40
2 -38
3 -40
4 -38
5 -36
6 -39
7 -38
8 -36
9 -37
10 -39
11 -38
12 -37
13 -39
14 -38
15 -36
16 -37
17 -39
18 -39
19 -38
20 -38
21 -38
22 -38
23 -38
24 -38
25 -38
26 -37
27 -38
28 -38
29 -38
30 -36
31 -37
32 -38
33 -37
34 -39
35 -38
36 -36
37 -38
38 -36
39 -38
40 -37
41 -38
42 -40
43 -38
44 -37
45 -37
46 -37
47 -37
48 -38
49 -36
50 -37
51 -38
52 -38
53 -37
54 -38
55 -39
56 -38
57 -39
58 -38
59 -37
60 -38
61 -40
62 -38
63 -38
64 -39
65 -38
66 -38
67 -38
68 -37
69 -38
70 -38
71 -39
72 -38
73 -39
74 -37
75 -39
76 -39
77 -37
78 -38
79 -39
80 -38
81 -38
82 -38
83 -36
84 -41
85 -40
86 -38
87 -37
88 -40
89 -40
90 -37
91 -37
92 -37
93 -39
94 -37
95 -38
96 -36
97 -39
98 -39
99 -39