0 -37
1 -39
2 -37
3 -36
4 -38
5 -38
6 -36
7 -39
8 -38
9 -37
10 -38
11 -38
12 -40
13 -37
14 -39
15 -39
16 -37
17 -39
18 -38
19 -38
20 -38
21 -37
22 -40
23 -40
24 -38
25 -37
26 -40
27 -39
28 -37
29 -37
30 -37
31 -37
32 -38
33 -38
34 -39
35 -37
36 -38
37 -38
38 -37
39 -39
40 -38
41 -38
42 -37
43 -38
44 -38
45 -37
46 -38
47 -36
48 -37
49 -37
50 -37
51 -38
52 -38
53 -39
54 -37
55 -38
56 -37
57 -38
58 -39
59 -39
60 -37
61 -38
62 -37
63 -38
64 -38
65 -39
66 -39
67 -39
68 -38
69 -38
70 -39
71 -39
72 -38
73 -39
74 -39
75 -39
76 -38
77 -38
78 -39
79 -38
80 -39
81 -39
82 -38
83 -38
84 -38
85 -38
86 -38
87 -38
88 -38
89 -37
90 -38
91 -38
92 -37
93 -38
94 -39
95 -38
96 -39
97 -37
98 -39
99 -38