0 -45
1 -45
2 -45
3 -44
4 -45
5 -44
6 -45
7 -44
8 -45
9 -45
10 -44
11 -44
12 -45
13 -44
14 -45
15 -46
16 -45
17 -45
18 -44
19 -44
20 -45
21 -43
22 -45
23 -45
24 -45
25 -46
26 -46
27 -47
28 -47
29 -46
30 -45
31 -46
32 -46
33 -46
34 -46
35 -47
36 -45
37 -45
38 -45
39 -45
40 -46
41 -45
42 -46
43 -45
44 -45
45 -45
46 -45
47 -46
48 -45
49 -46
50 -46
51 -46
52 -45
53 -46
54 -47
55 -47
56 -46
57 -44
58 -45
59 -45
60 -45
61 -45
62 -45
63 -45
64 -45
65 -46
66 -45
67 -46
68 -47
69 -43
70 -46
71 -45
72 -46
73 -46
74 -46
75 -47
76 -46
77 -47
78 -48
79 -46
80 -47
81 -48
82 -47
83 -48
84 -47
85 -47
86 -46
87 -46
88 -47
89 -47
90 -47
91 -47
92 -46
93 -46
94 -47
95 -46
96 -47
97 -47
98 -47
99 -46