0 -40
1 -37
2 -38
3 -39
4 -39
5 -37
6 -38
7 -38
8 -37
9 -38
10 -37
11 -39
12 -38
13 -38
14 -38
15 -39
16 -38
17 -39
18 -39
19 -37
20 -38
21 -39
22 -38
23 -39
24 -39
25 -38
26 -39
27 -39
28 -38
29 -37
30 -38
31 -39
32 -38
33 -38
34 -38
35 -38
36 -39
37 -39
38 -39
39 -39
40 -38
41 -38
42 -37
43 -37
44 -38
45 -37
46 -39
47 -37
48 -38
49 -39
50 -38
51 -38
52 -38
53 -38
54 -40
55 -39
56 -39
57 -40
58 -41
59 -40
60 -41
61 -39
62 -38
63 -38
64 -38
65 -37
66 -38
67 -37
68 -37
69 -37
70 -37
71 -39
72 -38
73 -38
74 -38
75 -38
76 -38
77 -37
78 -38
79 -39
80 -38
81 -65
82 -38
83 -37
84 -38
85 -37
86 -37
87 -37
88 -37
89 -39
90 -39
91 -38
92 -39
93 -37
94 -38
95 -39
96 -38
97 -38
98 -38
99 -39