0 -39
1 -38
2 -38
3 -37
4 -38
5 -38
6 -38
7 -37
8 -37
9 -38
10 -37
11 -37
12 -38
13 -39
14 -39
15 -38
16 -38
17 -37
18 -38
19 -37
20 -36
21 -37
22 -38
23 -38
24 -37
25 -37
26 -38
27 -39
28 -37
29 -38
30 -38
31 -38
32 -39
33 -38
34 -37
35 -37
36 -38
37 -38
38 -39
39 -39
40 -37
41 -38
42 -38
43 -37
44 -39
45 -38
46 -39
47 -38
48 -37
49 -37
50 -38
51 -37
52 -38
53 -38
54 -38
55 -38
56 -38
57 -38
58 -37
59 -39
60 -38
61 -38
62 -37
63 -37
64 -37
65 -36
66 -36
67 -38
68 -38
69 -37
70 -38
71 -39
72 -39
73 -37
74 -38
75 -37
76 -37
77 -37
78 -37
79 -39
80 -38
81 -39
82 -38
83 -38
84 -36
85 -39
86 -36
87 -37
88 -38
89 -36
90 -38
91 -36
92 -38
93 -36
94 -38
95 -37
96 -36
97 -37
98 -37
99 -38