0 -36
1 -38
2 -38
3 -39
4 -38
5 -38
6 -39
7 -37
8 -39
9 -38
10 -39
11 -39
12 -39
13 -38
14 -38
15 -38
16 -38
17 -39
18 -38
19 -38
20 -37
21 -38
22 -37
23 -36
24 -37
25 -38
26 -38
27 -39
28 -37
29 -37
30 -38
31 -39
32 -37
33 -38
34 -38
35 -38
36 -39
37 -39
38 -37
39 -38
40 -38
41 -37
42 -38
43 -39
44 -38
45 -39
46 -38
47 -37
48 -39
49 -39
50 -39
51 -39
52 -37
53 -39
54 -39
55 -38
56 -39
57 -38
58 -38
59 -38
60 -38
61 -38
62 -38
63 -37
64 -38
65 -37
66 -40
67 -39
68 -38
69 -38
70 -38
71 -37
72 -37
73 -38
74 -38
75 -39
76 -38
77 -38
78 -38
79 -38
80 -38
81 -37
82 -38
83 -38
84 -38
85 -39
86 -38
87 -38
88 -38
89 -37
90 -38
91 -40
92 -38
93 -39
94 -40
95 -37
96 -37
97 -39
98 -38
99 -38