0 -56
1 -56
2 -55
3 -56
4 -56
5 -57
6 -57
7 -57
8 -57
9 -56
10 -56
11 -55
12 -55
13 -55
14 -56
15 -56
16 -56
17 -56
18 -57
19 -57
20 -56
21 -55
22 -55
23 -55
24 -55
25 -55
26 -56
27 -56
28 -56
29 -55
30 -54
31 -56
32 -55
33 -56
34 -55
35 -55
36 -54
37 -54
38 -55
39 -54
40 -54
41 -54
42 -54
43 -55
44 -54
45 -55
46 -54
47 -54
48 -55
49 -54
50 -54
51 -55
52 -55
53 -55
54 -55
55 -55
56 -55
57 -54
58 -54
59 -54
60 -54
61 -54
62 -54
63 -55
64 -55
65 -54
66 -54
67 -56
68 -55
69 -54
70 -54
71 -54
72 -54
73 -54
74 -55
75 -55
76 -55
77 -54
78 -54
79 -53
80 -54
81 -53
82 -54
83 -55
84 -54
85 -55
86 -55
87 -55
88 -54
89 -55
90 -54
91 -54
92 -54
93 -55
94 -55
95 -55
96 -55
97 -55
98 -54
99 -55