0 -57
1 -57
2 -56
3 -57
4 -55
5 -58
6 -58
7 -55
8 -56
9 -58
10 -58
11 -55
12 -54
13 -55
14 -56
15 -55
16 -58
17 -56
18 -56
19 -57
20 -57
21 -58
22 -55
23 -54
24 -56
25 -54
26 -57
27 -57
28 -57
29 -57
30 -54
31 -56
32 -55
33 -57
34 -59
35 -58
36 -57
37 -58
38 -55
39 -58
40 -56
41 -58
42 -55
43 -57
44 -58
45 -57
46 -58
47 -54
48 -53
49 -55
50 -56
51 -57
52 -55
53 -57
54 -58
55 -56
56 -58
57 -57
58 -57
59 -58
60 -54
61 -56
62 -58
63 -56
64 -56
65 -56
66 -56
67 -56
68 -57
69 -58
70 -57
71 -55
72 -57
73 -55
74 -56
75 -56
76 -53
77 -57
78 -62
79 -55
80 -54
81 -57
82 -56
83 -56
84 -57
85 -60
86 -55
87 -54
88 -53
89 -53
90 -56
91 -59
92 -57
93 -56
94 -54
95 -58
96 -54
97 -55
98 -54
99 -56