0 -57
1 -56
2 -55
3 -55
4 -55
5 -55
6 -55
7 -55
8 -55
9 -55
10 -55
11 -55
12 -55
13 -56
14 -56
15 -55
16 -56
17 -57
18 -57
19 -56
20 -56
21 -56
22 -56
23 -55
24 -57
25 -57
26 -55
27 -56
28 -57
29 -58
30 -56
31 -54
32 -56
33 -57
34 -57
35 -55
36 -57
37 -53
38 -56
39 -59
40 -58
41 -58
42 -56
43 -57
44 -58
45 -57
46 -56
47 -57
48 -56
49 -57
50 -56
51 -58
52 -58
53 -57
54 -57
55 -55
56 -57
57 -58
58 -59
59 -57
60 -56
61 -55
62 -56
63 -56
64 -56
65 -57
66 -59
67 -57
68 -56
69 -58
70 -58
71 -58
72 -59
73 -59
74 -57
75 -58
76 -58
77 -58
78 -57
79 -55
80 -57
81 -58
82 -57
83 -56
84 -58
85 -58
86 -57
87 -57
88 -57
89 -57
90 -58
91 -58
92 -56
93 -59
94 -58
95 -58
96 -56
97 -57
98 -57
99 -57