0 -56
1 -57
2 -57
3 -57
4 -57
5 -56
6 -56
7 -65
8 -56
9 -57
10 -55
11 -56
12 -55
13 -55
14 -55
15 -55
16 -56
17 -55
18 -55
19 -57
20 -55
21 -55
22 -55
23 -55
24 -57
25 -56
26 -56
27 -55
28 -56
29 -57
30 -57
31 -55
32 -65
33 -57
34 -58
35 -57
36 -55
37 -55
38 -56
39 -55
40 -56
41 -56
42 -56
43 -57
44 -57
45 -55
46 -57
47 -56
48 -57
49 -57
50 -57
51 -57
52 -55
53 -55
54 -55
55 -57
56 -55
57 -53
58 -54
59 -53
60 -56
61 -56
62 -56
63 -56
64 -55
65 -57
66 -57
67 -56
68 -56
69 -55
70 -56
71 -56
72 -56
73 -56
74 -56
75 -56
76 -54
77 -56
78 -57
79 -55
80 -57
81 -58
82 -58
83 -56
84 -55
85 -56
86 -56
87 -54
88 -55
89 -56
90 -55
91 -55
92 -55
93 -56
94 -55
95 -56
96 -56
97 -54
98 -55
99 -56