20 0 0
20 85 0
20 90 0
20 95 0
21 0 0
21 85 0
21 90 0
21 95 0
22 0 0
22 85 0
22 90 0
22 95 0
23 0 0
23 85 0
23 90 0
23 95 0
24 0 0
24 85 0
24 90 0
24 95 0
25 0 0
25 85 0
25 90 0
25 95 0
26 0 0
26 85 0
26 90 0
26 95 0
27 0 0
27 85 0
27 90 0
27 95 0
28 0 0
28 85 0
28 90 0
28 95 0
29 0 0
29 85 0
29 90 0
29 95 0
30 0 0
30 85 0
30 90 0
30 95 0
31 0 0
31 85 0
31 90 0
31 95 0
32 0 0
32 85 0
32 90 0
32 95 0
33 0 0
33 85 0
33 90 0
33 95 0
34 0 0
34 85 0
34 90 0
34 95 0
35 0 0
35 85 0
35 90 0
35 95 0
36 0 0
36 85 0
36 90 0
36 95 0
37 0 0
37 85 0
37 90 0
37 95 0
38 0 0
38 85 0
38 90 0
38 95 0
39 0 0
39 85 0
39 90 0
39 95 0
40 0 0
40 85 0
40 90 0
40 95 0
41 0 0
41 85 0
41 90 0
41 95 0
42 0 0
42 85 0
42 90 0
42 95 0
43 0 0
43 85 0
43 90 0
43 95 0
44 0 0
44 85 0
44 90 0
44 95 0
45 0 0
45 85 0
45 90 0
45 95 0
46 0 0
46 85 0
46 90 0
46 95 0
47 0 0
47 85 0
47 90 0
47 95 0
48 0 0
48 85 0
48 90 0
48 95 0
49 0 0
49 85 0
49 90 0
49 95 0
50 0 0
50 85 0
50 90 0
50 95 0
51 0 0
51 85 0
51 90 0
51 95 0
52 0 0
52 85 0
52 90 0
52 95 0
53 0 0
53 85 0
53 90 0
53 95 0
54 0 0
54 85 0
54 90 0
54 95 0
55 0 0
55 85 0
55 90 0
55 95 0
56 0 0
56 85 0
56 90 0
56 95 0
57 0 0
57 85 0
57 90 0
57 95 0
58 0 0
58 85 0
58 90 0
58 95 0
59 0 0
59 85 0
59 90 0
59 95 0
60 0 0
60 85 0
60 90 0
60 95 0
61 0 0
61 85 0
61 90 0
61 95 0
62 0 0
62 85 0
62 90 0
62 95 0
63 0 0
63 85 0
63 90 0
63 95 0
64 0 0
64 85 0
64 90 0
64 95 0
65 0 0
65 85 0
65 90 0
65 95 0
66 0 0
66 85 0
66 90 0
66 95 0
67 0 0
67 85 0
67 90 0
67 95 0
68 0 0
68 85 0
68 90 0
68 95 0
69 0 0
69 85 0
69 90 0
69 95 0
70 0 0
70 85 0
70 90 0
70 95 0
71 0 0
71 85 0
71 90 0
71 95 0
72 0 0
72 85 0
72 90 0
72 95 0
73 0 0
73 85 0
73 90 0
73 95 0
74 0 0
74 85 0
74 90 0
74 95 0
75 0 0
75 85 0
75 90 0
75 95 0
76 0 0
76 85 0
76 90 0
76 95 0
77 0 0
77 85 0
77 90 0
77 95 0
78 0 0
78 85 0
78 90 0
78 95 0
79 0 0
79 85 0
79 90 0
79 95 0
80 0 0
80 85 0
80 90 0
80 95 0
81 0 0
81 85 0
81 90 0
81 95 0
82 0 0
82 85 0
82 90 0
82 95 0
83 0 0
83 85 0
83 90 0
83 95 0
84 0 0
84 85 0
84 90 0
84 95 0
85 0 0
85 85 0
85 90 0
85 95 0
86 0 0
86 85 0
86 90 0
86 95 0
87 0 0
87 85 0
87 90 0
87 95 0
88 0 0
88 85 0
88 90 0
88 95 0
89 0 0
89 85 0
89 90 0
89 95 0
90 0 0
90 85 0
90 90 0
90 95 0
91 0 0
91 85 0
91 90 0
91 95 0
92 0 0
92 85 0
92 90 0
92 95 0
93 0 0
93 85 0
93 90 0
93 95 0
94 0 0
94 85 0
94 90 0
94 95 0
95 0 0
95 85 0
95 90 0
95 95 0
96 0 0
96 85 0
96 90 0
96 95 0
97 0 0
97 85 0
97 90 0
97 95 0
98 0 0
98 85 0
98 90 0
98 95 0
99 0 0
99 85 0
99 90 0
99 95 0
100 0 0
100 85 0
100 90 0
100 95 0
