0 -51
1 0
2 0
3 -49
4 -49
5 -49
6 -50
7 -48
8 -49
9 -49
10 -48
11 -49
12 -48
13 -49
14 -48
15 -48
16 -48
17 -48
18 -48
19 -48
20 -49
21 -48
22 -49
23 -49
24 -42
25 -49
26 -49
27 -48
28 -49
29 -50
30 -49
31 -50
32 -49
33 -48
34 -49
35 -49
36 -48
37 -48
38 -49
39 -49