0 -45
1 -47
2 -43
3 -48
4 -48
5 -47
6 -44
7 -47
8 -48
9 -49
10 -48
11 -48
12 -48
13 -48
14 -48
15 -48
16 -48
17 -48
18 -48
19 -47
20 -48
21 -48
22 -47
23 -47
24 -49
25 -48
26 -48
27 -47
28 -47
29 -47
30 -48
31 -47
32 -48
33 -49
34 -49
35 -47
36 -48
37 -48
38 -48
39 -50