0 -49
1 -51
2 -50
3 -49
4 -51
5 -50
6 -49
7 -52
8 -50
9 -49
10 -49
11 -51
12 -50
13 -50
14 -50
15 -49
16 -49
17 0
18 0
19 0
20 0
21 -50
22 -50
23 -50
24 -51
25 -50
26 -51
27 -50
28 -50
29 -51
30 -50
31 -50
32 -50
33 -50
34 -50
35 -51
36 -50
37 -51
38 -51
39 -50