0 -49
1 -48
2 -48
3 -49
4 -46
5 -61
6 -49
7 -49
8 -48
9 -49
10 -49
11 0
12 0
13 0
14 0
15 -48
16 -48
17 -48
18 -49
19 -48
20 -49
21 -49
22 -49
23 -45
24 -47
25 -49
26 -48
27 -48
28 -49
29 -44
30 -49
31 -49
32 -49
33 -48
34 -48
35 -48
36 -48
37 -49
38 -49
39 -48