0 -47
1 -48
2 -48
3 -47
4 -47
5 -48
6 -48
7 -47
8 -47
9 -47
10 -48
11 -49
12 -47
13 -48
14 -47
15 -47
16 -47
17 -47
18 0
19 0
20 0
21 -48
22 -47
23 -47
24 -47
25 -48
26 -47
27 -47
28 -47
29 -47
30 -47
31 -47
32 -47
33 -47
34 -47
35 -47
36 -47
37 -49
38 -48
39 -48