0 -50
1 -48
2 -48
3 -48
4 -48
5 -47
6 -48
7 -48
8 -48
9 -47
10 -48
11 -47
12 -48
13 -47
14 -48
15 -47
16 -48
17 -47
18 -48
19 -48
20 -48
21 -48
22 -47
23 -48
24 -48
25 -48
26 -47
27 -47
28 0
29 0
30 0
31 0
32 -48
33 -48
34 -48
35 -48
36 -48
37 -48
38 -48
39 -48