0 -62
1 -65
2 -65
3 -64
4 -64
5 -62
6 -63
7 -64
8 -64
9 -64
10 -64
11 -64
12 -65
13 -64
14 -64
15 0
16 0
17 0
18 -62
19 -62
20 -63
21 -63
22 -65
23 -62
24 -64
25 -63
26 -63
27 -63
28 -64
29 -64
30 -63
31 -63
32 -63
33 -63
34 -64
35 -63
36 -61
37 -63
38 -63
39 -63