0 0
1 0
2 0
3 -63
4 -63
5 -63
6 -63
7 -63
8 -64
9 -63
10 -63
11 -63
12 -64
13 -64
14 -63
15 -63
16 -63
17 -62
18 -62
19 -62
20 -63
21 -63
22 -62
23 -64
24 -61
25 -63
26 -62
27 -62
28 -63
29 -63
30 -63
31 -63
32 -62
33 -61
34 -62
35 -62
36 -62
37 -62
38 -62
39 -62