0 -46
1 -47
2 -47
3 -47
4 -46
5 -46
6 -46
7 -47
8 -47
9 -47
10 -47
11 -47
12 -47
13 -44
14 -46
15 -47
16 -47
17 -47
18 -46
19 -47
20 -46
21 -47
22 -47
23 -46
24 -47
25 -45
26 -47
27 -43
28 -47
29 -46
30 -47
31 -47
32 -47
33 -46
34 -47
35 -46
36 -47
37 -46
38 -47
39 -46