0 -54
1 -47
2 -46
3 -47
4 -45
5 -44
6 -47
7 -46
8 -45
9 -47
10 -43
11 -43
12 0
13 0
14 0
15 -45
16 -43
17 -47
18 -47
19 -48
20 -47
21 -47
22 -46
23 -46
24 -46
25 -48
26 -47
27 -45
28 -45
29 -45
30 -47
31 -45
32 -44
33 -49
34 -48
35 -47
36 -47
37 -47
38 -47
39 -47