0 -50
1 -48
2 -48
3 -48
4 -49
5 -49
6 -50
7 -48
8 -48
9 -49
10 -49
11 -49
12 -48
13 -49
14 -48
15 -49
16 -48
17 -50
18 0
19 0
20 0
21 -48
22 -48
23 -49
24 -49
25 -49
26 -49
27 -49
28 -48
29 -49
30 -48
31 -49
32 -48
33 -48
34 -49
35 -48
36 -49
37 -47
38 -49
39 -48