0 -40
1 -41
2 -40
3 -40
4 -42
5 -40
6 -40
7 -40
8 -40
9 -40
10 -41
11 -41
12 -40
13 -41
14 -42
15 0
16 0
17 0
18 -39
19 -40
20 -40
21 -40
22 -40
23 -40
24 -40
25 -40
26 -39
27 -40
28 -40
29 -40
30 -40
31 -39
32 -40
33 -40
34 -40
35 -39
36 -40
37 -40
38 -40
39 -39