0 -51
1 -52
2 -51
3 -52
4 -52
5 -51
6 -51
7 -52
8 -51
9 -51
10 -51
11 -51
12 -52
13 -53
14 -52
15 -51
16 -52
17 -51
18 -53
19 -51
20 -50
21 -51
22 -51
23 -51
24 -51
25 -52
26 -47
27 -52
28 -49
29 -52
30 -52
31 -50
32 -52
33 -51
34 -52
35 -52
36 -52
37 -52
38 -51
39 -52