0 -51
1 -51
2 -50
3 -52
4 -50
5 -50
6 -50
7 -52
8 -51
9 -52
10 -51
11 -52
12 -52
13 -51
14 -51
15 -50
16 -51
17 -51
18 -51
19 -52
20 -52
21 -50
22 -52
23 -50
24 -51
25 -51
26 -50
27 -51
28 -52
29 -51
30 -51
31 -51
32 -52
33 -50
34 -51
35 -52
36 -46
37 -52
38 -51
39 -51