0 -44
1 -44
2 -43
3 -43
4 -43
5 -43
6 -44
7 -44
8 -45
9 -43
10 -44
11 -44
12 -43
13 -44
14 -44
15 -44
16 -44
17 -44
18 -43
19 -43
20 -43
21 -43
22 -43
23 -44
24 -43
25 -43
26 -43
27 -44
28 -44
29 -43
30 -43
31 -44
32 -44
33 -43
34 -43
35 -44
36 -43
37 -45
38 -43
39 -44