0 -44
1 -44
2 -44
3 -44
4 -45
5 -44
6 -44
7 -45
8 -44
9 -44
10 -45
11 -46
12 -44
13 -45
14 -44
15 -44
16 -45
17 -44
18 -45
19 -44
20 -45
21 -45
22 -44
23 -44
24 -46
25 -44
26 -45
27 -45
28 -44
29 -45
30 -45
31 -45
32 -45
33 -45
34 -45
35 -45
36 -45
37 -45
38 -46
39 -45