0 -52
1 -52
2 -51
3 -51
4 -52
5 -51
6 -51
7 -51
8 -51
9 -51
10 -50
11 -53
12 -52
13 -52
14 -52
15 -52
16 -52
17 -51
18 -51
19 -51
20 -51
21 -51
22 -51
23 -52
24 -52
25 -51
26 -52
27 -52
28 -51
29 -51
30 -51
31 -52
32 -50
33 -52
34 -52
35 -52
36 -52
37 -53
38 -52
39 -52