0 -55
1 -57
2 -56
3 -57
4 -55
5 -57
6 -56
7 -56
8 -57
9 -56
10 -56
11 -56
12 -56
13 -56
14 -56
15 -57
16 -58
17 -55
18 -55
19 -58
20 -55
21 -56
22 -56
23 -56
24 -55
25 -57
26 -56
27 -56
28 -55
29 -57
30 -55
31 -56
32 -56
33 -56
34 -57
35 -56
36 -56
37 -56
38 -57
39 -57