0 -52
1 -52
2 -52
3 -52
4 -52
5 -51
6 -52
7 -50
8 -51
9 -51
10 -52
11 -52
12 -53
13 -52
14 -52
15 -52
16 -50
17 -52
18 -52
19 -52
20 -52
21 -51
22 -52
23 -52
24 -52
25 -52
26 -52
27 -51
28 -50
29 -52
30 -53
31 -52
32 -52
33 -53
34 -51
35 -52
36 -53
37 -52
38 -52
39 -51