0 -47
1 -46
2 -46
3 -46
4 -46
5 -46
6 -46
7 -47
8 -47
9 -47
10 -47
11 -46
12 -47
13 -47
14 0
15 0
16 0
17 0
18 -46
19 -46
20 -46
21 -46
22 -46
23 -46
24 -47
25 -47
26 -47
27 -44
28 -47
29 -45
30 -46
31 -47
32 -46
33 -47
34 -47
35 -48
36 -46
37 -46
38 -48
39 -47