0 -52
1 -52
2 -50
3 -52
4 -51
5 -51
6 -52
7 -51
8 -52
9 -51
10 -51
11 -53
12 -52
13 -52
14 -52
15 -52
16 -51
17 -51
18 -52
19 -52
20 -50
21 -52
22 -51
23 -51
24 -52
25 -52
26 -51
27 -52
28 -51
29 -51
30 -51
31 -51
32 -52
33 -52
34 -51
35 -51
36 -52
37 -52
38 -52
39 -48