0 -45
1 -44
2 -43
3 -45
4 -44
5 -43
6 -42
7 -44
8 -43
9 -43
10 -44
11 -43
12 -44
13 -43
14 -42
15 -41
16 -40
17 -41
18 -41
19 -42
20 -44
21 -42
22 -40
23 -44
24 -41
25 -42
26 -42
27 -41
28 -42
29 -42
30 -43
31 -44
32 -43
33 -41
34 -42
35 -41
36 -44
37 -41
38 -39
39 -46