0 -56
1 -56
2 -57
3 -56
4 -57
5 -58
6 -58
7 -57
8 -55
9 -56
10 -57
11 -57
12 -56
13 -57
14 -56
15 -56
16 -57
17 -57
18 -56
19 -57
20 -57
21 -57
22 -57
23 -56
24 -57
25 -56
26 -57
27 -56
28 -56
29 -56
30 -69
31 -57
32 -56
33 -57
34 -58
35 -58
36 -58
37 -57
38 -58
39 -57