0 -56
1 -56
2 -56
3 -56
4 -56
5 -56
6 -56
7 -57
8 -56
9 -57
10 -56
11 -55
12 -56
13 -56
14 -55
15 -55
16 -56
17 -56
18 -57
19 -57
20 -57
21 -56
22 -56
23 -57
24 -57
25 -56
26 -56
27 -56
28 -56
29 -56
30 -56
31 -55
32 -56
33 -56
34 -56
35 -56
36 -56
37 -57
38 -56
39 -57