0 -57
1 -56
2 -53
3 -57
4 -57
5 -57
6 -56
7 -56
8 -56
9 -56
10 -56
11 -57
12 -56
13 -56
14 -57
15 -57
16 -56
17 -56
18 -56
19 -56
20 -56
21 -57
22 -57
23 -56
24 -70
25 -57
26 -57
27 -57
28 -57
29 -57
30 -56
31 -57
32 -56
33 -56
34 -57
35 -57
36 -56
37 -56
38 -56
39 -56