0 -54
1 -54
2 -56
3 -55
4 -56
5 -51
6 -54
7 -66
8 -55
9 -56
10 -54
11 -54
12 -55
13 -55
14 -55
15 -54
16 -55
17 -55
18 -55
19 -54
20 -54
21 -56
22 -54
23 -54
24 -54
25 -56
26 -56
27 -55
28 -56
29 -54
30 -54
31 -54
32 -55
33 -55
34 -56
35 -54
36 -54
37 -54
38 -54
39 -55