0 -55
1 -55
2 -54
3 -55
4 -55
5 -55
6 -56
7 -55
8 -55
9 -53
10 -55
11 -55
12 -55
13 -55
14 -55
15 -55
16 -56
17 -54
18 -54
19 -55
20 -55
21 -54
22 -54
23 -53
24 -55
25 -54
26 -55
27 -55
28 -55
29 -54
30 -55
31 -54
32 -55
33 -55
34 -55
35 -55
36 -55
37 -55
38 -54
39 -55