0 -55
1 -54
2 -53
3 -56
4 -55
5 -55
6 -55
7 -55
8 -54
9 -54
10 -55
11 -54
12 -56
13 -55
14 -55
15 -54
16 -55
17 -53
18 -55
19 -54
20 -55
21 -55
22 -54
23 -54
24 -54
25 -55
26 -54
27 -49
28 -55
29 -52
30 -52
31 -55
32 -56
33 -53
34 -55
35 -55
36 -54
37 -54
38 -54
39 -54