0 -59
1 -61
2 -61
3 -57
4 -62
5 -61
6 -61
7 -60
8 -61
9 -62
10 -61
11 -61
12 -61
13 -60
14 -59
15 -60
16 -61
17 -61
18 -61
19 -63
20 -61
21 -61
22 -61
23 -60
24 -62
25 -61
26 -63
27 -62
28 -61
29 -62
30 -60
31 -62
32 -61
33 -61
34 -61
35 -61
36 -60
37 -61
38 -59
39 -60