0 -61
1 -60
2 -59
3 -60
4 -60
5 -60
6 -61
7 -60
8 -59
9 -60
10 -62
11 -60
12 -61
13 -60
14 -59
15 -60
16 -60
17 -59
18 -59
19 -59
20 -61
21 -62
22 -61
23 -60
24 -59
25 -60
26 -61
27 -61
28 -61
29 -60
30 -60
31 -61
32 -60
33 -61
34 -63
35 0
36 0
37 0
38 -60
39 -60