0 -55
1 -54
2 -53
3 -56
4 -55
5 -55
6 -55
7 -56
8 -55
9 -55
10 -56
11 -57
12 -55
13 -55
14 -56
15 -56
16 -55
17 -55
18 -55
19 -55
20 -55
21 -54
22 -54
23 -55
24 -55
25 -55
26 -53
27 -53
28 -53
29 -55
30 -55
31 -53
32 -54
33 -55
34 -54
35 -55
36 -55
37 -54
38 -55
39 -55