0 -60
1 -60
2 -61
3 -60
4 -60
5 -58
6 -60
7 -60
8 -57
9 -60
10 -61
11 -61
12 -60
13 -60
14 -59
15 -59
16 -61
17 -61
18 -60
19 -59
20 -60
21 -60
22 -59
23 -59
24 -58
25 -60
26 -60
27 -59
28 -60
29 -61
30 -61
31 -60
32 -60
33 -61
34 -61
35 -60
36 -60
37 -60
38 -61
39 -56