0 -61
1 -61
2 -59
3 -59
4 -59
5 -59
6 -61
7 -59
8 -58
9 -60
10 -59
11 -59
12 -59
13 -59
14 -59
15 -59
16 -59
17 -60
18 -61
19 -60
20 -61
21 -60
22 -60
23 -61
24 -60
25 -61
26 -60
27 -60
28 -59
29 -60
30 -61
31 -59
32 -59
33 -59
34 -60
35 -61
36 -60
37 -60
38 -61
39 -61