0 -58
1 -59
2 -61
3 -60
4 -59
5 -59
6 -59
7 -59
8 -59
9 -52
10 -60
11 -59
12 -59
13 -60
14 -59
15 -61
16 -59
17 -58
18 -60
19 -58
20 -59
21 -59
22 -59
23 -60
24 -59
25 -59
26 -59
27 -60
28 -59
29 -60
30 -60
31 -60
32 -59
33 -60
34 -61
35 -61
36 -59
37 -59
38 -59
39 -60