0 -47
1 -46
2 -47
3 -46
4 -46
5 -45
6 -46
7 -46
8 -46
9 -45
10 -46
11 -46
12 -46
13 -45
14 -46
15 -44
16 -46
17 -47
18 -48
19 -47
20 -46
21 -46
22 -46
23 -46
24 -47
25 -47
26 -46
27 -45
28 -47
29 -47
30 -47
31 -46
32 -46
33 -45
34 -55
35 0
36 0
37 0
38 -46
39 -45