0 -45
1 -46
2 -46
3 -46
4 -45
5 -46
6 -46
7 -46
8 -46
9 -46
10 -45
11 -45
12 -46
13 -46
14 -46
15 -47
16 -46
17 -46
18 -46
19 -46
20 -46
21 -46
22 -46
23 -45
24 -46
25 -46
26 -45
27 -45
28 -45
29 -46
30 -46
31 -46
32 -47
33 -46
34 -47
35 -46
36 -46
37 -46
38 -46
39 -46