0 -45
1 -45
2 -45
3 -45
4 -45
5 -45
6 -45
7 -45
8 -45
9 -45
10 -45
11 -45
12 -45
13 -46
14 -45
15 -45
16 -45
17 -45
18 -45
19 -45
20 -45
21 -46
22 -46
23 -45
24 -45
25 -46
26 -46
27 -53
28 0
29 0
30 0
31 -45
32 -45
33 -45
34 -45
35 -45
36 -44
37 -45
38 -45
39 -45