0 -51
1 -50
2 -52
3 -52
4 -51
5 -51
6 -51
7 -52
8 -51
9 -54
10 -52
11 -51
12 -51
13 -51
14 -51
15 -52
16 -52
17 -51
18 -51
19 -52
20 -50
21 -52
22 -51
23 -51
24 -51
25 -51
26 -51
27 -51
28 -52
29 -52
30 -51
31 -51
32 -51
33 -52
34 -51
35 -50
36 -52
37 -51
38 -52
39 -50