0 -62
1 -62
2 -63
3 -62
4 -61
5 -61
6 -61
7 -63
8 -60
9 -61
10 -62
11 -62
12 -61
13 -62
14 -61
15 -62
16 -61
17 -62
18 -61
19 -62
20 -62
21 -61
22 -61
23 -62
24 -61
25 -61
26 -62
27 -62
28 -62
29 -61
30 -63
31 -61
32 -62
33 -62
34 -63
35 -62
36 -63
37 -61
38 -61
39 -62