0 -61
1 -61
2 -62
3 -61
4 -62
5 -61
6 -61
7 -61
8 -61
9 -62
10 -62
11 -62
12 -60
13 -62
14 -62
15 -62
16 -62
17 -61
18 -62
19 -62
20 -62
21 -61
22 -62
23 -62
24 -61
25 -61
26 -62
27 -62
28 -61
29 -61
30 -61
31 -61
32 -62
33 -62
34 -61
35 -61
36 -61
37 -60
38 -62
39 -62