0 -61
1 -61
2 -62
3 -62
4 -61
5 -63
6 -63
7 -61
8 -62
9 -63
10 -62
11 -63
12 -63
13 -61
14 -62
15 -61
16 -63
17 -63
18 -62
19 -63
20 -63
21 -62
22 -62
23 -62
24 -63
25 -63
26 -61
27 -61
28 -62
29 -63
30 -63
31 -63
32 -61
33 -62
34 -62
35 -62
36 -62
37 -63
38 -62
39 -61